{
    "hashes": {
        "LICENSE": "3a02a6ec14e9d076b79aea8301eab31053c6600b68dcfa6261e10edaa7296a87c8767e35f2411d234b90111fcaf6b4a55c49aa2790a1a0d015213218bb7549fc",
        "appinfo\/info.xml": "7c3f8ce6892017d0b03a1a8fc27541a328f9b891a8506a68acbf46255cd7c2bfb92941350ee8bc6980f9e9f17aeeb23b7a96f0d8fa4cfb5d8f1c7ec304d2c363",
        "appinfo\/routes.php": "8024cba5949182ded5358f10cd6b802e09702d6ea8456c855e342e66802938cebc888687269a7236f2b08c856a62c288d7aed33213aefda46936fa1e97947450",
        "babel.config.js": "33b197cfa7e65b7f2b0900c1364122cc7f5718cdad6f4c091486c9a52c217336c0c75c7fd9e06470930b47406f30f69ff129ba998691adbb8ce3be4f9fdcacbd",
        "codecov.yml": "105346c5771c3e6872ec22a87e025ce12dd74c0ce6cb2ea3641c65988724f3928b24bf1b014d7fa7f56b39681c4106a8363a81023baf13037760c3d3176257c7",
        "composer.json": "303609697a16e58736519f428e0a67da3c2132d0abac5459abade68c3a9272661d6dfaef1f44126acc1131e73e5f06cf72afbabd2787937301adf45938d5ecb8",
        "composer.lock": "a6d7e36f06d0da7c6edb26631e6f8a47ce49cdea03e0b3d09c7ba8dd1f4b644e408a156d56363fdc0e26a4907d3e63379f0bb51ba64b8ddd50ad8f65c43d5639",
        "img\/app.svg": "eda9b8cca85e4a60a02d9bed0286a526df4a02f23437720a057f98da7fe2d191b74d8e25861a4ac148b69b9ff142c5aa25dbb7c7248c42846f07aded01bf0efe",
        "js\/password_policy-settings.js": "73075850cb1060c29f56996d724f479af2b041ba183c11775797849ee5130ab5e70a009222f64baa63fd0b4d991700001777ea5cdfa9f1efe23970a1c5867cec",
        "js\/password_policy-settings.js.LICENSE.txt": "2c21d5b33a7e03b94eb7f896437ab2748f422ed5450b5bfca6d78afeef3b90a7cb192468ed3edefd17946b165d7185b195f46beed1d8bc00fdab337941e222b9",
        "js\/password_policy-settings.js.map": "62568aefee270a64ecdaaeef41af1071cf0652b868898041b12c6a94096bdb873ddbc25df418247fd6761604191de335e7963be41312f597a5870c5793695982",
        "l10n\/af.js": "97bef015bc28bdcddc1ae33300d5ff4ccc1cf4d64fbe88a555df8a6328bc8b81404bfb3ab2bf9f48c5ae89ba4ff8b87c73e7449fc823812c4df4fc291f2a0039",
        "l10n\/af.json": "b0857cc0ceb76022f427c0a8bc8e32902fd5b07e40446ced81d9f0058837566651cd121d2972d2a68cb97db330bdc6c70c04ea506026a8c068d397a815f64ec4",
        "l10n\/ast.js": "3bb48ef108ac890c2b6689129f154e05e66ec9a8ed0074405422fd8783c55e137a392d1b78cfdb5bed968378c9a68945739e0ef60df9ba8f4ef473b5ff014bd0",
        "l10n\/ast.json": "25930b1238caaac1e36cf7062c3c454ef88c667233448e5266bbcbc852d8be8f5ddceb41d2e75419901f402fce6a219bdb28cd7046114e321424f119a7484e7c",
        "l10n\/bg.js": "b6181156f62b0fd2eba525d15be11f584a1d0901807a67c6b8a35fa24242338ad30c1ce7361571a46e07d4b45f9e93024bb2c34aa653888db9bd946f5bc565d4",
        "l10n\/bg.json": "07f0b9b0d9459875b4ddd4152489fda226180f3f9dcf39353de3527efee3feb9c36cd50c4e30cc2b08900c21a55f6419ed5832ac37a7e399927b9c5288896790",
        "l10n\/ca.js": "d0aeffd2a188ad4c09542af77cfc1fc8f8ce5758c68a54f2a7ffadf129a9770758c1abb87999f54114d0193ef5902c7fdd461423a36222b251ed00ba353f8edb",
        "l10n\/ca.json": "fd8bc6c5eafec07f16fc735dad082641259cc67a35ff4bceaf430d225a91db73d3eccfa769f7d7be6dcd4a4bdff9c30df33db3e5df6345d2571a48f909f3a4aa",
        "l10n\/cs.js": "d570dbaceeaf0b14ac672e36680d25f1991c4b8507012fda4592a8544bbecf8894ca11342a3a5f7cb46180954c1c5f3cd418a533e7cbbffcba3c030f63edbe2b",
        "l10n\/cs.json": "de7953610ee75a89b26b2daf57ae805c16e00d3e34c58004a40b2c7cf0ec41cd26e4bd314a534261bcfc5231ff4bc3167d5b6d6e2fdb057a8fb9b1da99e4a924",
        "l10n\/da.js": "170580e905076d3f29130ed2000661344fd73375fbb42cad17858357ff6fe1abec1befde5af3004148753aa9cb5c6328aa6e792c411a72eff6401f8a0bf46836",
        "l10n\/da.json": "aa6f77ce6146e21d533ea1dd6d9b9455a03bcbbd2bfad324ad4c2f6ccc5cb5b7b509e4243d16ef619acce6932312354d8421f8e9cb105e11f3f30e6ade1c8c04",
        "l10n\/de.js": "8e57a58f577b2d04e0e1d82faa60702ebaf6cb01ed40a06dd82a07bd6c84379d8ca7f14134601848a3e7e9fb26ec73961cdd7d32f0b3adff1b104dc60cd5c2b4",
        "l10n\/de.json": "d7701fd5d9f43b6636e975e5c1a7092b33ccda5ad20e2fa65cb6d946477802da208c474d6a6ec556b7bc01bf4089b53d87ec76bd880033cfe6dde53782498afc",
        "l10n\/de_DE.js": "047d518e08168da7459f04eff7b015e5b29f184f0d90efed2c9cf699fdd1cb947cd92842b704c9c944d3478220ab2522fd90eef4710e4e188724589bf92a0533",
        "l10n\/de_DE.json": "25df7795d8056358329ad6bd80a79188bf1a92e74b9fe53b2055c3669bbadf43ac884211538b107adcaa8b37a334444026d917ebce68cc1ffc05bc0289163737",
        "l10n\/el.js": "fb95c02b61db98bdbff9f83090f9a7f20aca3a430ed2e4470a8705ae60aa2d9eb0bf86e4298c091a2a8de593f6db7feda93c666780c7f311162a35ecfce96f39",
        "l10n\/el.json": "28317a197d2448cda5a5efe561e4852fd4f383b959f43d7e4c5f7bd8975159bd760c10e261677f160038200e7397ac78695342423190c765b6c88d03a52a65ce",
        "l10n\/en_GB.js": "94433450b27fac72f6afa0cbf1ae704596732458636cc009982aa20ccf31fe3e95574c4858047c49fcea28b04fdd06101fe81f9586f277c490d8c28180a8339d",
        "l10n\/en_GB.json": "95d367a6e17528d1188ff920d1a46b334192a28d181f26d108285d28d4b4e24ce92da6868557c80c00e35e56612bdcb250df86532597941693cbd9800b651c01",
        "l10n\/eo.js": "e3e7c63d64a836eb0ef4304c0850a1f1f3ab5ee3d91b06f3befc9ed71b19171d6189b425e099406e217acc75106d98412c49280d5446a2f72eb93d421978ea93",
        "l10n\/eo.json": "df3ce621468eb636957ad0ae4e1c3c0f40066142e6cd6420c5eade7342d4d75b9bd98f40f5db838f5c02a88eabe5d4e2707e2259c2cbc41c298c04aebddae0b3",
        "l10n\/es.js": "4cac9f157ab15e88b83f8d6418b6735379f35c0d6e795cd463875f514bdfe76de5f3777f737f18172d3d0f0349b86bfb9a6230d99880682d450e53ca8b9a145b",
        "l10n\/es.json": "7053edd82a5d3d8a68880138ae7a58953b589bc6977acdc55296915f63189fff2eebc3d74f9f423fd9f8217fd37e7aceef768a28ff5db4472602b9ec0af99bd6",
        "l10n\/es_419.js": "40095d00e808df67313e393e78b5da6d4e389990968714e9f6233ccc208c428a2daaea529685cdeaa4f06180d05b6e261a33dd0aec009f2c29c332a77a903da5",
        "l10n\/es_419.json": "b864fab4b476c4ec2a2f2186706917628eb691aa7673a1534d60d355ee104ae7266d7b93e10d0c3a323a9b15c124755a7d7345911276c7d9dec9784d88f843a7",
        "l10n\/es_AR.js": "83428f3405ab5cc475e9b8c3fdf2f117bfb9177b924541b3c66ee0104d2703e86c5f864b61ab2c526c1297d051fda34dd5b44a0cb7751f0b0c009f14b477571d",
        "l10n\/es_AR.json": "f80731352951bc9dd78c233930b1418883ff026233a28bcc5afd537bb8cca8c4d8db8f5ccb9e53093003c2cb717baa41833ee7ffa019a7e499d2ae669cb22569",
        "l10n\/es_CL.js": "3db6889387e656c3d8050af2132c80897f8c7a599a60d5c21aecb4d2b91078f4d0675861195fa1cd214c2a80194e9d2c80746acc607135d0732b4687f9c117cf",
        "l10n\/es_CL.json": "fd6bf31c3d3f26118a5be37699310ef92963a1c939f67d19b5a71887474393c0c28d051c7762651da7b3b6c545afcddfaf7b2b9bb977538ab458f57507487941",
        "l10n\/es_CO.js": "3db6889387e656c3d8050af2132c80897f8c7a599a60d5c21aecb4d2b91078f4d0675861195fa1cd214c2a80194e9d2c80746acc607135d0732b4687f9c117cf",
        "l10n\/es_CO.json": "fd6bf31c3d3f26118a5be37699310ef92963a1c939f67d19b5a71887474393c0c28d051c7762651da7b3b6c545afcddfaf7b2b9bb977538ab458f57507487941",
        "l10n\/es_CR.js": "3db6889387e656c3d8050af2132c80897f8c7a599a60d5c21aecb4d2b91078f4d0675861195fa1cd214c2a80194e9d2c80746acc607135d0732b4687f9c117cf",
        "l10n\/es_CR.json": "fd6bf31c3d3f26118a5be37699310ef92963a1c939f67d19b5a71887474393c0c28d051c7762651da7b3b6c545afcddfaf7b2b9bb977538ab458f57507487941",
        "l10n\/es_DO.js": "3db6889387e656c3d8050af2132c80897f8c7a599a60d5c21aecb4d2b91078f4d0675861195fa1cd214c2a80194e9d2c80746acc607135d0732b4687f9c117cf",
        "l10n\/es_DO.json": "fd6bf31c3d3f26118a5be37699310ef92963a1c939f67d19b5a71887474393c0c28d051c7762651da7b3b6c545afcddfaf7b2b9bb977538ab458f57507487941",
        "l10n\/es_EC.js": "3db6889387e656c3d8050af2132c80897f8c7a599a60d5c21aecb4d2b91078f4d0675861195fa1cd214c2a80194e9d2c80746acc607135d0732b4687f9c117cf",
        "l10n\/es_EC.json": "fd6bf31c3d3f26118a5be37699310ef92963a1c939f67d19b5a71887474393c0c28d051c7762651da7b3b6c545afcddfaf7b2b9bb977538ab458f57507487941",
        "l10n\/es_GT.js": "3db6889387e656c3d8050af2132c80897f8c7a599a60d5c21aecb4d2b91078f4d0675861195fa1cd214c2a80194e9d2c80746acc607135d0732b4687f9c117cf",
        "l10n\/es_GT.json": "fd6bf31c3d3f26118a5be37699310ef92963a1c939f67d19b5a71887474393c0c28d051c7762651da7b3b6c545afcddfaf7b2b9bb977538ab458f57507487941",
        "l10n\/es_HN.js": "40095d00e808df67313e393e78b5da6d4e389990968714e9f6233ccc208c428a2daaea529685cdeaa4f06180d05b6e261a33dd0aec009f2c29c332a77a903da5",
        "l10n\/es_HN.json": "b864fab4b476c4ec2a2f2186706917628eb691aa7673a1534d60d355ee104ae7266d7b93e10d0c3a323a9b15c124755a7d7345911276c7d9dec9784d88f843a7",
        "l10n\/es_MX.js": "455d21758d03a7054edeb798c497e525e3e7e0c953bfc170a29e35dc28f392dc1a9d6bd3380a914f79a23e54df6802a66b44f5297f193b6c45c17f079116f369",
        "l10n\/es_MX.json": "1aca6db4b70feb16de9e0817fb594c2f0bf645c90a108f67a1ca252df9f5ed4d823037306c7ad9d8429c5bdb7913bf33b8ad5690c78d80b2509bee9f8eec7065",
        "l10n\/es_NI.js": "40095d00e808df67313e393e78b5da6d4e389990968714e9f6233ccc208c428a2daaea529685cdeaa4f06180d05b6e261a33dd0aec009f2c29c332a77a903da5",
        "l10n\/es_NI.json": "b864fab4b476c4ec2a2f2186706917628eb691aa7673a1534d60d355ee104ae7266d7b93e10d0c3a323a9b15c124755a7d7345911276c7d9dec9784d88f843a7",
        "l10n\/es_PA.js": "40095d00e808df67313e393e78b5da6d4e389990968714e9f6233ccc208c428a2daaea529685cdeaa4f06180d05b6e261a33dd0aec009f2c29c332a77a903da5",
        "l10n\/es_PA.json": "b864fab4b476c4ec2a2f2186706917628eb691aa7673a1534d60d355ee104ae7266d7b93e10d0c3a323a9b15c124755a7d7345911276c7d9dec9784d88f843a7",
        "l10n\/es_PE.js": "40095d00e808df67313e393e78b5da6d4e389990968714e9f6233ccc208c428a2daaea529685cdeaa4f06180d05b6e261a33dd0aec009f2c29c332a77a903da5",
        "l10n\/es_PE.json": "b864fab4b476c4ec2a2f2186706917628eb691aa7673a1534d60d355ee104ae7266d7b93e10d0c3a323a9b15c124755a7d7345911276c7d9dec9784d88f843a7",
        "l10n\/es_PR.js": "40095d00e808df67313e393e78b5da6d4e389990968714e9f6233ccc208c428a2daaea529685cdeaa4f06180d05b6e261a33dd0aec009f2c29c332a77a903da5",
        "l10n\/es_PR.json": "b864fab4b476c4ec2a2f2186706917628eb691aa7673a1534d60d355ee104ae7266d7b93e10d0c3a323a9b15c124755a7d7345911276c7d9dec9784d88f843a7",
        "l10n\/es_PY.js": "40095d00e808df67313e393e78b5da6d4e389990968714e9f6233ccc208c428a2daaea529685cdeaa4f06180d05b6e261a33dd0aec009f2c29c332a77a903da5",
        "l10n\/es_PY.json": "b864fab4b476c4ec2a2f2186706917628eb691aa7673a1534d60d355ee104ae7266d7b93e10d0c3a323a9b15c124755a7d7345911276c7d9dec9784d88f843a7",
        "l10n\/es_SV.js": "3db6889387e656c3d8050af2132c80897f8c7a599a60d5c21aecb4d2b91078f4d0675861195fa1cd214c2a80194e9d2c80746acc607135d0732b4687f9c117cf",
        "l10n\/es_SV.json": "fd6bf31c3d3f26118a5be37699310ef92963a1c939f67d19b5a71887474393c0c28d051c7762651da7b3b6c545afcddfaf7b2b9bb977538ab458f57507487941",
        "l10n\/es_UY.js": "40095d00e808df67313e393e78b5da6d4e389990968714e9f6233ccc208c428a2daaea529685cdeaa4f06180d05b6e261a33dd0aec009f2c29c332a77a903da5",
        "l10n\/es_UY.json": "b864fab4b476c4ec2a2f2186706917628eb691aa7673a1534d60d355ee104ae7266d7b93e10d0c3a323a9b15c124755a7d7345911276c7d9dec9784d88f843a7",
        "l10n\/et_EE.js": "98cb9424006a0f629a42df952eddea7807aa2e1f7cce39e1da907f568522deef75fd543af71d0dba40b02ff370d4bdc69df7f780dcd0556d9d759a8a712d4cac",
        "l10n\/et_EE.json": "c0f733fa19301f55de33d40c2d73f7afa89cc3cd6ff44e3752efd9ea81b9f67381b493dc9333fc945dde44b4df8534a909a6439f374a966cede2159583cb6f2e",
        "l10n\/eu.js": "81786eab7ca68e8b592f59d4cc69697d444cb8340e1c725323ebee1ce8cff69e2db2f1ad1a5c561f4c2e2b3738a31dbf624f17e4a17bfb4f202bb63fc6a66e52",
        "l10n\/eu.json": "4bc98d533906b67fdbfdf2d49584bd056c670bcff221e4ad43138663d212ad8d81f5d13bb496bcc9663ed5ad82cec39c82a59d5f4185d7f8ebf15d7086655a22",
        "l10n\/fa.js": "594f511605bff5deb218304c6d554d96d95f1cde534617e811adf7c12eede3bfd73717b53978272026789245c9711eb78dd94b2d16d41d86358fadc5ffcbf76b",
        "l10n\/fa.json": "52043b2567cd998840c28646002e33c84ebb274d2c2d2e3650a62af818c4b177bdf35b88b84b42a5f974e921ed2476dcf6b1ccfa89c4f9531b5a0b47167bf289",
        "l10n\/fi.js": "a42f736ef514c5fb610c42b65a13efdb9a83f40f69332d374d012fce6f775a222036babc71503be43d489b6cfd3ad3d6c628178b5fde709b56ed7ba492bc6ea5",
        "l10n\/fi.json": "4aad04c15ca6063ffa8499e9d67a2dcdbf3f7ef3f4d07f1a31e2783d9e4899a74d6cf86f59ede37f77fd4599a9429161b64d38744dfa20b0015d81dd302323d5",
        "l10n\/fr.js": "772f271f5491af59d09d791c7214ef0e968d7fd4c104c338ee46d1b718e5bf4de1f2bf4805736f2050f3c2dccadca3a43afce1eeceb5bd22e05e240a96d07421",
        "l10n\/fr.json": "72594399eefccbb6a87580303a3087d0f53e9ffafac2eae29ad3151c46880ac578e60f0a50004e4f77e055d516be54c77d78f3c36555f3dde393460ce1a9c80a",
        "l10n\/gl.js": "eca8206f80a901a80aa4adb59ea64929433bf1d9f4026a069f29b8e381e0317cc90f26b04e89afd3844a6e1f3a0d7ae9daef0452c9f136f2272f8f04fc85558a",
        "l10n\/gl.json": "bd68fc25df4fefe855a54a018409628b04209907e57db8b9f1fabe185d3b9f11a922a9ecca8ba346c3b0da653a820797e2161c1b06475f93d0a31b05795e8f2f",
        "l10n\/he.js": "ffceabd5c6ab668ad495baf5049b1e383c03d06d92de5c430ad757525f1ba36eec82b1ea12f9c4df9808fc19dac2757f5dc8eda132d0986c19b067f472704b27",
        "l10n\/he.json": "83dbe35bfd3d5a214e37653b97d12284ff78712fb6340b10037fc328711e8efe7ba1b73d12adf581752b57c919d6ea37c68533b2f6a7cc822b52aad0d796b570",
        "l10n\/hr.js": "cdaa640bddc596cb25e09e9cdac51c52ed895b41966558f4f3a6ad453c857fd1f035955d7b16de80293f0a9f6ccba121f0da9978ca58b49850cbaa7ffb7f664c",
        "l10n\/hr.json": "e46eb5cbf7a47e103094f6cad40eb72c6a1277214f7acfa02453b237dd6d61c7e73095c903f29477e916bf0889daf7ad6d25e593e3d52f4026035486a3fa244c",
        "l10n\/hu.js": "c13cf6d71294f84e352a1aca2e6060da22cad8315746e10edfa125e9664227c594795053a4028a543b43fd9a288ce621989a6a73e23263608302887dd2098ff0",
        "l10n\/hu.json": "a095e7750059af2d3605149939171aa03209609289393064ddb3b3e33d6eade10b54cf51abc5232f21434bf95bb90388196916ca9e0edc7a1bfa48c0af72baf4",
        "l10n\/ia.js": "e35fc3a97d83ed3a7fe4708befcfb2db1f2f60f5aa18dc99e98804d46ab5946205ec7800d07a7906ed143aefa0a436fe6028c4b42e57ee97a7a60b4e00b6c3c7",
        "l10n\/ia.json": "5a50da2b2e8627d32b87a8f65c365a257506695ea97e819c0fa5b6dc1df4258bbd068818c1fa02bf830408ba5490633637bb7f385f0a41a1c36a0d99eaac7cd0",
        "l10n\/id.js": "df97977a5d60d0f1de343c54ad098c6e931bc6dfbf621222b63f5475828f4cfb11b76ca0a156ff99dc3bbe218602171155f27952017a0f811d2c532b8ce2e93e",
        "l10n\/id.json": "7684aea2d739a85f87bf348354aebce146eda2d0bd582c9796b94216660f5fd1110edd7d48e821d2efc8000e58f63591cfcf95af5688014a4bd88fc27848b849",
        "l10n\/is.js": "04c803e04b7a6997c9d62751b9bd28abfc249fd22e83864164c13151c10511e306021dd37bd59a3b3aa71a62bc9c79ec1d4f2eb16da04ccd32e47fa8b3a4eb99",
        "l10n\/is.json": "3240553db47d4473e851ad846668bf279b2e5c082e55fe1e93484d3d78fff48f82ce3a7f511b418ef2176928fbe68f616a60d6c8b63bc0da80eedd86d7390be0",
        "l10n\/it.js": "f93c5fd915c7f9cab39ff357bbc9e9d42cf7f783d7f46ffbcaa7377577a43e30cc7700919977df0c50d47d36493039c2f7cf6d89bf98126c5a193da559cdd691",
        "l10n\/it.json": "00b7963231620007d639ada27826ad2f2eca597c36e6509eb330358f20a73f2632ceeeb42ee72f0cadae9d611c1747b5ff6d2a29a305bf2bd0f0ef5a55932e19",
        "l10n\/ja.js": "808921e4268882ad7dc96ecdcaaf3375319f5990617bd66d9e4bb4bc102161420cd44797615f98b45625a652357b310e6a8271315f08b8e4edbb2abb5dc45fb4",
        "l10n\/ja.json": "74339e110b2071c6bbfd65b08d7510e8fb57d8812ffe58824406e9e443f54e36b06093a4c7ac8fdfa9e4561025bdb6fb27ac03d599b89cb9a20f80bf901cfd4e",
        "l10n\/ka_GE.js": "ea18f847e788e5cd3e5d9af316250c05cccbe92563b07dcb7d8fb010c2f57124b76c328b08d12453202f66ef96da2bb732f641bbe0071ff8f386ca83a0e5ffc6",
        "l10n\/ka_GE.json": "d89bf071b101053ecf61c7b8620115a174d4ceda69b9cba3be59b461cfb85979b6beb2c17247db2b31a0e0e3a96c026064e3c47ea8e1ebc1baffe30df45d2fa2",
        "l10n\/ko.js": "fe41c6f47bf6a82dd1fadeb01b3588c4a7b6846009b308c6652a9aeadb695e263e82e819fb9200b8a9d25d1871d9797b5b6745cbd2f108d12c3fe0915409ed9e",
        "l10n\/ko.json": "e1ebe1962104e64226097cf380573076ca1ef0dc92f5be1ec5a83c52c146a681200bfd1007463831dcfe5085a69ca76cd992a14f64520026b5264afa4c041720",
        "l10n\/lt_LT.js": "f344f2d1e37f0b1f21485db2f55beca060be87f4d16921c77ce83614a1ced988e717d1f2fbd621701cb2a1605adb2ff11624649c8cbc65585b1e4c7d8b9155c2",
        "l10n\/lt_LT.json": "5d4f601aa9e6fe09280d1c065cf632f75ea7db4dfcc33bdce57955f4f40530e521bfd879229fbdf1dad0eaa4b327f05de97a121686a43581f0a6f4c95d01f87d",
        "l10n\/lv.js": "c324dbebf1144a65ee1ef5b9ea1dc0d3daf64d9582d06d191351fccfe95a65b49a6296c713d1031b3b8f8e7fc5a7e092ad4d37be6e35027b8147c99fc2bca380",
        "l10n\/lv.json": "cbce0fbda91ecd02e3ccb09690c7d0dfef362a0306e4aeb0e364a8866c6e95702870691cee09b0075c3231bbaee76713d1831160fd2d031a325bb456be8994e9",
        "l10n\/mk.js": "0980ddb28abbb040bae0819bf9cc0bcacc22aa9fa05099a03cb74f947fb1902f16124603d9b5bbafb114e72aea9eb621afd794f759a0f8546cfd7872dae6fb66",
        "l10n\/mk.json": "8479d628e3ee425b334d2bff1db456157d3f29bbec88f3832d41cd376edc16e53262f1d358855eb239bb285c10bb063b515352911b9969ddbf1130d3d24a0f4d",
        "l10n\/mn.js": "c525061cd36efec1ddcc7a01a6291ecb7880516b92403385ed13d8ff980f25c2d48ce13e46a64f9b1f17545c504c31fae8e1732bc16279d65cef169864565a78",
        "l10n\/mn.json": "5231610a55042124cfde8d28c60f8012b1a65d7d3fa85a89fabf6a98eb6d9f258b2872e58d1640f4c2f0e9f884d532722a92343d77fa670e64bc80984e677b2c",
        "l10n\/nb.js": "81f29d9f00b70aab906d44653a05a303c4efab4eac3189efb4f58b81bf4d74ffa3721dcb2ad0951a594af33e8842ae3bbd59e424b2420b543933ca97ba22f06e",
        "l10n\/nb.json": "97494e58e0179750a0f58feff4ee34a7554f14db61fc4cad1fa769afcbf3d6ac570484beb567e3390b630459ec4e7ed3f0156d10c377bd7225d4fd141e65287a",
        "l10n\/nl.js": "982b4fde7a8aca9b2276c1ceed0daa585110bd48f206d95b4dd27906558e1371dd2e3140a5a78fbbdf44a6cfe63d419e0cd8d678a691fcfa70863988c54a0fa3",
        "l10n\/nl.json": "c0b0819aa8cbbfe9132fd5266eb8b8beb4a6b7daa98082ccc64d75d3e0260b222693607ddaca3ef719a08f45b598a5b123dc1db9af269ebf1da9c26e2deb1ea8",
        "l10n\/pl.js": "a6614d0c63ff8603dcea54491d3da26f8feefeabdc9f65d3d3a139eae95715087f2d83aa745d26c0fb81188bcd5656e3f61714023f8d273fc13e69b45964717f",
        "l10n\/pl.json": "45c573b769cca1ddf7143af4a7819382bc78d11b0577b929ae08183d2cf8a80283f1ef5b4ce3a1c9d1f8c406ef6a5aba36f297608fd0276876b5f2867e86f184",
        "l10n\/pt_BR.js": "6e553abb824f7d623f582db995c67754cd6de2cbc66ef2f3a3b459171a0b65821e65aa5070e19bea5ef9f1e9498e1e0a60afec4b53251e71be925d88bf02eca3",
        "l10n\/pt_BR.json": "e95594859e41abc34d9782a71a30e744c91b1ced8122e70b419ce36e4a630eafe0c4fe92d9857a9e0931554fa979d1849b08d916ddb1f8abf51d740096b4193d",
        "l10n\/pt_PT.js": "f38d753a15e5e270129946361f481b4196fbd254fe36a892b87c92ae99c977522cd9f7e758c46e549a1c0a46b5597c2dca6303bb58643124a4c6f72158a29550",
        "l10n\/pt_PT.json": "bb0e351ce303847be291c95a048be71fbead11bf09f2634a7a730517ebeb032dded3278c5bc188439e72f553b98793a2566722a973b74ce5436b55d6a5493bd6",
        "l10n\/ru.js": "9f1c94b100a0a274d490d6e56f4a7575ca07f64b3da255281eb17156ddcb7b3b2248f4492d74cf6af29b5f6f7abc7c942e46e1cdf121ab956af668824554be92",
        "l10n\/ru.json": "17db7bf4cae75933f493c15116613cca09e25ebff46fe5850d5035cfde937e1d888ef37cc27e158ec984139c9354d14da588b386ad7f54591455b241203872f7",
        "l10n\/sc.js": "12a94e6749acb2e482916534b4dc4f8669bf8d2375e9c705518c9a281aa6b8efd7e458b6e5cb0e4b8c98b345f63f58e319759073cc60b8695f8aac57809accb3",
        "l10n\/sc.json": "15899bff992d75496b72f12c21cbbe40c998547b028c6d9617f847a8a85badbeeda57a49b37595e7f1567299cf222b3db78ea669faa795090ff52c5b29da7650",
        "l10n\/sk.js": "08f6b49118f30c982d4a44b49e8af15f78a8b42dbe9bc6f566c5cda1ba96b6bf7f23b189e787209e052a8b1e94d36130f64730f0c0b35f2584d64ae78e7cfa3b",
        "l10n\/sk.json": "e3d67092a60aa6c7f37c7f8fa54c93af657b8eb9543d8b514ceb82ab8e5eb3b34f7e211ba41812d18edf5bd956f14605e34612e096c46b8ff3062696be894eeb",
        "l10n\/sl.js": "846274218f1025ef393314aad081c1e3e4b2b2131c1ffaae2fc0d8aa7999c2a81e86254556c3e3e249f1a6429538efb29b95a49b1aacabc8f2f4f0140b53bebd",
        "l10n\/sl.json": "d584205f659b20aab9eedb64dcb36da63455d06742961e2ba9e40b49d449ab06de0604bcd68be8031300ca8500d043201eee90e3dd27e5b8a04a37988e30ccc8",
        "l10n\/sq.js": "d6d5e1c51798f74615880967e207b35caeb22bce68b81ae49901d78cd5b8fd71ce06b3249a93b1848cac809bd71952c2290c3bb6decf15926c34c4a78e1a0fd6",
        "l10n\/sq.json": "1cd156fb048e4c7256ebceeddf9fe7c75ef025c9165750e3cc1ba608ad00994ca0502d6589a8f4a559af22ae03ba5ccb88d116495500acd30b209448cec9ec31",
        "l10n\/sr.js": "af7f791c463a2fa7eb448ec0e3571d35c53f95a0e59e16aef97786b068efc868f054075b2666502b2698973c5f7203c97a83cd10aced8b7376ae0dacf0ad6ad9",
        "l10n\/sr.json": "15d8af6e7b8efb08506281dc3540ff6d7cc164cb576f66a246f1eb09d9235d8ca737d4c81119b36ff1d9243ca043ed16f73de80ac67ac28e49dd1d39768d5610",
        "l10n\/sv.js": "57e56505d210b47cf6b00775ce367e56b1de9e1e89bbc6e662cc10a1f0e296e5a69724fab70fd18d963c0f1bfa014640cff8d3b163af424c8a56060c02162e82",
        "l10n\/sv.json": "043a95657d5342903ae8716130784c729989138dfef9c316c12c173c108e80910a44b9d3c0cb3a8f3a8570ff50e07bea4ebf5a7b02828d75eb070de779c98914",
        "l10n\/tr.js": "0ace721a940a6b1dca6c64a8ff68ca2f6a58344d4feec5e824e123aee48784bf820099b642401f5cd94eba12c2bca2a6123547762b16a9792549a885aad70c74",
        "l10n\/tr.json": "f31a4498e5bea447ef8164dab2b91e38f32e14ac9cf490523840b0f84f22d2e06b9d550cdd4b8f8b2f79c7ffa1f3a6f19e39c13120d05f98c25c95d05a7734cd",
        "l10n\/uk.js": "3c172e7cd00382892045f19e648e1c3a0feea2012904aab84e2ebc467338964b9e65787d82539052a810d70fef32478dffa0dee4845ba3b337036f5eb253cbac",
        "l10n\/uk.json": "d6232ac408d9714617669eda63b4dc2a9e99468dd0fb5fd9ce560e4bc7fa7c30f0d3acc62a2b0eeba29d4aabb28ce2258e16e4443b19d8ca1789932eb86dd9d8",
        "l10n\/zh_CN.js": "e2928b8278951a8e6fc3abf07b8cbd3889bb3d1d08e0f32e0930310ccedd2377f089573053fff66582503955f6f6cee5bbab78a06fcfc0aa946260b3a16a2b49",
        "l10n\/zh_CN.json": "a4f3dab9a4b25d235f6a167bb0cba56c79b3a4981692c1bac49d6df5c300494e664b9b95b44abd65cef3d768263958fbea7d2287a3cd3d9987ba8088babbeed3",
        "l10n\/zh_HK.js": "71715329c525ba629c4087b203247d88bddaff940e3189b1b21e675e3eca8cfe273d88940f37a04e47a95bb40f96ef9d859db3ba4bf667cb857dd1898ea7371f",
        "l10n\/zh_HK.json": "c5a627e7562c53a7ab57187fdac88f658b3041096feece7532633e02bf7036ebbaf777a73f5da0efe57a2508f2cab52298af20f07b4d4422eedbc04f6cf39a76",
        "l10n\/zh_TW.js": "5419df76b14dd9b23a03c879fdde5e408fbabbf9e20c17e8f53ebf8737715b1d28a62d7cf21e36c8851dc5dce535103f74446f2d7d9de46c6237f6360bff7fdf",
        "l10n\/zh_TW.json": "3347c99e35eae76ae7e8bc46f9578823d62649855d11195a9b9edf94aa1ce4be48edecbf9b2d0798914425462feda79b93d48269198c347ccb6523d54e95a2d0",
        "lib\/AppInfo\/Application.php": "d4a52b8e10a567c6ca24534ced5d539c46cd4983df889a8242becbbcc5b08a331b2a79ba32139a40bff6591f8733fde5e47e6fa5fdc7e5f121e181ccdcf6185d",
        "lib\/Capabilities.php": "a269beb79fb36758a09006fe22f7401e57f3c82f395adfd4e0a3f075f8438ca7aa4b72c37e8b66995261c99c5760e3c00f4bd04242b68b2237d211d26141de25",
        "lib\/Compliance\/Expiration.php": "3c8beabd374758ffb6426b29d75b42cd14270302a3d14f1b4f208803a1135efde2beafeb47fbdcbb56bba9fbbf0b624000f776dc8f3eff063f70a8f434dc06a2",
        "lib\/Compliance\/HistoryCompliance.php": "e4277ff8fec029dc62ac21e6ec80c92bab586b425d8a96d1ddc0d3d055e9107e51a72a65bf3d0c4d016850f3c7492453579fbff0f22be5e3d1f0cdd7862942ef",
        "lib\/Compliance\/IAuditor.php": "7c0d25f111f2a38a6833799f9f20d176b72dcf8f6d3cdda2c27f491c043abe3e13a3f2ebf8056b8639f19760d0475c57bd0b9a424c8665568922cf40e8d3dc69",
        "lib\/Compliance\/IEntryControl.php": "e2f7140dfa56bf9d648e4d722bd557c12abd3c114623a423b1f4ba7a67e83a2e75ce94956a32a0cb4813969874ce9aafa33e633083a2637336b5fc735ee24797",
        "lib\/Compliance\/IUpdatable.php": "6903dc8ad7b90cf87ee4a58cd14382dc546b1d2b9c6ac2660194f1df61a84dba0acb25daeeb2d1853e36fa7aa845d3803a567abfbf35d9e5bc16f65a6801640d",
        "lib\/ComplianceService.php": "b3a3245bba7abd1df51067f728f1d41600ce240d39507c6a5b71ed40d3cec767f2386fa5b06ffd2d484831ec8fe50f82b9d78c5a9440889e4b8d132b453815d0",
        "lib\/Controller\/APIController.php": "72178c497feff6a0cf94ef6fbc699b084cce1a442d79ce437a7360472c599922e0de48df015ba6f407d107ead1a7ea2ba31d1c4bac900b21996f13c73972ac9e",
        "lib\/FailedLoginCompliance.php": "cf070bcbce2d67ba092cf23e299f4e11bd60f870328928cb73a9bb85b49fbb0499e37a474097af91bffde5fa345a68e78b5be97672886fc87a2e44687c6f33e6",
        "lib\/Generator.php": "abd379b9e8c54a865878aed73801325fd7488d984a278b002bc7ce25f294dd04599041b181c01204ac2a948ab429fd493e0b27e69ffbe7f9611ffaf0edf56b1c",
        "lib\/Listener\/BeforePasswordUpdatedEventListener.php": "c302145f59ae132b0e521cba529fcc8d27f55d13640e48b7ebd1ac7491e423e78201c42644bc78bce45d0b0d62f36f5bf060fc47dc5df503703fa4a605bf5cd6",
        "lib\/Listener\/BeforeUserLoggedInEventListener.php": "d0c6b560abddd300132893000591b50ae2f88c975ad134eb5e6c3259646c9e575f3145558494e7be33954a500910570855bd56d73755a843e24e447749608de1",
        "lib\/Listener\/FailedLoginListener.php": "0c2394a6742500b3e9569ca3b6ca213344b034751fc2b4c3b85dbc2663bff87a2a54b517bb7e10585e5d4741ad91a582e8e69874530045e1e114d2e533f3b316",
        "lib\/Listener\/GenerateSecurePasswordEventListener.php": "468622cf1e6fbb694e7d922b5989329e59a9597bb623be09a689dac060898bfb96d10d8cf95779031bebdb05848d2686e9d8806f2773211136aa834a2135630a",
        "lib\/Listener\/PasswordUpdatedEventListener.php": "c48b4cf23907f46a387364a209e2e5edd7e95374075ecab4737b1ed706c999d8433694c522e981a47f464537431128b4212d89b5163518f4ef3d52fbc5024fd2",
        "lib\/Listener\/SuccesfullLoginListener.php": "d4a14e58ac2b433c6930d7171849401b48fc102359431de979ff88179e249e0dcec57f983fff17204eb298907b68f8c0d34f04644846342ae68672a31538578a",
        "lib\/Listener\/ValidatePasswordPolicyEventListener.php": "4331c12a5c78d7df58ab1f23b63a7b682670cf6cb8f9ae7901cccc6604ea2ec55edcf97fd52286cf630550f1f0c070d7dc90947fe0c876df275ebfbd65225b2a",
        "lib\/PasswordPolicyConfig.php": "de23220595a17ca611a3a3bef66845c98feb394d0041af9ca0e8e4e5ea9caae961b5c52df683c327005c4ca5de03beddebc82fa8f5d9dcef3cc48c92cc180c7b",
        "lib\/PasswordValidator.php": "ece8a3eb1ec92882d3556742f323c6f0db458ca6716167c91474a86f99714f4120ffb6266a1f3923e23193f68c0733866c85078e953ef377c73b69f30d5c4243",
        "lib\/Settings.php": "7ab231242197b7f1d5172d83e835cd53cf919064864909f21da8ec2b5139ace26f2fa61575480b43c9e5b30fe4e74a2ca9110525517263bc3c90941f91439ead",
        "lib\/Validator\/CommonPasswordsValidator.php": "0d6eb2488e15794f85f576d8c257fcfabca01c1fb4861746148b979953c84581286ff9555ecf4791359e69e3481b71649616ff43d2af2efd8b5a1566ceafa449",
        "lib\/Validator\/HIBPValidator.php": "38b9c0c90afe771fc0e1f9725e5499adfca42df93c9e72b730eab55a4c96337594560b6f81da960f3cbb869d61b954f48116e94147b0c0740b6d3be976f54f40",
        "lib\/Validator\/IValidator.php": "9808d6771a86d3faf77fce35fc2ccdd08ee94412061d1b2eea54db459ff0a0696b3e825a7b6655d6e96eb3f3b024fddcb997b89655f02f8b2687736c52f3cf41",
        "lib\/Validator\/LengthValidator.php": "5d49c092b8736d291e54e7d7551c98daa5b89d34e491767332632b2516408d26147670c1beae0cc5628d4632450db2409585c847f07cef14380afc8c7c6ac168",
        "lib\/Validator\/NumericCharacterValidator.php": "be7ac5f10b85d4ea2a259133c86ed7e40df10374fe2053ed9f49807bdbbdb592cda2463fb112e65cfb066d7ddb0fcb54a8e99070da8a6e9137adb6b892a5843b",
        "lib\/Validator\/SpecialCharactersValidator.php": "1112be53eeb083ed27247ffab90c02147eb03bdcf8a50884602cefa69edb335f911723489db29eef32367b6b632a0510e7c7fa812065123dacd15f15ecbb72c1",
        "lib\/Validator\/UpperCaseLoweCaseValidator.php": "030fe0df97e0960707b9db5ab872ea00276d4f252683d5460c542fb2311a8e3b841f104bd00e14c6a405fd35c6edd18eb43313d39add479a9b17194134991874",
        "lists\/README.md": "8f56662121bff620039036dd6679af2acae592d0614762ab35a8d04040b1813f515c24153ad229575baee11b1d9fb1fac6d61bf43efa764bd248375de2b79b2d",
        "lists\/converter.php": "82cd9bf142d2dd9693311f27b313c3eb320602737e2fa9ca8f3f0b1001cd9c95af1dc3c65027212507eb60a2ffdcb6228e25a5cd22bc877f5122f395eee3a56e",
        "lists\/list-1.php": "9708e65cc51d059c7736a38409527cc49ba9c38f109e68a96aedd294d1e95e229d84c1e966e10b7e0fa86ee0e573db3beb28e5184da23f27c98bdd13f3526b89",
        "lists\/list-10.php": "3dcdd62f115e4137eb5ccb3af4bda68c57811136836690a822526417019a3a1a5639d7361fc4e35068166279fc688ba7bfa60ee32e635c98fdc9f00665fa0fb2",
        "lists\/list-11.php": "13c01aba8ce71f9b86a6408b9b98c6dd3b3fbd7a3b71df9bd87c6b94571aff698421f012b115c37bc366e0386a0ec3ed6db6cdfc11bea8b6e11564644e43edfe",
        "lists\/list-12.php": "ff36306a008ccf8f75890c24814b5e62d302dd9cbbff4441e9fe3496dbf57053da8bb914307c54d0f0397e1a14ad99ed41054700a040debe457b0fc1222f81a9",
        "lists\/list-13.php": "eb335fd6ffbfb9f28140e11cc4d53a881e75f701903f1dee0b5ef25e84281a1365f9e77b94be4ba80c6a54fd8f0fd40e49aee87f3488741a405f337621c5dabf",
        "lists\/list-14.php": "d0b52e86d560214d5a3c96bcbb17332eea1cb1ff83f24367e66a1d49af18eff22229cfc17447958dd21f01941800119fa973b357b624417904a6cc0f76dc1594",
        "lists\/list-15.php": "834e32ff2665bc3472159f5e583d88893d0986d0f60bf25e498384fc5b1be7426fd13a12fb532cadfaa14e926216bb15104e7642f267ce75031eeeb3cdec7199",
        "lists\/list-16.php": "bf987e01958bcdfc60d44ba9c8da75b86151bae8688029426fff8218cfda1e4a07b44ece8642d0e7def872b566ae7d3eeb2bb718c6262d89e8b4845651cfb65f",
        "lists\/list-17.php": "87e2cec2c2cd7de3ee137299efdf70eae7f9031c9d59436a6cbc7d3180f77d43f2511162953e624252c9360d9c3b3175c20b266c6bf11aeaddebc2fe833024f7",
        "lists\/list-18.php": "8ed9fb0f8335b3d046f90f11c79f98a9df90695aa876d0197bad67aec42bac21ee23469c371ad585a8e5e470e330bb1089ad91c128e32d73bbc71bf89b06f13f",
        "lists\/list-19.php": "c4864fae4a3100fcb528649522699c33f38d7885ac51151cbdf329aa4a2764bf80153014fc68e5209fe0b312145cf403dd1a351b515515681269facef5e5af68",
        "lists\/list-2.php": "4dc4ee43b1183e66073c1229debe92e3f0f275f7d61e6fae09e02fecb17b98a149d9aad01c536404547bf12377d5c4e45178997fe8bd65cee9289d472290b2ce",
        "lists\/list-20.php": "61790d28c51f96e7fb00cecd8a4a7a48a457cd3e99d6ac3d5e41c3c17472ed9428b7d9904b04fd648b72a75dc9de9c69f4b3f5b5efaac2b2185a572c50fdf874",
        "lists\/list-21.php": "b418ba181874059206f04997f7c74b93ba7d6931fc70382f91bd0b089540c1099712644a9f879709336aa76b40180b82686f570534e57414c970e8654117b2c6",
        "lists\/list-22.php": "5cb3009140757cc5a6d9bda12b25b922658381b33b9b54eec42f90b0844b6ddc64caefbd9d64626873c432141ca962fd996d29b12865b127cbc42735b3cd0ba9",
        "lists\/list-23.php": "574d2cbf111043e4f5ae09004c0af83ab9e961406e3816069a515089d7be2ac24cf9eeefa5e83d5bc3aca2d64d34b458f0757f79e89259ae4c3b9f30e105c6ee",
        "lists\/list-24.php": "ca74f2b578b9754322fb34c5935375aadbf77aa4a9d823c105dae836fd26ba7893c12bee0f1b3f517f74b8db0ac88da06f2a612865eae471f939887da6babf8b",
        "lists\/list-25.php": "a01bc54f476f485c1637198cea8cb1a147b786c0f034b3b9877926cee9ac35f6ad0145666bfe57788d3e84d80220c0d1c8b75fca8c76dd02e11238fd21f37258",
        "lists\/list-26.php": "24e8034898772d3f84b14635abf1aa06184d43e834123577cbc6d8b82a9af32537cc0458320164919e10ad25b581d70da702cc104902a0da528614e2cee07ad5",
        "lists\/list-27.php": "fcdd2c3fce7dd06a4b6b7aad112e88923c62e92285d83d3f99da5306887c03a5bbf460abe4d72fa5455bf5689d2774ce3fea828247812966e66413c2a8e4fb83",
        "lists\/list-28.php": "23dee3ed2caaa6b2164df29367cdca3f9b5bbfc0ca96edbdb04377bb2807c2054f1f3acc5d7a4ebc260f7506ee71c24bae1073c9761d3b0435a3a0d40c4ab7e0",
        "lists\/list-29.php": "6e43e819f26ddf3e7a129b10f5befe28bd9adf459637ef9f772f49e92364632a8a3c0b03e7df5766f9a25eaa0c22f7be8cfd478b1933a86ddeb3eb74194eba89",
        "lists\/list-3.php": "fe4cb111fcb08730994f1592eb3066faf86573a7f01f7d87f2ae7e142cc2ab6fbac146220201eff474647dd353a0f483a36f710b9b3b9b987df303648f446707",
        "lists\/list-30.php": "b1f66a78ac3a5a91591ecf9df05467ed373c0eaec7db5eadbd40cb9a16b7d82621991b187425d4d83bbee3d77b929262aea65869ed80b07499174dc1c1450f35",
        "lists\/list-31.php": "a8a7f7b7cedae599af5b7463118ab6d6695dc10c693a59b32023734e070e7fc4ef844c3110b4fd8a11ec58a1726b6c3a7488c0069d1c7096b4710f6d6848a9e6",
        "lists\/list-32.php": "bcdfc3bdc0ae30131a6d544d5ed3de9c49b9ae3a91cb938b1e5093ee4316c588f89ac9307ca9efdee0d923a9a9cfa7b80b5e8b6606330ec331476cf53b13b956",
        "lists\/list-33.php": "ba8e8a4e07b95d5651e2c6d52ca606ba5c3109c4e0d9a85abec9e08c62c68d37880e4ab5f7721a771dea2d3541c17eb566faf8ac9c4c21caf93bb3165f9f1f8d",
        "lists\/list-35.php": "ed203fdcacf5da72542d255b4200ba45f2b276b58efeed9c89fa4a26e80bc184465501617a46797f48630adc3e5818d0281c5794ed6e14d144299faa674d2131",
        "lists\/list-36.php": "656595033c3bb50a20dbb07cf9618bf9d5599849b9c1569cf7a28d5b33f14baf85c609446598aa104fce182f150564302e4cc13e30aa6e61f394a307a1081417",
        "lists\/list-37.php": "f359594c58b8fbce0bae131382a6fcdfa5577eeec36571a77ca64e6f5a98464bc4b99ff0571504eeee28483058e9b656c8e0e5664cf27ef7a31343ebea2e8367",
        "lists\/list-38.php": "445135b11d306b3f96c1380eacf407be0bae5771b2602fc75f658d2f42faaeb1f3197c113b719ffd869dc5e0442b86b6c774a9c605baf00e5a197a0ace0e3b79",
        "lists\/list-39.php": "a28295a23a3a04fc6af741ffe4297235ae9f03f909a190a3a8c6b255dab81a5c36d366a5b60ed9f5a82c2ad2b1a4d405c23b71b2145d2aeef7e4f199b6a3ddc5",
        "lists\/list-4.php": "624c79c440c384e9612991dda3960828e10a19450d121ed0367b5c8a776c8a02f26faf98ecec9b33e07e26184d2c06bde70b0b036c093f1fc1c06067d292c874",
        "lists\/list-5.php": "01509cdbc66d727ecb8fe1dbca8b9a71a47c7e120715880fe81393fa54a293c163f06c691e044bdffa1f940b969ac5d120d5d97d83b5071889f4c071a908a0bd",
        "lists\/list-6.php": "906f2dac9f1e5e4e04115fa5706d91927ae59cceec1c8f9bbb82001f0bc8de6c7f69f395158028c3a40b38cc309df7619ea880c744f5afffce2615d7132f2dbe",
        "lists\/list-7.php": "db466c512f5bb337ed8d9b01f5eaa8497ac3d5848574d3185b4e775e94c0ebf3188f9527e80b62c4d93c3468dec243ebcd567e2c5694f1a10bcbe2272e9e9e3f",
        "lists\/list-8.php": "814c5433e09a6254d8803894b576613c321e8e11cc9f2ddc6ba829cb4ef64d2dd04a16700a0eb3d8f4c651834ccaf9376b2b838335b6ab5d6dd717aeeaf5e5a0",
        "lists\/list-9.php": "42df9dd2c461422c1724d8111669332e101f3ccfb294057d33230afe2d1cff4f14960e05aef13407a10ad5e64caef09e37e8a6baedce3596e9bcd5524c69d8fb",
        "templates\/settings.php": "761b25c9f71f1b6ffe887794abf7313d2c767a41ab5a420c4e0dea5f28e70570d4b1d9a19dda740eef4c58921cc4041dc58d090aa3c9a498fee9dd1536a4d80b"
    },
    "signature": "AXEvfTMf7T\/JiRpn6SOpxEj\/9GvRA4YBn37kObQojvRDcGD9Sf2tIFmWTQDl5\/PFv5kTNWaC84kkdJTZAbNPa2vvN7yhY0zXtsVkt9wukx7IFMfGXY2FGEHTMtPPI22BFTqVOTB0m2mVZFnXPwWgqR3sxxVpwS05YEPgWv7nyScil6uUa08GtPY7tCN4q0GeMnldq+M+IYU280bhCAZg\/u\/SNF7mOiyThKJCWpDrPJkflNPfyR2hxUPS\/aEATpmiF5xMXQfjFemVJdp1kuMql8GMN\/+69uSgwf4U8xUNwwwq8e68Wpz0hhLS8\/ep4ueRzp+L6tVbUZohIgCzD7\/wrg==",
    "certificate": "-----BEGIN CERTIFICATE-----\r\nMIIEojCCA4qgAwIBAgICEAAwDQYJKoZIhvcNAQELBQAwezELMAkGA1UEBhMCREUx\r\nGzAZBgNVBAgMEkJhZGVuLVd1ZXJ0dGVtYmVyZzEXMBUGA1UECgwOTmV4dGNsb3Vk\r\nIEdtYkgxNjA0BgNVBAMMLU5leHRjbG91ZCBDb2RlIFNpZ25pbmcgSW50ZXJtZWRp\r\nYXRlIEF1dGhvcml0eTAeFw0xNjA2MTIyMTA1MDZaFw00MTA2MDYyMTA1MDZaMGYx\r\nCzAJBgNVBAYTAkRFMRswGQYDVQQIDBJCYWRlbi1XdWVydHRlbWJlcmcxEjAQBgNV\r\nBAcMCVN0dXR0Z2FydDEXMBUGA1UECgwOTmV4dGNsb3VkIEdtYkgxDTALBgNVBAMM\r\nBGNvcmUwggEiMA0GCSqGSIb3DQEBAQUAA4IBDwAwggEKAoIBAQDUxcrn2DC892IX\r\n8+dJjZVh9YeHF65n2ha886oeAizOuHBdWBfzqt+GoUYTOjqZF93HZMcwy0P+xyCf\r\nQqak5Ke9dybN06RXUuGP45k9UYBp03qzlUzCDalrkj+Jd30LqcSC1sjRTsfuhc+u\r\nvH1IBuBnf7SMUJUcoEffbmmpAPlEcLHxlUGlGnz0q1e8UFzjbEFj3JucMO4ys35F\r\nqZS4dhvCngQhRW3DaMlQLXEUL9k3kFV+BzlkPzVZEtSmk4HJujFCnZj1vMcjQBg\/\r\nBqq1HCmUB6tulnGcxUzt\/Z\/oSIgnuGyENeke077W3EyryINL7EIyD4Xp7sxLizTM\r\nFCFCjjH1AgMBAAGjggFDMIIBPzAJBgNVHRMEAjAAMBEGCWCGSAGG+EIBAQQEAwIG\r\nQDAzBglghkgBhvhCAQ0EJhYkT3BlblNTTCBHZW5lcmF0ZWQgU2VydmVyIENlcnRp\r\nZmljYXRlMB0GA1UdDgQWBBQwc1H9AL8pRlW2e5SLCfPPqtqc0DCBpQYDVR0jBIGd\r\nMIGagBRt6m6qqTcsPIktFz79Ru7DnnjtdKF+pHwwejELMAkGA1UEBhMCREUxGzAZ\r\nBgNVBAgMEkJhZGVuLVd1ZXJ0dGVtYmVyZzESMBAGA1UEBwwJU3R1dHRnYXJ0MRcw\r\nFQYDVQQKDA5OZXh0Y2xvdWQgR21iSDEhMB8GA1UEAwwYTmV4dGNsb3VkIFJvb3Qg\r\nQXV0aG9yaXR5ggIQADAOBgNVHQ8BAf8EBAMCBaAwEwYDVR0lBAwwCgYIKwYBBQUH\r\nAwEwDQYJKoZIhvcNAQELBQADggEBADZ6+HV\/+0NEH3nahTBFxO6nKyR\/VWigACH0\r\nnaV0ecTcoQwDjKDNNFr+4S1WlHdwITlnNabC7v9rZ\/6QvbkrOTuO9fOR6azp1EwW\r\n2pixWqj0Sb9\/dSIVRpSq+jpBE6JAiX44dSR7zoBxRB8DgVO2Afy0s80xEpr5JAzb\r\nNYuPS7M5UHdAv2dr16fDcDIvn+vk92KpNh1NTeZFjBbRVQ9DXrgkRGW34TK8uSLI\r\nYG6jnfJ6eJgTaO431ywWPXNg1mUMaT\/+QBOgB299QVCKQU+lcZWptQt+RdsJUm46\r\nNY\/nARy4Oi4uOe88SuWITj9KhrFmEvrUlgM8FvoXA1ldrR7KiEg=\r\n-----END CERTIFICATE-----"
}