{
    "hashes": {
        "ajax\/download.php": "1d192b4d8ad96501c07f34316fcea5a1fde6d664aaf35426f93e630505243e207a143388978f63869e2d4e1905603e3df5ba88fc7a5f47c8c715bb6cd08430f1",
        "ajax\/list.php": "a1af8bc9cf394b70f5ec3449d934275199ffb09e0b81055b85cbae37c6173045812cc9cda8fd2d20f674c7dde8c5a80fea207c0b8dacf55f007dc3a70c974594",
        "appinfo\/info.xml": "13ca77474ed6b65863d2f3a44150032f48815c3cad298c459873eb14f7293200fe67d63986465f4ac1a0d7cf585b13eb14634a4e8d7881e9378ef2da2c446b0a",
        "appinfo\/routes.php": "820b237353849d9e79ad3290d3331c9f5deb0c83b4fb240f908988b94917d6cfda5fbc715d96f3df5a9b95d326dc0f818158efa9882c141c87a72da551508137",
        "composer\/autoload.php": "bd0e894af7c20e46635f22ffdee4d8607dc32463f26a220d8f313ac4157b9c77a1558d098c8a97bd9a2823544e7453ea50e2938febcbc0885d427d4f1df1a9dc",
        "composer\/composer.json": "e2abdfc083c6d1cdc93a4847a455bc1d0e71016fac97d100fc3e08442609acb623a14272406a371a168f0614c6dfd3e5e7b509521a434450bda7f19c86542412",
        "composer\/composer.lock": "aba0413aa705be0d0570c496a43249c551836824e7a2b4673b51838fe0d9f425ddd07b6c4b95aa74ca549f58e90f2a7d78b51a2a3080749a5dc2e4a46d04fd1e",
        "composer\/composer\/ClassLoader.php": "3755be4d1c0303467ba081af7a82346e47dd178c90622197df41eb2b9b5cabdc6899d399776c16016309765c30acc269aa6873e61865a2cfd276017f2f0cbb82",
        "composer\/composer\/InstalledVersions.php": "f6450ce4d537899d48a9608fa4c3c8f852e5820554af2c0534639a33a1c551caaf67901493aec5617a48ba8b425fdc8cbb4ff18f6ae72cb5766caa2d2949fa33",
        "composer\/composer\/LICENSE": "f3bb64009f41a425df5a9bbab53490f0eb9b74fa8d6aaa2f57efb928edc4ffff330260666edeaa04a91fed708c3663371cf01b284f3a08d6698aaef7a23f355a",
        "composer\/composer\/autoload_classmap.php": "59cf6c42dc74db879ca3777e29336468bfdaf9cb01bc64537a2ec94d8a3a11140b336ec31eb3b8491a6f1c8e52ee4d7d94f984305c6c37d8ff1a1af9e3d4b155",
        "composer\/composer\/autoload_namespaces.php": "dd8ee31d2faa9014fe567e1f954b5e7f450cf06feacbb96d4df663c59b1a36a0b7d26ad41b46354bd14f282fa7899298137208d1851099cd3ada285650efd90f",
        "composer\/composer\/autoload_psr4.php": "9b34afec04c869d41724c78f2dca230d2fd9bfef646e4eb4c917e6d87501cdb495e466daba4f2a4cf1aa9ae507eceae5ac9a4e2a76b25162cf0d4d51c7239a11",
        "composer\/composer\/autoload_real.php": "9b04d1da9548843bdd62e19bb81a238e34ea4e624305e09401be82a41ce3180aab6d9219555daa87f9545a9820599ae02bc1c22d5c841d8d9c43b321bed085c2",
        "composer\/composer\/autoload_static.php": "a528c7056b771ea50c471e51964c468c582eeb3d976a4956571b307bdec8598bfebc2444246c0c24dcd8a8a4e9aa66c9300a356c391ae4cb5106407d1b36b5bc",
        "composer\/composer\/installed.json": "0a3ed51f953eb945b970a8eb21957ca2beee4669c7d0d9be97b8259c391b60688f8abb78d4b1fae5e4e2ea5e3d8747f4d35f066a2605e9a76f5b45ec3f1da357",
        "composer\/composer\/installed.php": "d7308a2e4cd5847362223b458441fbf3b2b839a8221ad182d97d6f34ec00746bfc5cc4ae1b5297f84dd0a4e32b5494581f8b001e626275e0886cd3306ad8b768",
        "css\/detailsView.scss": "21795e79995a2a2aba6b60c1d8eb7cf1046be94d0b9fef6219ee29dfdf1ee3bb4167c53d39efe496f1d6d9204166e8b75d2fd74f92d09fbb574e13c7a0745677",
        "css\/files.scss": "888bc27ac31ea1a174701f7080617834c59bc55a31f9524ff0d4826d4bb5e369788de6daf2ab6c7cf66b60196a9e588589057abb4327c4db7a1fe2dab4ca313b",
        "css\/merged.scss": "f5246215021e65e08b1f87b40461168ebf5dbe356cd143179e062fe5267542eb5e2e2e0492008279ffb46d9234d64d92aecaedbc3466f792c46078bb4c75b99f",
        "css\/mobile.scss": "b9305ef9092e938f901e872a3cbf35525806378992b234717a70ad4d6f53662ca6f28d844dda874374bd630ebb75c322f89d47d4ebe840276236acdc38c430ed",
        "css\/upload.scss": "25d1956876548ab81965a2ad05a2cf9b9ecb02b0e144bbf752f8e6a0487377ce409e077b48a4c798c147c37eb3d0f431e851859b0603831daca778169979e472",
        "img\/add-color.png": "32477e0d97502ae81f874b466dfa3a6d7308dd8d15b7276a760445c9c0789c09ab1ac3d0cc5f5901b80e4676ee986658c7e2989b0183f65c71b9adbeb4050271",
        "img\/add-color.svg": "b441cb399a25818719e637ac3020baea308f8fdd4394135c7bbfc3f84baecef05f8328a0b348969d3c1dcad9235c8822db136ad7ee57c3d034635357cbb3db8e",
        "img\/app.svg": "38274c99e96ac037ed7c1fc40e006d7f2c7d912623ac802a91de639d90cb5d9262ebc9140b4d50387f1cf123466932acb14a4f8f32500cf9e1c19f158ce6413d",
        "img\/change.png": "82062c32cca60c4406fd79d373d4b0c7ea5e71cdf1fe97730844c93f4d4734de6a53e67f67b872418121cb4a8daf4923a9c470a623ec218e3b9a3aeee2e91378",
        "img\/change.svg": "2e37a9061977505859a92277a88f5cee1bf5441761f13001f6dade42e25c1cb204670335d6be1a71852f957b2e33bf1a58c6bdea81d51bb5f1900ffe54966e99",
        "img\/delete-color.png": "61c2e75aa3b21b3b0be1614cce07a5a9ceafd6bd4450de994b5938e2175760e4a7bb9195c3cd2a98f31c8e6f85a485c8cb0d34e26930cd239d2be12577daf755",
        "img\/delete-color.svg": "bfabf9d1ea053eefd7a80b30384e78ddab0d105dc2bae4b86913bb09ef5e4bc2900af7a5e801efb021924d945457ed2d6f950d786f2d2e470da5a11d3289db70",
        "img\/delete.svg": "adff72420abe9badae6df120210eb0b83742a5ea4689ff906dc02b24d290fc6e63575151cb2f9a3a8fc6212bd350fcef6a03b13471fef3cd597a57d084ad6cde",
        "img\/external.svg": "22b4a4e9c4a9d42bb8925dce92931954d73e1bedbc8d8fe1697fe02e96581e8f86e55160651a60aa2c51e519c34b66006febd16a5ff2b6ad6a418bb516c06c2b",
        "img\/folder.svg": "c50eb9ecbf845f4b5796d6dd1697d75419dcca5669ad53e5a4fc259cb370b4617b9011db97a842bb15d6db858161b0dc64a9c249e6f27f95879f32fa600230f6",
        "img\/public.svg": "cf6b8a390c3ee9d274f71e9610ae8171aec521d0998ba36317f9841814adcaf5e3ba70213b7c3d366c5de6d21893a77dbc803663257c3dec143c83895fd9c8ad",
        "img\/recent.svg": "d87e9cae7fff254f5dc7c5b3790c907572aad49a00ab2a6d1c77804f750d15aa47b3a1e33bedc59512e013455c7ac46613f67c61e93b0c7ee12b395cb6be479b",
        "img\/share.svg": "98568dfd5725b0483cdf4a457195914c747d3da83eb1384ab799147b84180f1ec1aab18bd5892ed6175f4e15b58841afc52ed57652a332544e65199e0490ddf0",
        "img\/star.svg": "839fbefc266ffe281babf1a7811f4776eb1ff63f0c4b7bc9b22cd3955fd243af64d93bde63e09e3b5b2fb2882fc74f59b5be4439a1a8a1019b405b11401952a5",
        "img\/unshare.svg": "4715d6beb5c8c7ebb829cd76a6d16c6d019d9b399e52f832fdeb2bee67d7f37360bc31a3660dcf6f99db0995536246126aa4e3d65a71daab8d54f349920a3b30",
        "js\/app.js": "52ebd08ea461c8afc14b78f62ffddbb1597e55cc79a7b2e9444a70465ffbbc4e3977486f27983b99aa7f3252ee3c05687d9c06e77b10057fc517fb8581097dc7",
        "js\/breadcrumb.js": "922e0575ff3ad0a72140d6d7225698ab1242284f68093756f8c3ab6cae2f3516d7b4d79dfcd4e107553b2b8a2befad33fb658dae1c6ac158137ef53892c93367",
        "js\/detailfileinfoview.js": "ff58bddc899a9fd5b079fade26c32e718ef4f270d3c5a0e8222977472e8d257c1bfbb0670e7ce0735838b3cafc2e17437f54492590d8ecf0918c23a5f9a6dda8",
        "js\/detailsview.js": "d1a62736f7bd2fcdf9e0701703b25f653ad58ec55d6c90d1385b49039e9479f0199a11c2e8e3bbc2bc59842f1766b5da2d6931b7292321e6398860f7978082a2",
        "js\/detailtabview.js": "517b5be6a3463a1f4f01fed1150f5f0300362249a906feab0c078948f449fbf9a8a5b5445232c930554c2c847218a2fa522f5a158982571e0c12fc376ed617b6",
        "js\/dist\/files-app-settings.js": "fa97ae49c268a1732b28314c41da5ac06eee768ef01c96fe5ad6624659095b48d9e38e7205138dde81d84f494ed611679923e813186e18c9fc1978063fae572c",
        "js\/dist\/files-app-settings.js.map": "d748dd5dda40ec7cb9be1e0acf248ec494ec5c909f45e1a3362aecff2c8d3dd92a8915a777603f26128add9a3c38ecb4bab650c5f8eef19741b95047363236ff",
        "js\/dist\/personal-settings.js": "c084b94e71ffade99a118e8f43efcc7bf9d880bb17df4fcf0cb590d721a3d2a322aa6362b03c0bceb33a82ec00be2652ca6ea4d97784e3f10140308f01ecaec6",
        "js\/dist\/personal-settings.js.map": "ce57f3ae09df8426afe8777aecc6c57b5992cc2da520dc76eda7b7ed64032ebfb6215a82161dc763e6fa2068627257e11bb30dd4359ef1f6f0be17db495ba0a4",
        "js\/dist\/sidebar.js": "a7d86fb2023001b9381cdbc9fa53fa6583f676b9fd5f2907ca04eefa423a4b557d0ce3222779f4580eb2d3b433dd67e82c6e4f47a6328642d0f0d37eafd79580",
        "js\/dist\/sidebar.js.map": "087f09ef4172b23fc727729e692693834ddd5b5c63a9f8634d148e4cacc6adb0041abe94fa586dd7c4d38f49f7aaa07de0f3643428e0d76b65b506caa8d4b990",
        "js\/dist\/templates.js": "34b8b39487c1f9b8110df4023c1f932b19ecc4ad83da01b6e53b41c22f26a9e8188cccd87af682160198350de7797d388ec3710ccc757d20c3ac4469e4bc279c",
        "js\/dist\/templates.js.map": "4c8d61103f30ed85708e326bdd9c85183d5d457a1cac998dd2b13ad870c93925bd0c6eb6bf4eb63c58df952a3f9da4eae55771f47470cad2e4f58c78f5cdf28a",
        "js\/favoritesfilelist.js": "e270765b4d1de3e7c2762025b873224b7ff72f92365ecca78bcd1ee3fd92e70518521891c5394bad152131eabac4ef4316ff7dd863237f3ed7b9256a32b0cf19",
        "js\/favoritesplugin.js": "32e1efda00873dce052a910c44ef42fc7fa8d4c71b5b2364a5ec6161c2f9de1c92bdf4cade26367701cade21667da7cb5e74828313236145969f435c69019173",
        "js\/file-upload.js": "52fb6c9b795db830fcbfa9d2bd567c691196441a3828ab4e18f3220b3dc3a6507b36c5a2fe842bbe52da97120c9792d590ed231ce2c9a11bec2e3c20afe6ad67",
        "js\/fileactions.js": "8e14102407f533484eb4c9bd6da95708ca51b6f374390c87d71621ef86df7bd53293f70a44bc5864c43a427089ef7aedc8b3fbf86627f58d3a582be18c7468fa",
        "js\/fileactionsmenu.js": "968c6df6ba222cee9c9a4957526936f3db68fbd6824c98f103cbbabc8eb5a498f77c1aec530fe5f188c53a260806c9539b9c570a27a95164fbd2d734ba5cd091",
        "js\/fileinfomodel.js": "f80879efc89b7778888face963f2d7c111c747d84df7cddfd9f5cd2a54bf69d18e0adcf5c6c0ccefd65bd2ca7317ca06704fc476c8ed1022b45129bb47a305aa",
        "js\/filelist.js": "f5bc14566bace2e112b49a0223ad6f806224d447031b7fec9add02e1d650ee557871426e2b9d0452cf0c8d0cc4ba092027ff2923bcb398466390a69af3c69d63",
        "js\/filemultiselectmenu.js": "fff3aa6f187973dafd78de2d7132cdc32be08e417cd075a11863f4c1b38b4c8c2bf16ba3058eaabd973c8cc01bc3b9e8b9c7fdfc9f0e20d14ef5c332dd10bae0",
        "js\/files.js": "9596cf590e53320743ce562cbabcf1658ef88ffd35c4f5b7da872eeeba79c16e9af25e76e531abcbe0c51e7d18bb63e192b8a335519103aa4490c220a2ecbb1c",
        "js\/filesummary.js": "aa4561ae4f12defac3f5dad930d052d8383a5b7721979e24bfb7eb5474bbc68568558a8d412b6d430ee235b25c93cb1338a58cec9878f2a70f0612ec79261c2e",
        "js\/gotoplugin.js": "35fa7e8c7b5839f370b7d2851cfe32537f7cae227472246f2f1e55bd9528173f5e996455d184b22c51912e1482c458b313eed08bec1b6014b705bdabc10099fa",
        "js\/jquery-visibility.js": "9ee5b0ea09d8323b0eed212a05c9bc5870e302b41e579f339beb778010222bd5ca1a8f1bd7bb64265f72fcbaee03500697534d27011cca0644a016ef619124aa",
        "js\/jquery.fileupload.js": "66010ebdbf80c6d69ebca61dfd132ad01c3ae488a793644e5ba6d405fa0cb933c9c49a9d37b9062babade387d653a3932df566c37b043fae986485030fb5ea99",
        "js\/keyboardshortcuts.js": "e596cd19582a0b210334f981b48de4367f7b60b65f220fcc1a954aa6ca63c07600e3056348087ee795c9bd11f50084e08454da1ad52be808ddce9e9e6ad767c9",
        "js\/mainfileinfodetailview.js": "6b1cec97b3caf925e894024807d20c04591409043abb427f5eaa7a015d64198120ae76640bcbfc986202841d47b21363bb7aabb9889e729c147d176e8b4dfcbf",
        "js\/merged-index.json": "8b67470eda40341b07a2c31955fa8db38504a154cbfc64f736af2c00dfd46ad3591222d5e1fd5778da7c1f9b256372187eed8f3a2e32460fe65674857c23cdde",
        "js\/navigation.js": "8debf5a8b3373558ee11735ddb68a8c4c9fdda22c9e46afb87841aa721b27662fcc376e01d1427818c7b0225dd055506f4a2d7ccd161450ebedf42f72e4b842f",
        "js\/newfilemenu.js": "45417dbace9d93fa6451a7aa2c653b67e98df65e1d0ceae58361c28e6617397f6bb6fe8e606f9b43a7d775b303be73df6a1c1c48069b44bdfc7f087bc116ff4f",
        "js\/operationprogressbar.js": "df168515efb7adfdc95c9c31037be8cea52bf6899aa69cfcbfc8bc7741bf0785ed0acba7a38efbe89a8ec044ffc77bff9c462327c64720c39ce054f294ccbc08",
        "js\/recentfilelist.js": "aaf69f98898ef983995472495506e6b035a5ba121b3383ccafad3fd41098b8f6d3a2fd1bc78d8793e15cc5ad805a449a1f7a01591f89724c33fa5fd2cb2adbec",
        "js\/recentplugin.js": "4f56cf392cb5bc178f6a9a2fffbb55ac064120f9bf323618d7042e5d11e76ce44246968b94f6dd9c04100b3d34624c656806d83462a541c5119d3daf26aab805",
        "js\/semaphore.js": "d52348efc9e14e9ff8b7d010e88a8819d56e49ba541aae55bd2d4ff05efe72055f74fb0ae3745156c4c445c669deb777ea14eb99f762b93fa2e33893fe51ed01",
        "js\/sidebarpreviewmanager.js": "16395cc123d695fa9d78f9fe4ef9d385307d72f8bc9b8233a0c31a43148801fba668c90aa4f6ba40afab5b8c905abd5a8cc47dfb8d91dd278e8dd9fde727e324",
        "js\/sidebarpreviewtext.js": "7f432613b7f01a74eed3f50f1c4342242fa29295450b5dea0f0466d4770639d724a0838368d4ff0912849b2d8f9ed9df343ef2b26ac8d0a7c26ba66259ec0622",
        "js\/tagsplugin.js": "da881f191fb2fa0cfde0af37042ce90d53afce05c89d05876e645c80c6dc8420fb2ba8f2db1be3d59b9596805be7466c43a0d31bb7ddd830fcb475557639f152",
        "js\/templates.js": "d4fa4f2cdc1697900bccb1260e2d0f7e5613540a0f8864f2749e15d7f3ab9fb17d98fd78a718e483ef0c23d63c6e72c1fef6e0c6a905ab0c1c0e50a19417278d",
        "js\/templates\/detailsview.handlebars": "2bdc4129436fec8e09c912bbee10bd336256aeccecceba49aaec43afce3bb96b48ea87c4893ee3f97aa343991dd5821fe40575bb7edfdc99c8952d8fccdb4b9f",
        "js\/templates\/favorite_mark.handlebars": "f794dda28b8e4be653121a8a215a849cfe6526c7a99bb4473fe99420631e3ad1fe6c32036379c723d8518b04fc83b00758e78be4aad8647f365339140c1503b6",
        "js\/templates\/file_action_trigger.handlebars": "79d3820c12153579c0eec2d720c29037b11a5de0b2b8362badf56d53092667cb00c5af48dca5da7d8a9a1836fe56a36b13ac8a25f087c0c62fdf3bd0a48623f7",
        "js\/templates\/fileactionsmenu.handlebars": "ded3479518e4c7d10813dc59f3ca3a1acfd4cc17050ad5d8343eabffdbbda15d93b10d4af1b3456beddf3870c29ae63989eb0d0c32f9877d3c15096d880f2536",
        "js\/templates\/filemultiselectmenu.handlebars": "18a943b4b04024743772b1bd022857d932eb98a9c884346e0c85030e6006a4d2432e38648cd31508727ba9c86dbe8a206159c4cb98edac5a237dfeea1d7115d9",
        "js\/templates\/filesummary.handlebars": "b5e3a2a4a5dda6e5a941763dde7749970ee8ba1b053a9ae7335005695bdecd1c0582dad9adf248a5647136e14027221b76fd39c1cdc50a102e38ec44fbc37039",
        "js\/templates\/mainfileinfodetailsview.handlebars": "1537b2883a2339e95f5fac7ee748dfcdd43724434cccc45ac229d1460564752283381f106afb429b6b9e80a7b86761bf4320e9cba63c233f8e8cffbb280a5486",
        "js\/templates\/newfilemenu.handlebars": "6e84c32a649dadcb060e0f39532eb1ca6f9781a4c667ab734dd2a95f9c6ee607dc92144336c362baec1334ddfdfc5be50744d8aecf1928fe38e5948f46c28b4b",
        "js\/templates\/newfilemenu_filename_form.handlebars": "60df99a488a61725b36f9e117cbaed7864a1e2ce84c6117343f3760c359347b8c42c116cbac2935501cb870570983dcc64a89cf621b490396bc4b2b669fbfa04",
        "js\/templates\/operationprogressbar.handlebars": "11314b97b700606d5c3ecbc2e395b704dfa889d44e30eb9ff3ffba6fe3fe2f6131c36608398835b096ad41d8cc56325b19dd6718dfc3858742f03e339b96cbf2",
        "js\/templates\/operationprogressbarlabel.handlebars": "5e338af1192f685a51c2bc39e5a05a2b0b028515d924d63afc87ba7489ce16da5923314b5b7547c8d68c16320e33fad96f0b124aea8d3ffed331b6fce528e918",
        "js\/templates\/template_addbutton.handlebars": "6dfed9b3fd3874bbb4c61ce031d134de46422e8641de5c41e7b3ab42762ec304679bf5375b179e329cab18a3a75694bcf21b78da41500f13ce8ad190deb49e03",
        "js\/upload.js": "6686c9b1b447dccd2c3741fbf9016d74b9154d542511299790db9538b114014871c3860d9802af3ad35f89c9a1e4e46a47f81b2b9d9e0ae77220131e5ee5034c",
        "l10n\/ach.js": "f7833f3cc41bf6f1bb322f862286f60f519857769070555353fd6f7a7883615605453bd4c481f6b5b0e11ecd7f14044df76329305e34cce5aa17fed9daba0c94",
        "l10n\/ach.json": "2a46965641683a82e4d758a942990b1f43e6cc43c0643e1381d92e968daf554ba00fff3d11265405447d1d683f216ac1d2d75cc28b95dd495a39f0e1648efad9",
        "l10n\/ady.js": "a40954bb6233ea1f0171fb0b1c99fd8d011783f23bc6f9f4817c08a3a5df5d0f5113c2f3d7128534ec3bf4a0e723cedeedacbaecae1dfdecfd490ee6a24ba04f",
        "l10n\/ady.json": "17bb226326509d39f8eae5b3e6d2d1ee21a82a1bc8d66d1177f261729097980f8a899133475837cb603377b8907019190225ef3b05f4dd3151aa25079e50e7b0",
        "l10n\/af.js": "3d9a81ffce36e58473bf870e1b8f37de7dc8652f1475e7a876800c002955a252d09ed04ab6634f38ac55f2260ea613306c1b5e8deb28f35aa3fffeba504ba48a",
        "l10n\/af.json": "32aa4b17b1bf43c30539e2be8f39a892a41499bf583d6a21d3263c500f7966835f91cf898a1bbd9b027f6e2be080e69082f48a02399d488aa94b9fa14b8b7c28",
        "l10n\/af_ZA.js": "5d99c43610bba50a1378c13e8bec7ba0c3acc143a2a1df12da01a78281e476dd3400121fd8037a3d213c4f5a1f99ca2503348363df0a1e3c8a24f22b024b8153",
        "l10n\/af_ZA.json": "344bcbdf02d569caec8eceeadcbebe8be2b4003de12a218c99b37a340dd6ae164fed8e04cfc5ac64c369d1153c7f9d16d735dd3b3b1ebafa1171d4dd54d32765",
        "l10n\/ak.js": "f61a7393310c169bdd14d39cfdec9aa51723eeffa409210be8cc9b4e42e6b0374f857a072abb35a90cc2f2f6ebda7da70c61c0c5e63bb2baf9082c0292b8a049",
        "l10n\/ak.json": "81c75a71dd3c04781fe262b6a8337d435536a93c0e7521108b20025090d40fd43dcb2b111c81163c8b718202583ea14cda35a93604cc2b29f6a03daaee864263",
        "l10n\/am_ET.js": "a40954bb6233ea1f0171fb0b1c99fd8d011783f23bc6f9f4817c08a3a5df5d0f5113c2f3d7128534ec3bf4a0e723cedeedacbaecae1dfdecfd490ee6a24ba04f",
        "l10n\/am_ET.json": "17bb226326509d39f8eae5b3e6d2d1ee21a82a1bc8d66d1177f261729097980f8a899133475837cb603377b8907019190225ef3b05f4dd3151aa25079e50e7b0",
        "l10n\/ar.js": "c38a1c4252bf5f551a08aaa139e50d43b0096170d0e4c40db5ee1cceeca0ab68add9ef12f8c0db9d4a0d022d9cc3978521fda6eb53afe226907ffe7e93c37d9e",
        "l10n\/ar.json": "3294de4e02df520d32a6223ea1299f787dee16e762a7e20635d8c7cc347d9b1c782d1ad8a214dd09bc23cd6102e43da249463a7ef673ca3c8022918f9e7736f4",
        "l10n\/ast.js": "5686288d1ccc9c9e20e329c60245d842cadfa4686f1f7f9a851df840c5c9462f8b7db94fd63bd361d94aa644d4ef756032724507f747d4b27b9396058b707c8c",
        "l10n\/ast.json": "096a5fcc7016f182e654ba3ea65f5f254a63f61a73e992ff90b711c7378e38cdb54f41a7c0af2e2755da170c6488d8000f0daa8902c243d4b13e002265981679",
        "l10n\/az.js": "7d1490901a09cec491bad3f6420a243af836623f2360dcdd2c257cf1f485e5550b3857abb5304cf33cf410fa0b350e1265918da9f2acba23b358c2de463e7a4c",
        "l10n\/az.json": "d467c484c35987abfb5efbff939843d35547e1813bc13fa7028124304f8fe0b7c872d63101106c69b53fa070b440876e2d032fce45d91c3720802869b7f47ad4",
        "l10n\/be.js": "e725694114c6426489725d2841e0e973166ac96e8fc999d9a848a9fbea623a1b189c6801d95e1e52693e72db23209f0113f47483cc2ea9085656bad4cd9cef0d",
        "l10n\/be.json": "3a622a21cd3661ddc633f01bbc4a2cfbd3477c8ae7ead7a510de82935679cd3b9a88d55a6f9accbeb62d743fb01754d60ce7cd9e4be9251abb520b6385d041d4",
        "l10n\/bg.js": "96c8bc17d02b0184815a53414776dee3bc0344d284714b1851a59d210abbab74aab0a5f87bb7e680fabad4a9b6922eeaf61ff8ca7aa4f175a644a08da02a828f",
        "l10n\/bg.json": "c342901dfa4752350a61e07e962394350038060b7f3aa15b2431b3158a5d5f2c25798ab11f17ac852b716783bb21c84d0942351f99cd2afa192787919557f64b",
        "l10n\/bg_BG.js": "3f3904356614c891ecfc7873cf7042c8aca8456311d377e1e809811100adc4d71a6cf528fd701468660723f1cbfe61d68b8fcf0b864d4a2e4e621f8c342e0a13",
        "l10n\/bg_BG.json": "9e0862d49595773997571dd663c88aa84b0dc18f04cc7d464c4d5ee8009551b770ebe2bc618ccc169e2af32a859ad7bcd7ff587bdcc31ae968b6d2af5b1a6972",
        "l10n\/bn_BD.js": "2457f663469706c8f6d6e1f666d6a13f9bcb8ccf99b412006a42ed984411ecb327dee7b5e1818f29f41b135e6a990b7980bb24aaa0de6291aef61dc624377be0",
        "l10n\/bn_BD.json": "22de5e5bedda491822a5870780276374149cb164909506e38acbc48a71ad6fd6aac4240afea3ababbb97625a5c8ccf249b2b774fa54aa2bc0fb64756ee5679a9",
        "l10n\/bn_IN.js": "56342ffc33df21935d493933ab0243d47b19e99e4ec98f933162f57cb7e5d376d44d5ed33997ecd7379c267456f9f901fb3f4ed61d7ef62f84f67290eb9034d9",
        "l10n\/bn_IN.json": "f76637cdfd58a8f7158838ba9fe5c8f0403f846f31dab9757485977f6477ccb672a0338519062e630e260c08fb9cbf00b212c8b151f4f76cf602e87ff6df4e2f",
        "l10n\/br.js": "7a67f5effc3c49ca980bf5a6eb9ddbc5e569f486c22067a096dbaa8e6f7f5804a959057458d49b1bac66bbdb5de5f1b0e9ec0ffc1cda6b329da996ec3db567e3",
        "l10n\/br.json": "048162f0e1e3474aec2b254a6542e12ed9c6545fe359079cbca74a5de91d85961e1f5fca4065fd4a54bc865700f2e701838c699618bea0d808b9bf563e4f1d83",
        "l10n\/bs.js": "db283829eef9dfc786fb3f5a349779ca1b873f8a97dcd6b0944c1215175380c408c7668730bc4ad6e9522c05e6820d52b624a94db4c05d5338c908078f0cb003",
        "l10n\/bs.json": "7c453bd97108c8edf0a4fd34ec0ce6544866f4ec7c30c46d0b7d63f2b91601420cda7e8c5cabff620bb0b6c174c871ce24817b529088238a29a18ce652be354e",
        "l10n\/ca.js": "f13f702afad2bd56f42b060efe5d5c2cc352f8c4f5546a65bff2f8676582e73e05e7ce9319c3c07a7802c959bb47e78f5c3bb75ca92b44af0cae3c8e628b6105",
        "l10n\/ca.json": "39ef5bdfe152ca00cf309435af11092d29e2c5baee9a788f128a52a8fc4f0cf4583f42b81dfcc9c6df3d0725939ed6d900630671f6c5890940e32621f03ebd6e",
        "l10n\/cs.js": "72fce2e9b8d182df1134dbc7185e11a5a530c86e2d8c4e1b7a15fc178a5b07e2cb64c80ffe903743a728dc83872bef47d653d801997a23268022e7b935c1137c",
        "l10n\/cs.json": "e6913d45befe9412c8a13045e9de6e63e93a09ca9b4315a68bbc65313bfd706698e352bab4bd818f8f605db7a5529b7422cd6b4bcb64d3ae3ca3b7c9fffbc62b",
        "l10n\/cs_CZ.js": "6a3449089cd5c5f03f05a4b023307fef8847abefc316f82cf8f5c8699d3bc28c0249c7cbf48aa83f0ae5d6d47dee89096183f762e146319d88d54f61d28d4585",
        "l10n\/cs_CZ.json": "9f0bf5f584038949970965fb3664bc002f8d992e5e0873efade8626e96c47f181bc0aeec7b9c3436a33ca2c95fac32b53860f6daa29f08afb96306b6da45528f",
        "l10n\/cy_GB.js": "7c2b2a6ce6d1fa909a23985dcedf7b34a56e478a6ad9db56f34fec32d13c1b8429bbd2b72b599a2da51a6306fe20fbfdfdd4a82b1b0a7b565fa851b344fbd817",
        "l10n\/cy_GB.json": "8e0dd7bd54f00b54200ee12f0d42712c8658c8e097abd404da8c80e77bec53217aed9d37da687aeee000c63756b56e2128718862727416d70a41245f2790a062",
        "l10n\/da.js": "f7bd948482712aa3e65fb4077f8b2b3985b7ef4c08cdabede053dfda57844960ae4d96c6f21ed238c2ef93766520b50c0ecc5e2eccb3ba4b3dc3e608720f2d2d",
        "l10n\/da.json": "294a84ffc4f0d617651cab22ddf4ad4f1c64095ad84e57dd3646b896a0931983fe4968004ee55695cd4eba7d91da631aa69fa2f11373bcbd633266b42d6fedb4",
        "l10n\/de.js": "5e83f8da1a502e66348feb2ef7f061bef935bcabb40efd306c3fc15af3717b8370d0155544dc6f340027c732eb35ae3b8a06c4c8f5de9f29a829c657590697f9",
        "l10n\/de.json": "577d168af65ba3b3e5a4ee5fe47d76a54ef4616837c144bb7d3a2ba31ba09e21514c93bdfb45602eaf8259170d86a9079d74e169de248c5a2350b79154e5ae8f",
        "l10n\/de_AT.js": "6d67bafbef87f4084ef0a88140bea3e7f81974b3e7b8aa240bab12d7b3b03e362d380d0a90e8625d413cb2686598252071a10b3d885cce42820d2ee023677c34",
        "l10n\/de_AT.json": "fabb6ea39ca26b6fa5a4a8a9f89da98c69f27e70e41281187160eacbc4704661ccf2eb791f7cb562d9cd06757b50490fd4c69b5c7d07db755210a9cd0690af8e",
        "l10n\/de_DE.js": "ad1b0c45c45de30e9f3e85d969e055195be3fceef72711046d8b192970ce2eda0b029119acf47447b40383a50f6ad593657ba61fd1884275d5e8a14839cbedee",
        "l10n\/de_DE.json": "56e69fcfaf7eeefc37259f1b253806f0796ffc346b6e2e945639d01e3d541b7160e8099449460d356d5abc72d36592d55a83e16bddfac4df0a23c0ea444f3f48",
        "l10n\/el.js": "bd328703b664aa63f86b4dc0a2d451c6622880a12b5abdd0c16fd57efb573f130b52370518e0f82a4b609c8ebdfd65280880bd301d0cb06c91a0042b067bc48d",
        "l10n\/el.json": "b06cf9782db2cfbfd8e62bd09616af17196ddb113896ec8abe5745bd21c8b0e7ac14b8d7091cd8a86a9a5186393d8e704df3d4202305a30f910ccee87195da85",
        "l10n\/en_GB.js": "05236d3b0fbbb4facf63956c0c58e6ce4e4e187fe472490dadd2e00852e1cfa2339fe5a67684e18a70d8109ed561b9c12592fc7b2b5b5cee9f5fc1ed559eec50",
        "l10n\/en_GB.json": "1ff6c53a23e098d9fef58fac9a0a66d9f2160054558bbb64a3a09b0b6d2c237a45f8b1553f9823483fb30bb269003a108c4ea11db16ce1969344ccccb8a39ebd",
        "l10n\/eo.js": "81be71d930ccc5ffb11dc40ae3d74a0ca2f94b91c1f69a8df16b48964bcd45f3e436275d26e8299322c8acb246d6f0c65c171523e4be92f0c4d1a3f7fa0ef181",
        "l10n\/eo.json": "257c4c03def59a7fc3d8f39d1e0f9e72fc927d34ea94b7b3a5ede173449945e5f6f02c72d90a231eadbd7adebdbd12502a3ab40c820afc95b3dd85b5a95c87b2",
        "l10n\/es.js": "dda25b1050c96ce59c6d3a198a1b6e70d45aeb6ff3f4bd7283d10c2780739e573d2680340ae238893fc1b1764bfbb42ddab334dcbd6da6e8f40e4c0f3f6a483f",
        "l10n\/es.json": "70613314fd9e51502bc5b571719f21876cabeacef796f781e9c2c4401ec2407a4fcb1d25e150f8638c75f02e95a562bae2ab70c5ebb9f6976b5fdd9ec660930b",
        "l10n\/es_419.js": "f1fdf97e60f0d580f20b51a1ea7300b060dc235c37d7505d6a42efaaf6298a1581f6668accbdaa3c9bbf1cacdb3d357c5d603fdb4e320b75689067ed02b3ba74",
        "l10n\/es_419.json": "8de06567437e18373324b18a92827bc57c045a88d7b3f996e3f7c61e4d747c837a30808267c436e9c20b4c66678c8a877238b3b5809bc34e13e97925e0e63088",
        "l10n\/es_AR.js": "53a5de7392758ea6923f461146de3eedd97f64fb3a593b668c843bd324c0ecf83a60150e47030b40762f86db2c20674a78bb74516f9ae718151f8e07a38cebe1",
        "l10n\/es_AR.json": "fa1d9bb6953291ef55ce9c2eb64622d3d188992d1c8aeddfd69d911e9545d1586c31ff8b1ccb5fe83b504c8a7761416f0d17643e5e251545d12d92a648c44c91",
        "l10n\/es_CL.js": "9402af68684a519beec712561e7c275cf583f69db6ba3b92e71d294d80f909e668b96c5817fcb18e7dfa4ac65cf232483368b280d5df7c05358cea47f73ddf69",
        "l10n\/es_CL.json": "22eb21dddf165e4af4f2b19d7ffb0dc27824bc387cd626ae5c51fd39f9cf62b60a63e595d6274cd027ca0c44200529c8cb00a9dfe54f46be813a119656167d06",
        "l10n\/es_CO.js": "5a7abd43922cb8ff7406303b525628a039db4120a6072ab3f2a82060d2ab80727e27d6491a04152b6bfed222b08ac9d5cd44b11ad5db04e82226f782e5d5bc3a",
        "l10n\/es_CO.json": "5e7139d558f7108429ad8c4cc31b114dc8998d0e44d39bb640f42af3eee38be6b03521934c772b328c69257676506a18f3e4ef4d900787bec46c636226795b41",
        "l10n\/es_CR.js": "a57d360a15009924cc608732f96fc0a5c9bb85e9ecb05c410d5381b35332341802cc2442c5c7dfc97a86154dcaefe073f196ad77be8e3596fe7288c525538519",
        "l10n\/es_CR.json": "0527f3b1db2d65accc542d103796e320d3d2e46af684d7f50ebcda875b865373ff0741b95a365d575a580f2c0cb6b117ab72caab7b441c5ded8f21c04e675176",
        "l10n\/es_DO.js": "a57d360a15009924cc608732f96fc0a5c9bb85e9ecb05c410d5381b35332341802cc2442c5c7dfc97a86154dcaefe073f196ad77be8e3596fe7288c525538519",
        "l10n\/es_DO.json": "0527f3b1db2d65accc542d103796e320d3d2e46af684d7f50ebcda875b865373ff0741b95a365d575a580f2c0cb6b117ab72caab7b441c5ded8f21c04e675176",
        "l10n\/es_EC.js": "a57d360a15009924cc608732f96fc0a5c9bb85e9ecb05c410d5381b35332341802cc2442c5c7dfc97a86154dcaefe073f196ad77be8e3596fe7288c525538519",
        "l10n\/es_EC.json": "0527f3b1db2d65accc542d103796e320d3d2e46af684d7f50ebcda875b865373ff0741b95a365d575a580f2c0cb6b117ab72caab7b441c5ded8f21c04e675176",
        "l10n\/es_GT.js": "a57d360a15009924cc608732f96fc0a5c9bb85e9ecb05c410d5381b35332341802cc2442c5c7dfc97a86154dcaefe073f196ad77be8e3596fe7288c525538519",
        "l10n\/es_GT.json": "0527f3b1db2d65accc542d103796e320d3d2e46af684d7f50ebcda875b865373ff0741b95a365d575a580f2c0cb6b117ab72caab7b441c5ded8f21c04e675176",
        "l10n\/es_HN.js": "f1fdf97e60f0d580f20b51a1ea7300b060dc235c37d7505d6a42efaaf6298a1581f6668accbdaa3c9bbf1cacdb3d357c5d603fdb4e320b75689067ed02b3ba74",
        "l10n\/es_HN.json": "8de06567437e18373324b18a92827bc57c045a88d7b3f996e3f7c61e4d747c837a30808267c436e9c20b4c66678c8a877238b3b5809bc34e13e97925e0e63088",
        "l10n\/es_MX.js": "1a964ab142cc749cee59757e1c85a09d890dce11a7897525147f10a8868836a4bd21a174cea71ece5f7f125d189a481f652c73decc18a364f6466c3dea227806",
        "l10n\/es_MX.json": "c1bd478058632a570f5a95af67e215bed81940ad5aa8b5a44c660c1a2ee50a095dd094a6b29065e2d5ed3989d32a5dc668ab296b7971f72357e4d23176b7968c",
        "l10n\/es_NI.js": "f1fdf97e60f0d580f20b51a1ea7300b060dc235c37d7505d6a42efaaf6298a1581f6668accbdaa3c9bbf1cacdb3d357c5d603fdb4e320b75689067ed02b3ba74",
        "l10n\/es_NI.json": "8de06567437e18373324b18a92827bc57c045a88d7b3f996e3f7c61e4d747c837a30808267c436e9c20b4c66678c8a877238b3b5809bc34e13e97925e0e63088",
        "l10n\/es_PA.js": "f1fdf97e60f0d580f20b51a1ea7300b060dc235c37d7505d6a42efaaf6298a1581f6668accbdaa3c9bbf1cacdb3d357c5d603fdb4e320b75689067ed02b3ba74",
        "l10n\/es_PA.json": "8de06567437e18373324b18a92827bc57c045a88d7b3f996e3f7c61e4d747c837a30808267c436e9c20b4c66678c8a877238b3b5809bc34e13e97925e0e63088",
        "l10n\/es_PE.js": "76c7c54361e2ea53160cf619808d7629e7559fd7c63b1dd5bf71f62ad195fc551a9697e19cc2b84c92f9564d10a91ded885dfde1016d1dcb2ebef7005d59991d",
        "l10n\/es_PE.json": "a337aaab1cc9db6930e82646bc56d61b7f7514a3d39aa72d854a5c299da3d1c7c6c30ddbbb80dacb075b97bab6fe6ad64240128415a0b5b3df1bd243c4fceb32",
        "l10n\/es_PR.js": "f1fdf97e60f0d580f20b51a1ea7300b060dc235c37d7505d6a42efaaf6298a1581f6668accbdaa3c9bbf1cacdb3d357c5d603fdb4e320b75689067ed02b3ba74",
        "l10n\/es_PR.json": "8de06567437e18373324b18a92827bc57c045a88d7b3f996e3f7c61e4d747c837a30808267c436e9c20b4c66678c8a877238b3b5809bc34e13e97925e0e63088",
        "l10n\/es_PY.js": "b474c6f6b892ea14433beca689e63093ebaa9f5e09a3d09b1f09fcd1532b429f684c562ac0be8340ac459fbedf4fa2e5f592a522db014e55d4652d5de84fdfbf",
        "l10n\/es_PY.json": "82794111e1627d2e2b3dcdb55bcbc0d835b2cfae5b069c3ff1c6947f234d46bb2920136e8a2f881fc42766a1e73194bb9ac300d8f59eb255f46e4fa6d5c5ccab",
        "l10n\/es_SV.js": "a57d360a15009924cc608732f96fc0a5c9bb85e9ecb05c410d5381b35332341802cc2442c5c7dfc97a86154dcaefe073f196ad77be8e3596fe7288c525538519",
        "l10n\/es_SV.json": "0527f3b1db2d65accc542d103796e320d3d2e46af684d7f50ebcda875b865373ff0741b95a365d575a580f2c0cb6b117ab72caab7b441c5ded8f21c04e675176",
        "l10n\/es_UY.js": "f1fdf97e60f0d580f20b51a1ea7300b060dc235c37d7505d6a42efaaf6298a1581f6668accbdaa3c9bbf1cacdb3d357c5d603fdb4e320b75689067ed02b3ba74",
        "l10n\/es_UY.json": "8de06567437e18373324b18a92827bc57c045a88d7b3f996e3f7c61e4d747c837a30808267c436e9c20b4c66678c8a877238b3b5809bc34e13e97925e0e63088",
        "l10n\/et_EE.js": "49ea598961085eda028a49c4e7b6061cd71f2592322b9265485caee32c3571b9de5c24720e761dc110f78af34d49dea1e6deeeba506d3ce3efc976e226ce0412",
        "l10n\/et_EE.json": "51901a095c62b116562ea9f5453208b395d83871019db5876324d5aec6f1e7e07e9377c91e09247bd32ab142bc5ec10f86422fe509737c0578f426c70b88170a",
        "l10n\/eu.js": "a9adfde4bb8cd27d346aa472dba11d14015fc7f887ee38f512732c36ef19c19975b7322ac8241506b3c170654ad456227b51dcf0c5c3b994260c675253d6bd71",
        "l10n\/eu.json": "a0f2a42b9652f4bf3f7ef86aeba18b8916f00ce5acf2e9824720bf3d61c9289136acbb953bf87d8384e0105d5c972684d9eabbcead7c25ec3eab4eff372d27d0",
        "l10n\/fa.js": "9d2c4e416bc4469e95c0a483d9261cf4a225b9c05b2ed3435ec0a9efab15f602f5d60f284047d74daa2b214dc79b74f73fca9be5ccc1f6f52d5e805158755a50",
        "l10n\/fa.json": "d95323d8d142f6d552e39675724ff1a5b6bcba31367e57c0d7f3de47d8b794327c5f9fd273ae105a6e04a352c8ce5d2002fde1f18664459c64cb7a23fd27cebc",
        "l10n\/fi.js": "582150848c1982aba77d074675f2f7d9238618d9e71e4c4ba8a9c63d64a647fa67e37a6f9e32c3ee5d4e1862e891ff005aa090472c5916f01876421698541f69",
        "l10n\/fi.json": "ba9416e94abe2764fc1f55aabb509cb314a74d4665fa73d388b7dac127c79bf15b6887d19ad6d2f5dcbd854f09df192f158392c4268be8d7b0d39e81d6e3073f",
        "l10n\/fi_FI.js": "039c4ce36bbeb61607602fb9fd19d8f3ee2da9f2583bbf77643e89dc481589f360d4c296a9feba017c1a7b31311c96e3eeb057497955140cd4f9e7d4358c594e",
        "l10n\/fi_FI.json": "dc3bcbf781ae30ddbecd006fc3517554bb3f1bb4ebfdb293e4cb2a3374b312891164555b7290e67f7eb86733fb686134af18bba4d2fe5dfcad097a6352a87dcc",
        "l10n\/fil.js": "afc0d42e56f1e15a563c3234d1ae6a68d06414bfd7457b268d50055f72549ec8427ff42c4d27dcd86dfab513fcea42a59d1d274fe9d50ab96f14a56949979371",
        "l10n\/fil.json": "49a7c65e3992a18be236cb4a2b507574aa1eb042f25d81c21a314c613b626730bcdc892bd769fe0af9438f79baa03d3d52bf7934b4588fd0ce98e26163c9febf",
        "l10n\/fr.js": "4f42ee71f49055cc7a0f1eb8b92c14f080fcec3aec296a0a599d5e15c427ac07e9571e6704470f9c056aea93d6d0d7b4d574cfd65ea0ec2d5556d4e5ea037430",
        "l10n\/fr.json": "9619ea8075592b6f564c89d6ef2e4c5975bb1fcc1caac6df534e31fd9d06b3adca3efd91d01cdf6ee583984b4e1b852a28adcf0038d0399befa07d732fe4b6dc",
        "l10n\/fy_NL.js": "a40954bb6233ea1f0171fb0b1c99fd8d011783f23bc6f9f4817c08a3a5df5d0f5113c2f3d7128534ec3bf4a0e723cedeedacbaecae1dfdecfd490ee6a24ba04f",
        "l10n\/fy_NL.json": "17bb226326509d39f8eae5b3e6d2d1ee21a82a1bc8d66d1177f261729097980f8a899133475837cb603377b8907019190225ef3b05f4dd3151aa25079e50e7b0",
        "l10n\/gl.js": "edb98a160e755437f0ae0ebb4ecdbaa28b1b038c5749db8e37c0f0fa83ea5c3d41010bdcc97686f774c9335e05d76e2404ca6de5e3f6d78e11a507216fde520e",
        "l10n\/gl.json": "74372b6eb5b1438e9cf0cabbde48b9610fd9fa1f7100ee4230481b82418051cb46b88b29d9bd95b99c03d8fabf1077c5edf3d797a1846f58bafecbae023cf35b",
        "l10n\/gu.js": "a40954bb6233ea1f0171fb0b1c99fd8d011783f23bc6f9f4817c08a3a5df5d0f5113c2f3d7128534ec3bf4a0e723cedeedacbaecae1dfdecfd490ee6a24ba04f",
        "l10n\/gu.json": "17bb226326509d39f8eae5b3e6d2d1ee21a82a1bc8d66d1177f261729097980f8a899133475837cb603377b8907019190225ef3b05f4dd3151aa25079e50e7b0",
        "l10n\/he.js": "dba41cd8037d4450deed201f5219fd5b4986d557cbe999527c7e272aebc927215248b17144904e48ebc4262a8232f05bef20e523eb6721f490fa4bcd311cae0f",
        "l10n\/he.json": "1f897f49cf65ff9032c9144903a0d531bc5a36fae4bfa9b7e443312a33f59083aa1771eeb4cf96b16c4f5bbe00a206ca611052a2a42f903267ac876b9bc5dc8d",
        "l10n\/hi.js": "fd417c0359dc7105813ba17cae662605e436c2ddea8f5dff8c1bf13fa7c82913d07fd5bcf8a6611458f14b5944fef4f01f60a146151dde4dc3c19eadd5ffeb9b",
        "l10n\/hi.json": "906cc5b6b87027405f080548fbcb24c203c1080bbcde571480dc1ec5d2ef2a6f29b2a5470707fc59b052088da5c860c550a5b1821f7f4e5f047136adc088c8fc",
        "l10n\/hr.js": "10ac991fa0ea5a1d7b4a21b576535f51b899f723e35488d6212abb7cf6bab5abf94cdac8c15f7763bf7ed40bd0410421ec70c2cf8eb22200f0dbc1bd9ca940bc",
        "l10n\/hr.json": "bd355a57c438ce8b118b957b83ce89d1672722084b4ba7d63c7d0daad96ae7b4ab51750d5f731a6289460cc7c672da10ff69f358040135277c389ca640ce695c",
        "l10n\/hu.js": "a78e6459080465c687f2ff6581ffaf55e49ee00650369cad64230df7bda8c575442586be55cbbbb381e0e71942633c091f16fc24f54f0310df808a0290e7fea4",
        "l10n\/hu.json": "01a121430179556fc8820cdadd4f42fc324925a5c3f04f543ae9e57ca18982d5b5a5213db6a7dcffc225dc35e6cd8970bcd6a386b40f44423201fc177a4a8f9c",
        "l10n\/hu_HU.js": "0f73814c9716ee33b8f1d53ca1ded09d2643aceba2ccef8e19fd0af1a97c1145fcceff34e6b0acf604d2b20914740590d1a858c8d0ee5646614bc5bb427f2ee0",
        "l10n\/hu_HU.json": "50ddc99a234aa6a83be17fb7a4c6922cab86270b009bc1a362b9087c7f04c6b19c1914522b3aff092d26d5764511cc9330ed64507f432e65aa3fd3c0d77adca7",
        "l10n\/hy.js": "73bb09378ae20096ef04c5b9b10d9bf5f4f95b07cf2e0bb47154f96d4d0b7f7d9383a29d6ba649d6dade507a0849ff3af6a0d481758561a9949320160e406006",
        "l10n\/hy.json": "7ba674d1ede45ebf9df391bfd66e9614f93199c72282d82027eda4ab3341167beb6fe000f60e1c2ea457f12b60ef1630552b3c497d755389a804a37f629fcaa4",
        "l10n\/ia.js": "0f7d115e83a939702cc65e2a0a875be15bed155bb43e3fa14d706a125623a8140261dffce982c0cfc2441eec16d3e592b9c14062838776784d4480cf4c0af3f2",
        "l10n\/ia.json": "20a7cda9e5f42dd10cecc0db322d7ca8f3d2002572602c526fae659bf3e32aca0670d2ddca57411606d24e13f9a69544e77156efb59a4350a83190dbac51d677",
        "l10n\/id.js": "4a60b87580c0bff0f739dcdbff168160f046ccc9e469d92fee00b82c5f863d8dd509777f6fbf5f0c60d39f840b08e7610da7bf9eb34c009b9ea2d3f485952cb3",
        "l10n\/id.json": "be7bf3d3fd9e5ac5a13d9833f04fe7cb74108d54ccbfaad5450169c2584e6f315abf0d40fddc842ee705d987d742c630f2534f38ec780eb1e9cb37ea0e69d8a4",
        "l10n\/io.js": "a40954bb6233ea1f0171fb0b1c99fd8d011783f23bc6f9f4817c08a3a5df5d0f5113c2f3d7128534ec3bf4a0e723cedeedacbaecae1dfdecfd490ee6a24ba04f",
        "l10n\/io.json": "17bb226326509d39f8eae5b3e6d2d1ee21a82a1bc8d66d1177f261729097980f8a899133475837cb603377b8907019190225ef3b05f4dd3151aa25079e50e7b0",
        "l10n\/is.js": "25ce499e3299e72f174506bd6dc6540f89e7aeb335430db185563e8b4b54c71d4a73de713360890be0c4a9a7ef71c87bbd8191756e9424e99955c1f59e532156",
        "l10n\/is.json": "d3126a9f6e77438e5d8a40303514eeb61efc8fe7e70cbea47938c313d9ae803b279bc98d4ffcad0c3697d01eda967358e0d951aaed73d30285a42da4b53bba9d",
        "l10n\/it.js": "18ea9f18bd045c59e8c39efb890ef57bdee6107fab22fad37cabd103cf1e1325753587a940500ab18ff39b90a6793737d2a0bef25a4788e2f08716378881aca6",
        "l10n\/it.json": "06c84bb7fa22d77ba4052c9ef947482c9075a8bbd7ddbd6b0bbd3882bd165b24ec59edd169a1de295bcdbcbb7ac26a0d33babea75907d76d33194f629964aebf",
        "l10n\/ja.js": "94cbed5b1d57e0c33cf820fb591db9f0e0d89a3bbc44055bb0e007b256c4c4fe16599a1ea69eca51255f9ceac3f05abfdb7e6d372dd320f13b9f88cbf65c9f95",
        "l10n\/ja.json": "9f67e3bc0a55ab0b0c901d30670e0e32d565aab7cf595355e6e34826c27c6a971dde2083256cd7269662cd7fd271e95c68eb6e86535af36da0bbccffea79a33d",
        "l10n\/jv.js": "e5f000ead70d1f1c1f6e67c2571665480cc32b18363306c4e2b23d61c4c3b18fb091e9a6e6d8d35b20d4936f4f86d1701425064584b6c6e289f965d12d8dc1f5",
        "l10n\/jv.json": "c511775bb3ea0cb398efadeedd5c462d091f7838ac65a5eab3165a9544039c0694072c7d5573b91cbfa7cda8b0b1b2c518e2c85037ec2092024ae420dbf6b2cd",
        "l10n\/ka_GE.js": "d5f523345c136b9a552d4d33b95f8e7f477dc97b442da3d8b74aef31b996071d5856d03dcb50b03df4e6fc2c9194979bc38a187f40928a5bbe13662691e7c84c",
        "l10n\/ka_GE.json": "797308e744fb963b2325504d0a31d234902a90f2e9b08e4d6072ecdb9e6618749b42483b6cb6e332ff4f0640fea23200b80b2c89a8a939a1429c66e61d8e6fa2",
        "l10n\/km.js": "a493ca542cbfe1694576aea51ffc10068385551b0c162de7c561c6751693881360ba59365b090408b4e571eda41af8e190cc9bcec16033284fa81112c80591a9",
        "l10n\/km.json": "3cdd557459be0b145989cf0e1acd924d804809cb87b63a93bb81b7ea499e5df80c0ecb08f0a1e11360015e776fee82cf41d5faa8f8148d381ec11ce1b2c6cce9",
        "l10n\/kn.js": "62f150807e79b954c9caa72386d3b50658bd6556aa69e552e1aae64424e469e74f6cfb233c37cfcdf284bb49cebb5f7655387049b30ed47c299aa8041a8bcf9d",
        "l10n\/kn.json": "e0aff8ca5e19b804e48d8938d16e89b546457afff62195b3eb0cd01b16539dffe57bbfc9e85547fd34713735419ee3264b5f0843054824b3f37dcac8d087891a",
        "l10n\/ko.js": "6b6d249308df06dc42c59f997d4fd566ff557c328e8681c262d42453b298e4c57d712939837ca5f314e63a70dd8372ade48c7b18a06e82f2e45161041851404d",
        "l10n\/ko.json": "27ed64a4c74f65d3b78a1b45248afbd1d01e3ffc955f8fb7a4ad9ae7db45328170d9d00643e7006a8efd42b1dbe20a09d120f0e8a5c75108107eded8642a70dc",
        "l10n\/ku_IQ.js": "540f5696b479577c3fa83c7fbc8376db44c051443046b0e894f32d7b88941a2ae2fc52fd862a9309331d900091c0ce31d8657295f2123f903f568a4ad0f34142",
        "l10n\/ku_IQ.json": "f52af7969c7186c3457ae6c85396c887587785d31b048690eb3bd1426887111d11a34f31cda3b4aa24d6ab31bd51f84a023891b8825bb13246fb518662b36e4d",
        "l10n\/lb.js": "600034583b8cc1cd5efaddf930a3ba2ddf9d45d80035c4e9a84871e600bb192c96a9dd943cffb05b732fc17eb338e9ada04b4a4fc7f40d763ac0e36c2033efeb",
        "l10n\/lb.json": "2c9659f9b2844ab600f83a80948cfe43f30186a888f3a578b4c1c1939b01ad9fe7611c926d9e4a7383e5d180d32f9fe91ecdeddb4ee2452d321f6c586121b529",
        "l10n\/lo.js": "6d0b03c5ff36ce50ba66b0e462ec7516d440755fb2c506ce58cf8358c5b9d58d541834d3cad23b2f71127da1698d26ff6bd082a01393190aaa530ecffb2b7546",
        "l10n\/lo.json": "68b43785875044b12865c73d5fda1bb5133580a1985aa8752f5643a09ba2fd5765d4721fb8d8d63a0ae5f90db0e0870230e79ee71229c6a5ee48e64c35024184",
        "l10n\/lt_LT.js": "c32fe5b19ee443a1a08f69c6b127800d1f38fececf38b9cf7934c5fa4a8f74e73dc0355e52db0939cf145aab447d1ccafa291ddc4af4e6a93510ad5e5dd55d51",
        "l10n\/lt_LT.json": "0107f307671a7897bd452a3dc875886a55d26dade8182151bffa0ff4c5fd80c86e95649566a26cb16c3e336c2349c286878803be120816dce936ac9492cdabcf",
        "l10n\/lv.js": "ccf64942b77dca18e31a5d6170f9fc7de3c90753bb6470bca1bc7b617c8305b908e53ca42e70d28ae86ce92f0f48ab262c1896ef9f05c910c5f07a6a8f59c0cc",
        "l10n\/lv.json": "a918fcd2d729b2c2422e0cc02a994590409038a3fa3abc889a5fb7e47cd209d54c49dcb89e6f01f3383d280f084bb652fe0ba63a989261973c80f050a3448d2f",
        "l10n\/mg.js": "f7833f3cc41bf6f1bb322f862286f60f519857769070555353fd6f7a7883615605453bd4c481f6b5b0e11ecd7f14044df76329305e34cce5aa17fed9daba0c94",
        "l10n\/mg.json": "2a46965641683a82e4d758a942990b1f43e6cc43c0643e1381d92e968daf554ba00fff3d11265405447d1d683f216ac1d2d75cc28b95dd495a39f0e1648efad9",
        "l10n\/mk.js": "fdbd7abbfe65588e43702e55f3b1b841b6bc153114274ea6893261a2f885d5da0fad57a3cd3ebcea1ed61f6a63be4f7c3c73728c1eed3c69be8d89754e9cddee",
        "l10n\/mk.json": "9f56c8f43b8f4c60b0473f1458bdefc60dd6f0e8d25cdfdcaea7cfdb5fa8568dfc2499cf0ad2065b9c714770069de56c78791cfccc24a35e63e3c1332bc0760e",
        "l10n\/ml.js": "a40954bb6233ea1f0171fb0b1c99fd8d011783f23bc6f9f4817c08a3a5df5d0f5113c2f3d7128534ec3bf4a0e723cedeedacbaecae1dfdecfd490ee6a24ba04f",
        "l10n\/ml.json": "17bb226326509d39f8eae5b3e6d2d1ee21a82a1bc8d66d1177f261729097980f8a899133475837cb603377b8907019190225ef3b05f4dd3151aa25079e50e7b0",
        "l10n\/ml_IN.js": "8a7b6ad448b973a0f53db2a4fba84c3d70625d1fffc2bd8b247607cbd44e79311f2ce999e3a637532dda982574308f3577c720015ed983ff0e0ed742cde37a48",
        "l10n\/ml_IN.json": "4be4c318f017d45dcd3126046f0c695ac0543fe932b95ef926bc4ae35740c8f87d038e601806c5f17e681867f44bb7b68b1ea32e1d082699c128b91cb88daf87",
        "l10n\/mn.js": "71b0a02c8b3c525909f71142ac22c7d9405ad5f79ee7ce89e2272ccd591ad000ea24ecf323b0bd4d717cf8fdb778ad21012c645be7ebbce7f9d0306d9df8ed92",
        "l10n\/mn.json": "74f2d720eeb06d3b95bb0667497d8753bfe55e0b8705dbec846fbb4b7e4dd40da03318851dde84f46f1b1494526bc882abc55339fbcd83922a4c451938b8e979",
        "l10n\/mr.js": "a40954bb6233ea1f0171fb0b1c99fd8d011783f23bc6f9f4817c08a3a5df5d0f5113c2f3d7128534ec3bf4a0e723cedeedacbaecae1dfdecfd490ee6a24ba04f",
        "l10n\/mr.json": "17bb226326509d39f8eae5b3e6d2d1ee21a82a1bc8d66d1177f261729097980f8a899133475837cb603377b8907019190225ef3b05f4dd3151aa25079e50e7b0",
        "l10n\/ms_MY.js": "0a121de6b24d4ef5d45fb9820c50c635aa46599333926ae53e8029d9f9903bdc5d45b4ba6a301ed970192460cfad4ba7902601ba3bf2362088850e96cff8cec5",
        "l10n\/ms_MY.json": "1da6bf7f2fb0cc6080a00fdf5fa816cc3fd9d256da77f5f2e44019705c4d79a8602f7cef795c30273057bb2479f5cf96ef16bfe9d67d768380431f7af4cb5ec5",
        "l10n\/mt_MT.js": "11fcf3489e44ab63c40fa44e155f96980d0f6c985447e196d6c3b9e16e6e803ecfe2de3621f31444a913b23c5e8f420eb82b616f8dcbe7ec59db2e895df59762",
        "l10n\/mt_MT.json": "6e3b4161f622b1b4eda4e08911e0a4269c07041fb950eb60d4b970b1badf5e1a2eb849af63d36cc543769ca4d6e15f57b59ffc30ba50ee55ad3c72d66e760eed",
        "l10n\/my_MM.js": "a652b9a5439be868773251d6e86981c723577d7185d1af971ce3969e5b8cadeda30d9db7774f9622594c2ad16089e39e05047ab7267cd8eeeb53230b140c9b04",
        "l10n\/my_MM.json": "4259f1379ad3754bbff279f0b8b25d26485d3316df4095c9c90322a996a9042117b4633450b603939bc065bf132099f074456d119ee81f40072827f43a2107ed",
        "l10n\/nb.js": "aa72d671f402d6ef17abb49422e1facbe9d47f5b137e53208a89128f9ee1d46f75562197393189029e047540d38a1fc3f06af9b916ed59029ac2c2d0b6c9e141",
        "l10n\/nb.json": "1c582bc8e6da7d874b3ff91b6abf7e3129d14636020cb3753eb39df1797bee03f5589b70b0bce6305e20228c2a3a3554b38647e4c4a1b1fa4c18b7f188045a14",
        "l10n\/nb_NO.js": "f4caff4b361adac6cf08f8c1934d02d6cb050851ef8e71ea6204556164ee01156c98cdb536a389d88930e8eed4958195bfc6012d20d52420ea837fe9754be4f6",
        "l10n\/nb_NO.json": "dc979aae9866cf025617b0b84f785bc6f24869226c4f41348ff6033776a4669bbcdc88367121c568962e1e0a2363b0cd1a0ff8291a93a73a0e7878e666289a77",
        "l10n\/nds.js": "4ab6a8db07ad601b25d66b8d06e0496ebfc6b021889f327841bc4cbd8cd8905eeda9bcaa21b0c736d6de174cf6a2313030f66b4c9f96bf9797b5b7720b35df18",
        "l10n\/nds.json": "ff8de3fac73388aa27bd91a2fbb30f295f615ec52c2007e523c3115506afbab6fced86603d0e363c857f8fbc1e959f7228b0e5401e96ab15109637e1b6174eb3",
        "l10n\/nl.js": "e82291bda3a1262cbcdf8e9db62e3050758a0054c93da0243f0981e7f685753b8d73ed1593802f937ad777612576827babe266235f8d45b6da169d4fb3ecc5ca",
        "l10n\/nl.json": "2d96a63f1f2970ff66b6c22129758b6b26ec7780f1ff057361b5021b5c3e079c74b88ae05fd65cc5eef7ed233c7a8ae1cbf05fb7433bbf11bb636f3460891e01",
        "l10n\/nn_NO.js": "b037214217dc0f84d607ba7c074411211dd3bf7ff9a8ec45d0412cb3c59c40f487414841607979d9fc56d112bd4f8cf571493ffc86484a4e39730adaf09e7005",
        "l10n\/nn_NO.json": "49ece3b55875d5afda07688fce03848ad1210f2749fcce4af537e2e5c1bc23a7ffa547ddfc91c0dd1801c70dd9aac4ba55e03b9c22343887acbdb926f1df1117",
        "l10n\/nqo.js": "d9ba6fb2a6bdc5a0436caaebb9266b124ea4fbac3de4e2e220b8ffbbbbc41aa9b0c92412627c185f2fdbee3150fd24a02545b5b8d20f25f04aa96a0cc1441e84",
        "l10n\/nqo.json": "6b0e3fcb5c2989890c2190d27d7d751c2c2d99f29019c017722a0f4155963e9a896e840d21cf3aa93d34a094150207a5def61b734d3e5f300f39055c20707bee",
        "l10n\/oc.js": "a183f9eccdd93114709f0bd14366813c49920ca5ba5e17337156eb7620caef9e2c521d0a12fbe24ef5bf454fd5c7b815f0b48b16f2729070cb62fc8bea5d4c3c",
        "l10n\/oc.json": "bf42e152b9cd09b4b127fe5a30b145040bf38a3d7158d2a5c8ccbacd99bf36258b72534e4ae4b8dce6de0450370c80cc68dd69d11864428a29f64f11c002f75b",
        "l10n\/pa.js": "a8fd3f66e7759b477e6200faf3df1c26f3bc6684d4964cd11d524db2aed7ac3ab16240dd9943d4059b67a0fd2b0cce6cd782407a0abd26658f6c9d48a3d512b5",
        "l10n\/pa.json": "a474b3aaf24d1b006eecd3aa8264cf798ffad09a5a2d45ff73795d4da2d289cce466a349aed5c32d5025388ab372623226796eea2a7f5ffe1b88b1bab27299c2",
        "l10n\/pl.js": "92eb2c9e48d2a34e881d77eedeb79ec024c9fcedcf01c2897e0ceb18e9b71a2133aae785a0cd07eb1df50ec858a3465ea1b2e1aa8cd964c7e019125a90bb15bb",
        "l10n\/pl.json": "0b00283098727b1fc1adecf7c1984d2f71edc3be73c7c9fa0dee0c30e662d15a7e9dec2e0c44883646b720d69191809f050732c664156ddfba9f337f6118b2bd",
        "l10n\/ps.js": "a3f06d165ed9d77225a207ed5f9916aaa7c8b963364c2ee698965d639bcfa6583869c11db6ac5310f1f8421eec21ed6f95e7973edaf79956893c46895f37ee09",
        "l10n\/ps.json": "64d1e75b4e9ba6151375f706346d43e1421ef708b25512c34d95f2dfde68b1602038f8403f8dd6663896e4888c5b97c1440e8b01d7525d67ee3d9be39e2ef825",
        "l10n\/pt_BR.js": "e6c44f48087f65fcc4c8e6f3c53c5134122b7c5127b2d30a07e69ad12bd36d145afefa9413892c28b85256319e66657345603a912caae0b18b2d2bbfc26eafd1",
        "l10n\/pt_BR.json": "b540f98643487348ebcd5f10cf68c06e529527055b87926d6afc7d6ac5acfa554aef7e661ad2e1a06754f4fa35afba5fdd69e832e5ddde23ad549fee49556277",
        "l10n\/pt_PT.js": "e4c67f031c6ef25949da5521ce999db13bbc1ce56b0cfabc098b2b63653148201095262b0465ec415806318984ad0f721a0813dd3f2f572aad22ab312e0d6985",
        "l10n\/pt_PT.json": "fd0b05dfb548dd27411226913135a64e85ee09d8b9237e65cc6254c54305b3a4a3830c44ddd83a7af2ce839ca92d51f40b23de3e5a15c06b3658c70138c4011f",
        "l10n\/ro.js": "cdac106831c0bbb46bb1d7405f5a126105f46521c89657ef93092affe9cc31a98f8d5f54bd95d7774db3c1e27a2e6fb6bd42573ea5932d7d360be5c0f933cf75",
        "l10n\/ro.json": "4582b91219316d8db0798bca813956c9336f8792efd20658ec04a4f0e72bd675bdfa893b462bc8eebd0a431852256586520b86cba13efa38cbbecaa3708c2cbe",
        "l10n\/ru.js": "65259a535bb803aed8b614fc8ccd945fa26cd62ee9dc8f4fa1b15b7d6c76990ccc0e7e44d20715617eae5e89ecedf6340711850285f51ac42f6ca184792337cd",
        "l10n\/ru.json": "114e9ac1b86d78d9c5b74a9309f95857fa83f376d75eb87f9557d2b99a1d5d4076e0dd12d3a4e91b66461fd36d5a9a10ec8aa16d2448b6694fcb0021d3deb7a7",
        "l10n\/sc.js": "225afc6ff3aaa0147d65a57fa26f535b695eb512a9d74c2785fcbaf6d505cfa747f00a403b7071ca8e82e6847de26ce2df7819fba70e6297b058d16db4b59877",
        "l10n\/sc.json": "b7082802cf24d2b7a10a76e825fde6d041d96c592200aeac0a3a6e04d45335aa4658fa0f2d1d61ef9751bca205d2ce9362ae526004a2bcda629d5b5437c67429",
        "l10n\/si_LK.js": "7775f3ba90818bc7e341e66abcf9d002593d8c054b4a303569377c8ad5bd84665110abc6fb297a6d001fc50263cbc164a4c03dfc8165e2f652e52fa4af7c2e97",
        "l10n\/si_LK.json": "2fb8de1322c01af5b67cd5f0b9eae6050beda3bff28b4e398a0b380cbc6d553fbe70b492b073cdd277b27ca75e52e21afd43822bf885572ca179492d987871be",
        "l10n\/sk.js": "7b66ab9014c194a9e6c08861f29b9f36dabf901455bc7a581627958b3af1ea0c862f8a6feadaa56bdbf47a39e2507c624373958a0492a1dd9912187505d237db",
        "l10n\/sk.json": "0d56343b6e610feb5765ff7b861b5fb096b122f7ad7632e82607abf29a90259d4d3e9afafe20a737d113933d37c17b78ed4859d314d4e3c1233bed1d5b5ee5a4",
        "l10n\/sk_SK.js": "350090944f0bb08a9e89b5cd6685c711522c0fcb9923cc19157d8b9b11ae9cb1739013b135cf451c87b67c71fed2bb109c668e666cdded3695c3c90941617d7f",
        "l10n\/sk_SK.json": "c52e2483396ff193a094a9687bf617421d193b08dbacd3d0323f74eb231b5bc20347087ec3e85f3d6be296efae23cec1a067bd128a6b24ba6803c1be285b8db3",
        "l10n\/sl.js": "9e34afbf70f71f5cc737173f34f16f717c96fafa2917d0595e275ea4e29386bce14c38358e7316a6e8675caa439c07e519e543db618e793f2467efbdc3aea58c",
        "l10n\/sl.json": "3a5d0b0d0a4013c20eb86640d21f82d5faca5f597bf61de9ff41626dd9bd0b938af74b1a268a224f734644bf0df4f93c8f350663596ad6cc574e2c2047b42f38",
        "l10n\/sq.js": "045f34031e4ab42584b13d72bc562b15c9d7b6c5b774052476a388eb42ee2c46608d26f8787637905f68662620cf641a3f240802002fba178cefc153553ad039",
        "l10n\/sq.json": "37dcb0470ba9b896ea220b2a1f36c277b2dcd703e7fe42f3c7c17bc4e0928d9179ebdfac3b5f43fe1522adeb5d0794fd7d79024587a202923daee6f070343326",
        "l10n\/sr.js": "096525c73a70c758c34153926171ca7e861a3ea310f0097c6d62a5022bb6e517243e7d31d55b8928f9f0e7b35a6d7190246683c9351794ae53ae101236bb86bd",
        "l10n\/sr.json": "b493c8b29051a6ce976c696fddb63d1f098a7eb2e56444b92a3f0aa1eae474bf71e7437c4a7aa5522201e13439f2dbbe9e488e9b22a2187779179b927faeabc3",
        "l10n\/sr@latin.js": "b0f5d295d5f57bababcf30f785b5f3b08552149a18144dd2d80bab26b349c8e797fc3569d895c8557d4490fd1574f5c48471649a893cd7383e13ba38b45ee8a7",
        "l10n\/sr@latin.json": "9354625483d142368c13a8daff4f054cb8b9212e925c1313576aa5074b22e78fbfb377f2d9e80fe7864125e5b32ae3a165d5e2a9ea56e0974445d08c9331eee5",
        "l10n\/su.js": "d9ba6fb2a6bdc5a0436caaebb9266b124ea4fbac3de4e2e220b8ffbbbbc41aa9b0c92412627c185f2fdbee3150fd24a02545b5b8d20f25f04aa96a0cc1441e84",
        "l10n\/su.json": "6b0e3fcb5c2989890c2190d27d7d751c2c2d99f29019c017722a0f4155963e9a896e840d21cf3aa93d34a094150207a5def61b734d3e5f300f39055c20707bee",
        "l10n\/sv.js": "8f8ea59b8df07a414b84ebcd6c7cce85f315511f13898f2ae3c80a9d25c7a0035c0864d974de988c69f8202751388feacc6c4f09fbba0bd0742bbdd656509285",
        "l10n\/sv.json": "4cccd1a4003a9b07aa8d3b78fde1f4723894c3716de5a33dbb3993de8729e23d5e3358b6a45f3866ed8c0ea7ad15b98f02f400eb3f91686f13f841f4daa6e123",
        "l10n\/sw_KE.js": "a40954bb6233ea1f0171fb0b1c99fd8d011783f23bc6f9f4817c08a3a5df5d0f5113c2f3d7128534ec3bf4a0e723cedeedacbaecae1dfdecfd490ee6a24ba04f",
        "l10n\/sw_KE.json": "17bb226326509d39f8eae5b3e6d2d1ee21a82a1bc8d66d1177f261729097980f8a899133475837cb603377b8907019190225ef3b05f4dd3151aa25079e50e7b0",
        "l10n\/ta_IN.js": "19cd7da152c0b31091ddc4c8735babd22801983d72959d5f72756fd4e49b3b6ac6fe01886a983412c9eeb710db7a94eb0beb536ebf50e8c84ce3f361ac7d64c4",
        "l10n\/ta_IN.json": "aee480bb6ebb57a4fac8a77f8b57e71d47183eeb3a129462a36559ff8d1d3bb4aba0e93173898a04b3d9fe027d6c5caf566eea0a161f6d42bf840923d12ce644",
        "l10n\/ta_LK.js": "79b58b98d097245eb3109794efbabad778a11eabbf4e8e6b1cc39f2cb6a63b633404e56d728b513d5aa2dc954290a6c92f18c35c28ba47993196305cd7d194ba",
        "l10n\/ta_LK.json": "67d9cafa89ff977510b66885731b963c813e4fcb4b1bd059507e54548142f2821a2087a1d273ee605499639fe81258544891746e758dfe1cead405a81bc9bb0e",
        "l10n\/te.js": "639777327976a8e42c6b9fbd6788f8e62dea0214a2f7e93c10d7ed897e65229b355d0fb3b7f554d7a031d15c3e7435da0cd8a5c9cf6e3f2a592638a6b8375473",
        "l10n\/te.json": "78acf17322f562cdd5a18236ab0a2852527593339ea43b104e772ce9c4b672395010db128aa6d8bb5479cb6d9e07d4a271316239b8ab8678c37a1cfc28ba1876",
        "l10n\/tg_TJ.js": "a40954bb6233ea1f0171fb0b1c99fd8d011783f23bc6f9f4817c08a3a5df5d0f5113c2f3d7128534ec3bf4a0e723cedeedacbaecae1dfdecfd490ee6a24ba04f",
        "l10n\/tg_TJ.json": "17bb226326509d39f8eae5b3e6d2d1ee21a82a1bc8d66d1177f261729097980f8a899133475837cb603377b8907019190225ef3b05f4dd3151aa25079e50e7b0",
        "l10n\/th.js": "5891036cfe1df68c8db6aeb7e11588f2075b063ca06d377273d6549cd9514a0f0ea5456157906e7b70b3e48fa1741f974f9818697a8a1835840e696b50eb9983",
        "l10n\/th.json": "d2dd67e8ea402a8068f8bceec9642aea1eb32f9c730f3d767a227668805dcbc29400d6999ca570abde5e7a7fa904478131b461a181d84a1f3bc28614a21ee0c2",
        "l10n\/th_TH.js": "b96c9e55764bccfa6aebdac58f64d32a425e7cc95d9a388944025de491db5becc91102326055bcaf6112ef5ccf3bb5e37520e71402682b40995fd7c42d3532f4",
        "l10n\/th_TH.json": "ec0d6b2b14597b6758bd66056fb7e9bdf1a6444e00da5ba572e900bf895f21827086186647122a9272bf5f56c059b3e96b81f8a196b18310db4c88feca96e04e",
        "l10n\/tl_PH.js": "f7833f3cc41bf6f1bb322f862286f60f519857769070555353fd6f7a7883615605453bd4c481f6b5b0e11ecd7f14044df76329305e34cce5aa17fed9daba0c94",
        "l10n\/tl_PH.json": "2a46965641683a82e4d758a942990b1f43e6cc43c0643e1381d92e968daf554ba00fff3d11265405447d1d683f216ac1d2d75cc28b95dd495a39f0e1648efad9",
        "l10n\/tr.js": "ea6dda888bbb756533d172bc6d293b504b8bca31395598e49d531aad0b6c267db3f54d007bbe3da3dc17d5ca854f5ee40f9f48a9e7a2e16f1816d6f675711731",
        "l10n\/tr.json": "8b66c2746e7cfe654641d5ead1912257dc77ce89d3e6f6faed56e316e64e58c52d350fca2050a178e4ced0d1b8876681ad039697fd872f675d88dd46aeab1eaf",
        "l10n\/tzm.js": "833b356f081e4d4827c634bc9d8899a777fe85a2d914bb20112a9abee9d9484def19d140ffae8ae803e4dfb616a8bd0b5ce7d5d18de506f404904c93637b1d8c",
        "l10n\/tzm.json": "88293d49f3febd10e3696e5e2c849144800dd043aec301ba78f3a7bf991239af38ad4802a7e36e4145990f2db80136317975040bce0bed4026803fe75aa8ff81",
        "l10n\/ug.js": "bd630f671c77b46704eccfff4a59c3ff6d857000b8d6ffac0555e18b0ed352952328f6c2a7d568f74c4df6c7b18efcb43fb24149d3222c4ccfce56ee82ff83c4",
        "l10n\/ug.json": "0cb60fe5f18527a5f534949587f990aaf720205891ec449800cbe568b9bc6f1064e125da4e1dce07c679c0db0fad40347eabbab4020ed4f8416b3557fd7a488e",
        "l10n\/uk.js": "43ea2b2721e7b2227ed8a92fed85cb255b26419ed4777f84b17dfefbc522b79ca3c06106fe0c2a07c6e68eb244f16b18423f0e816a0953144e3f764d79293957",
        "l10n\/uk.json": "bda604ba4b5599619a282857eea62896296c02184a5e7a6b305bcc403d973d0b4ddc7b32368131a91b3e17f51fff30a57fe9edac18cce07f6742e8dfb9820ac5",
        "l10n\/ur_PK.js": "6551647175bcb05709c2bdf8b9588832ec4434000cabec4e29865c8016f85188ef961a9fdcb949e630ec3b846c4ccf0fd1458adc32d3db6a0d26f97a80b14d3b",
        "l10n\/ur_PK.json": "861f2d407ecc0b80ff3624049547d74d278fc5e22df752981ed62be0cba8e4172c9b5f6cb5febf51a0029d6da1b4dfa0c53c5990d18594f39495b0cee13cd39f",
        "l10n\/vi.js": "d38d3904a8d7eaa6d830d46eb36767e41400b8ed51664a3b5d89f27e5a202e8b62dfd262913b1327bdba1d34741b0e6a2f3e5ef503f78544397ce0abd95ccf2c",
        "l10n\/vi.json": "05ed8d08ab7c3eb46e4df402a57d86ce40315f06c9232ee8006d48b175ddbd172fddf366ca2f5dd69501dd88c2bc048e5c23c79aaade7d4e37077a87c36a8a23",
        "l10n\/xgettextfiles": "822f50b4b5a608aee17c95e5db400db4288ad08a555f32d55903001bf0ebf910f83571718071dfe4476f5d35fddb360254fea1c3d4bd2d98e59bde7220242793",
        "l10n\/zh_CN.js": "d376ae8bd404c39aaa6c03d0ca30268e0e3b3cb691ed15c55f4a76f2b990e7d591e5059c58a21b5e382eeac683f0c2e86e992ff5e5b8e686a28860826cb3b7b4",
        "l10n\/zh_CN.json": "8d1e6702db97261982430781d87ba230578564eb7f69f9f962c6f508b5a9347c27b8fc777a15c608bd1556d42dd8d98303727d5fa71ecfed1cf7399a2118dde5",
        "l10n\/zh_HK.js": "215ce1b33247013fc3301663b5aadc30fd15da4a7ba51c1e35eeacb879a4da6f0866d7ba538d5ff17ad70bcb2218a8bf9ee4cc311c3f79a71bddcaa4185c8290",
        "l10n\/zh_HK.json": "74994b12d002b01936f0228ae5773d506a4f34458899ab9227baa8454d49bcf1d24ffc769ef9bcf23d4f0f67c820128db00a7436b91b0ceb1c72966ce07350a0",
        "l10n\/zh_TW.js": "51c32f6645f58c55d5222788115d896b4ec739941af2c3bec86d83f659a5cd01f04faff8b1512279fa5d9b3156cc5622684189e8cd3fb332cad9ab91c377cd8c",
        "l10n\/zh_TW.json": "849193d52c83ac75d1aaafdcda604c98df340f033954022e0ff801e6a24690ec1186bdea390fad87e621607ddef655851e490438ab2fa0172db1c235048eb84a",
        "lib\/Activity\/FavoriteProvider.php": "010182bbd690be53bfbcdaf7b93eae087ff9f15219eb85c07caf74a7d48ff9a0b6b552dd2066cb5a2d43575148ecb1ce9b67ad7d118d9a251a523170b139af16",
        "lib\/Activity\/Filter\/Favorites.php": "71a14b569f9bb5b35e5ae1370cb21bcbd6c4ba085e01863f2934a2abaf11ff18ff14ec560a2fadc95e840919de9a16fe6c1a7560f2dab80d0eaad89b7049f6bd",
        "lib\/Activity\/Filter\/FileChanges.php": "46ea987c7d44732ed07775a70ec231ff3a9ad24c6143b70042d8de5e884e07b1ba0494d45cfe5949bbf4d695d1e88216fabad8a06dae27483508197df35dd0b0",
        "lib\/Activity\/Helper.php": "b289e53a693abec2c10ff841145fa97b99bec581cfb498a25b5bbd91ec09a55b28048ace387c25239eb630179580966cf84d997656660f619abb69b19d27f067",
        "lib\/Activity\/Provider.php": "b10843a279b6ea49113ba07c0b61c0b5c9f51b63fd8d108da865898bb91f9204ae0ce88711f1c1960d110e58b565b3d24909b4c74036e57561ab9c16531c5cac",
        "lib\/Activity\/Settings\/FavoriteAction.php": "503e5c061857eab327b6e728915e016a775883c0ac8d1449307f13f28650d9dd306a8e41acd92c3607e41820185ac9270bc66667980169082ffb072d4b880801",
        "lib\/Activity\/Settings\/FileActivitySettings.php": "6fbe53f8696bcf76fd3ac77a2944bb94282756030565f14370b1b868555434b8317ac189d81eb67952a9e939bb0ce923f8b8a137471f68bd98abcbd0420b9246",
        "lib\/Activity\/Settings\/FileChanged.php": "923a95ca34efeeedd48d1046b51788f2cd885d7212126dfde1e4bc7d92896f8c9913230840148c9e7f715283efbcebe15a28692f921dc927ecf20270acede675",
        "lib\/Activity\/Settings\/FileFavoriteChanged.php": "7f8c4c3c26e0d1fb77d6b868e19c771a635c6fbf1a5f57d2741de7e6e34af8e7a23c667060907a771b9887fe149429baec81f08176b44b4bf56e08014f997e11",
        "lib\/App.php": "c3d0b2ae78c718de116f10b5e4f5d7d0e8c3922f744fbfc1a403ec8d074de8596e7e85d946a09bbd2ad103a98e35a6c45c9f3aa52c9dae82e7838c1a2bd0e81b",
        "lib\/AppInfo\/Application.php": "65f82a65c7c7cde1146fe726d429f2424ce221ace5f44e19b9445600f01d36207bd961b5da5a21ac9dda4fee075929ef9652cab363a03b767e6dec1ad901f2c4",
        "lib\/BackgroundJob\/CleanupDirectEditingTokens.php": "f07eb9035e242dd2cbf778b965f9387755a4c9aee1ba4ef45b8ef22d9a25a637007c8589f08e33ba57f09843cea3380ac37ca441e4aa8a56b86bb1d20bbb2ba8",
        "lib\/BackgroundJob\/CleanupFileLocks.php": "d7a46bea58358a36131de4839875c45a4bb474d314edac58f80ff81b73bf769e8700646c294d448bc7f55a4684aa2b26e89042d4c8efa39f332217b10fadad77",
        "lib\/BackgroundJob\/DeleteOrphanedItems.php": "c6d07f0925d0753606842f23622e479ac7d01ced7a33e3acc443743f140006f048189c2d46ed2285e6aa52545cda4b76b16410dd1b0ea9806ccca4607bd360b5",
        "lib\/BackgroundJob\/ScanFiles.php": "8d2d14b769069b1f994d9027cffec5d65213883c91646c1f2765f50aa1201bbd4e62eee78b50a24d6e720d5b5c7b9c387d6fb48ee8941993722830befe945607",
        "lib\/BackgroundJob\/TransferOwnership.php": "d3ef97c9e15f0dfdd7d7e3366b3cb4ae552cbfc1fed4d4a3eaff2ed76cbf5a10be8b550613a07f7b22c3816f09c0561f464dd98dbf0d1ed7ed4a745eb105f649",
        "lib\/Capabilities.php": "445c2d309e7e7b209e247f6a088a6e54a49b567d68f55af99270df5e9aebc7134eccb2b755d920081db23d81b9a70c7864f4fe15a380855aec99656bfa1e7448",
        "lib\/Collaboration\/Resources\/Listener.php": "8d9d44ab74a8caec0b7d17ac5903f20e3c48aa08528c01016aa00116aa676f44b0f60d68463a9726e68c3c99728e60c7bfeb5db27e6bbfcb2453b067eb227cac",
        "lib\/Collaboration\/Resources\/ResourceProvider.php": "6111040e288790aea5e757d84719cf5a830a62ab8c693a9565be97225f0d65fcccd0b183c3c99d7622312a72a921a2d9d98871cf95802a6026f7e887bfee414c",
        "lib\/Command\/DeleteOrphanedFiles.php": "692fa90a28e9ab5cebe3fc1101bcefb3f33bacbb9be5b1c24ab917f72f142c5fa8f394be81a2700e472074215966f5e1efc9fb3ef664cf484c491b51f3a763e9",
        "lib\/Command\/RepairTree.php": "996999a078d88204c365adc8ba0aa78bae605243cf57bfc71086cb7420d9ee309c70f6ffb3149a1ff3eb603e4278c53f9d629689e92ec6e7d52b97e1a9603ff6",
        "lib\/Command\/Scan.php": "7442cb52660aad12437ce8dc2da139b3e1c77ab01e8d0aaf26540fee8195b4fe69e5b5384cc01ac5deefae9611156f8d1c87448de67df059e762cab144c7596a",
        "lib\/Command\/ScanAppData.php": "992a7726a2eaffc28964a02ba9cfce6a64714049089ffed0e81f2669ef5050f2bdbd70885d893d742ba75c3d7491d0b6a13825bcc7ae953b0820fa4a8b366079",
        "lib\/Command\/TransferOwnership.php": "d6de34257363fcfa97d19e248669e243bb89756ad0a9db35597ba16ef733b540279ec060fbd012665a78d4f8ef33fa44a332790d5954af3431e52149c6684e0d",
        "lib\/Controller\/AjaxController.php": "04a3c5a8c68a754b20aecd9996bf736736205af3381e2596a83f4397a378ad1ca5fff7c57e7065a5d0966cec52d885da39ff08fda2997df038c2003435077cc5",
        "lib\/Controller\/ApiController.php": "e519bc12ab45561e776fb89acc4dbe3947c8db2737348a3ba8a039aa7c7d70fc50fd489252b1aaf2f0d90bc3fedc86e5752c851d7d54803aea0dd99a3e8f1bd7",
        "lib\/Controller\/DirectEditingController.php": "d553cd13920ae2161fa66a7e3b8ed78c82716aefeac81efe1776f70fa8726545b8f094b8e155ed47800a1657976ac4157274417fe842730ca9c5d06cd3919e5e",
        "lib\/Controller\/DirectEditingViewController.php": "0e3a11b1841c36cf3922791359cfe93636118848c879a07dfed4fa351944ad052690c1b31e7eaebc6028cff2b092479bfc53b46bd34962a53d5396f84ee60c7d",
        "lib\/Controller\/TemplateController.php": "5c6c18cc40f76a8c5c514c3f4c7d71be2117a902b8ce1eddf071433ae62ecd126276dbd2af0cdb5dc7aa4504e766338f2568c805e1a9972428950933671c7b95",
        "lib\/Controller\/TransferOwnershipController.php": "8bd5bfe70ddecd6777e29402a0712c20a9b8ba4c8c5f99e4a536524dbf443e94726578b263df7d7e400d554b784f31ed2878662be98060e680bd92448050fdb7",
        "lib\/Controller\/ViewController.php": "6057f7d6121a02fd10530cee1f3638bf245f06df244bb4810c990ce675f72f2630388f10389372854024f2a09bd42e4c2bef911a79929322ff19cbb312f62021",
        "lib\/Db\/TransferOwnership.php": "b8c4099ee353461e3e16f4f1ca75250280390ebe10cad9a995e2254992a532d09cf2e2a1a9e12e69cf59b3c1542663f41174b6b30a50671fc8d54a7fa2908e8f",
        "lib\/Db\/TransferOwnershipMapper.php": "9933c79fdd957b76a00f1bf9d1af3507734b8f3f6d583df2509244c9e5923570e40cd9427e0da487f83b40e113480b3c6645d3b9b1425d20020e1a204e01c460",
        "lib\/Event\/LoadAdditionalScriptsEvent.php": "fb8899931587da1e292097b1b5b68791a2e0a0da0c33c6013e782b7547cbf262418664d495fdaa03de0199f41dd0c33d046d3c6ee3e6360c55617f2c08cbe0d9",
        "lib\/Event\/LoadSidebar.php": "f546cb8c37f6145c6ae01a5056dd67000cca2a3fccebaac17a33d3460f3a3e838e9abf5fb2a66d3731401836f9be77a830680d1becbdafe5b704a2d95e1fa388",
        "lib\/Exception\/TransferOwnershipException.php": "0611a8a9841f9cce429387968d134accc27c070b4bdfc4295ea544a77a71ebe31e7026e96bb0dc87010ec9d6aaaa9186c079f606fff8444025b578571d28976e",
        "lib\/Helper.php": "62bb969d96745fe4b1c64011203cc978361cba8efe457dfbb10cd9bd743290ee120ea9ab981b1699b4b5c6ebf1501c9032ba76f38485ede1f6754e9fb3e4420d",
        "lib\/Listener\/LegacyLoadAdditionalScriptsAdapter.php": "40e8d9815c68593c874a1937a12759559411bef0c4085d7cf045ae51533f4ee19b4f2abf389c0acdb9a066d153011cadeb9cc3d5e904e4edd537205a878a86af",
        "lib\/Listener\/LoadSidebarListener.php": "a4ebcc18aeb267c5bc221f247e2427b16a535e7ba867edf0d47ce8da3b44e83e16731eee631b4bda152523af62b19204554f225376941554939f5272667ac64f",
        "lib\/Migration\/Version11301Date20191205150729.php": "69fb375582284ce705eef03009b447577819cdb6a3541435a4bf3d48062daeaf194271ea56eb622a596842d853673a988908fbc6b31f5b77c1bb946b9276afb0",
        "lib\/Notification\/Notifier.php": "b86c86134e2d32d0b5bdf67d991886e7198ca8d2410e42433227c029dd0e11cf8afca563ab4413db2db2ab2c83acec73f0030150b1287602c0cac039a204fe5b",
        "lib\/Search\/FilesSearchProvider.php": "83f6c6fdb2ce9e71f7590a2ede348ff48b960760a84e43eb8fbbb7d3c3d3d75e81642d1f72c81f28168b4e39143d6c7c52047aae14734332624a6f5f6cd5a907",
        "lib\/Service\/DirectEditingService.php": "af2523df038344a07827d6fc35830ac67a4bea81d63962b5e5db58a5922059da0e2abd1a728053f890d7f244ba42110e4ad8445f3f67cea4ee4edae6b30380a0",
        "lib\/Service\/OwnershipTransferService.php": "c1fbc35691b31765fe7c1b7597502093c38a9392837bf8389b92cdccae34e46a8fa9e55a3e1e722d2063045276a11cf5d7faec98693b541512e440cee9d9ad89",
        "lib\/Service\/TagService.php": "bda6948a298ed89212a93dbb9564d61e6cf72619979ded51fe7285b903da4c88030e0ee982cf1e912cf960eb9b10a6adc1b2cf7ce7d524eb50f41b8cb5f52b63",
        "lib\/Settings\/PersonalSettings.php": "c862ccdc6de7bcc4a44b9c3541c9f817ab3c0e9011409bfa2a0a21cd18e0853648219918c145e007c1359b5a8a2a5401d5843c8a1d5bf31ab7126f082f2379b2",
        "list.php": "a6218f56fdd4607d1fac9969dab6101b681c8bb43a65d52f7a57a4b29d7756d5f1bc3eb096982bdaccfd92c30f0324b3e904bc7a8b55b16aa1a59ab6c807b1dc",
        "recentlist.php": "7f821080bedf52184786e1e5d6c133dca359085fb7500d21f868252a12c350eb78bffc7326a2cd6db88e579cd4b96542f97d7bd9c7eb69cb056eec0c83673a90",
        "simplelist.php": "1e7872de42af88aa37a090c3e9f5f4d1e64eea15bc9fa0fe1b3c426613a15f20873f3e1a03a3054138e8c991a5f981e87153b88f5cb197f4282ab390b80869f4",
        "templates\/appnavigation.php": "e990deb0d5eefc7c66bf8fa7b550268f331bb3023b6132be8e89d19d2ce1e2e9eb42e99f9725be617a2864e935b133480c70809d6aad69d78f468fcae48324d4",
        "templates\/fileexists.html": "e39f438d54b86c0b9b5bdf5a167ab41564348cd12d47303371d68671d588d0202d6648423d46d351597fe763afd3833879fab49212135b45c79892e1eecedde1",
        "templates\/index.php": "c274352e1add9990cc506115afba0cf6ea7d0423a829279808bcbb836490216ef270c43a16dd152cdc1d7e5a55c6ff555d8e67992dc3970c275b2fc87d08864f",
        "templates\/list.php": "7fe9b87eeed7df3664b1f8f9be35b38d79a5eaf5a2094ef311bbd7fc59d0105c4dec919e719867bec25a6f9157f0f81155c24adf6f1f749bbc63cebad9eb479c",
        "templates\/recentlist.php": "d4c60109eb09f898803989aa28ab8a524b1cc919b9ae61e78d515a00adabd10e502da69fc3dd6bd34220d581252647322c17c781cf433907a82878b235e4c69c",
        "templates\/settings-personal.php": "ade01638353554a2e4b262f0236fed40596e8721cb414a49bfe9ec702f31aae8507c62eb94a7c24c63edc06eb3ac708a957081aaa5af6439228a294113df3519",
        "templates\/simplelist.php": "3e6d9ef94d84fba24fc1788150438652bac37f9e5a90c0bd8a44074929354a71e437ec308501018ed74092b136623a69cc43e0871e9897c58fabbb3ccad83aa7"
    },
    "signature": "T58a8XM6Q3WYdmRh7VlwFfjeiDqykZjKyGnvZ1gmVeXNZ1A1jIkvjyVFdgLMSIlz0zys4P4ttF2Y94oTq0oR7kpzp0cumoNZo2ihc6cvR91PNKYw7KjIi+Qr1LXo3vDnznfLNIAxMmvraoYCfSfCb9G4PLUqbrHo0DBJ\/Gpi5eS9E7OfRWT8X4luDipr8hwgWqcyIMwHnL4z8wC7oxV\/HbfzHaUSxjaiHrS5qD\/TodvVJVZDrpdNa5QRp9eLUkOBSBD5JWouy8BSl\/8C74hpShn5fJzTOydw2YRPgSOJpblp316CBvvZcjk\/4lnwm50DYO9gMCbPu7aCca6TJ\/L6pA==",
    "certificate": "-----BEGIN CERTIFICATE-----\r\nMIIEojCCA4qgAwIBAgICEAAwDQYJKoZIhvcNAQELBQAwezELMAkGA1UEBhMCREUx\r\nGzAZBgNVBAgMEkJhZGVuLVd1ZXJ0dGVtYmVyZzEXMBUGA1UECgwOTmV4dGNsb3Vk\r\nIEdtYkgxNjA0BgNVBAMMLU5leHRjbG91ZCBDb2RlIFNpZ25pbmcgSW50ZXJtZWRp\r\nYXRlIEF1dGhvcml0eTAeFw0xNjA2MTIyMTA1MDZaFw00MTA2MDYyMTA1MDZaMGYx\r\nCzAJBgNVBAYTAkRFMRswGQYDVQQIDBJCYWRlbi1XdWVydHRlbWJlcmcxEjAQBgNV\r\nBAcMCVN0dXR0Z2FydDEXMBUGA1UECgwOTmV4dGNsb3VkIEdtYkgxDTALBgNVBAMM\r\nBGNvcmUwggEiMA0GCSqGSIb3DQEBAQUAA4IBDwAwggEKAoIBAQDUxcrn2DC892IX\r\n8+dJjZVh9YeHF65n2ha886oeAizOuHBdWBfzqt+GoUYTOjqZF93HZMcwy0P+xyCf\r\nQqak5Ke9dybN06RXUuGP45k9UYBp03qzlUzCDalrkj+Jd30LqcSC1sjRTsfuhc+u\r\nvH1IBuBnf7SMUJUcoEffbmmpAPlEcLHxlUGlGnz0q1e8UFzjbEFj3JucMO4ys35F\r\nqZS4dhvCngQhRW3DaMlQLXEUL9k3kFV+BzlkPzVZEtSmk4HJujFCnZj1vMcjQBg\/\r\nBqq1HCmUB6tulnGcxUzt\/Z\/oSIgnuGyENeke077W3EyryINL7EIyD4Xp7sxLizTM\r\nFCFCjjH1AgMBAAGjggFDMIIBPzAJBgNVHRMEAjAAMBEGCWCGSAGG+EIBAQQEAwIG\r\nQDAzBglghkgBhvhCAQ0EJhYkT3BlblNTTCBHZW5lcmF0ZWQgU2VydmVyIENlcnRp\r\nZmljYXRlMB0GA1UdDgQWBBQwc1H9AL8pRlW2e5SLCfPPqtqc0DCBpQYDVR0jBIGd\r\nMIGagBRt6m6qqTcsPIktFz79Ru7DnnjtdKF+pHwwejELMAkGA1UEBhMCREUxGzAZ\r\nBgNVBAgMEkJhZGVuLVd1ZXJ0dGVtYmVyZzESMBAGA1UEBwwJU3R1dHRnYXJ0MRcw\r\nFQYDVQQKDA5OZXh0Y2xvdWQgR21iSDEhMB8GA1UEAwwYTmV4dGNsb3VkIFJvb3Qg\r\nQXV0aG9yaXR5ggIQADAOBgNVHQ8BAf8EBAMCBaAwEwYDVR0lBAwwCgYIKwYBBQUH\r\nAwEwDQYJKoZIhvcNAQELBQADggEBADZ6+HV\/+0NEH3nahTBFxO6nKyR\/VWigACH0\r\nnaV0ecTcoQwDjKDNNFr+4S1WlHdwITlnNabC7v9rZ\/6QvbkrOTuO9fOR6azp1EwW\r\n2pixWqj0Sb9\/dSIVRpSq+jpBE6JAiX44dSR7zoBxRB8DgVO2Afy0s80xEpr5JAzb\r\nNYuPS7M5UHdAv2dr16fDcDIvn+vk92KpNh1NTeZFjBbRVQ9DXrgkRGW34TK8uSLI\r\nYG6jnfJ6eJgTaO431ywWPXNg1mUMaT\/+QBOgB299QVCKQU+lcZWptQt+RdsJUm46\r\nNY\/nARy4Oi4uOe88SuWITj9KhrFmEvrUlgM8FvoXA1ldrR7KiEg=\r\n-----END CERTIFICATE-----"
}