{
    "hashes": {
        "appinfo\/info.xml": "478d83fb226cd70b464e5daab9ed775d168be647d479ef1a16346c53b54b6e29b0670e7c23683d4787af0324aa31279ee3f3ffe12ea06a36e9a3e9998a77cde2",
        "composer\/autoload.php": "0e302c5d04f451277c9453f93a8bda0e3fb3e59f0fd654b3636260fdd55ca5c7152bc6f11acac278b5a8c16a17e21306fee666909d7cd27fe1397978b08a8e51",
        "composer\/composer.json": "16844b716bb9c120ada37ea89d23bbba40d6b661edf8365d3998b5f120609f522e53b4d0aad334e0329ddd93904273bd71a9581302d47b02a6da9c2a91d39148",
        "composer\/composer.lock": "aba0413aa705be0d0570c496a43249c551836824e7a2b4673b51838fe0d9f425ddd07b6c4b95aa74ca549f58e90f2a7d78b51a2a3080749a5dc2e4a46d04fd1e",
        "composer\/composer\/ClassLoader.php": "3755be4d1c0303467ba081af7a82346e47dd178c90622197df41eb2b9b5cabdc6899d399776c16016309765c30acc269aa6873e61865a2cfd276017f2f0cbb82",
        "composer\/composer\/InstalledVersions.php": "f6450ce4d537899d48a9608fa4c3c8f852e5820554af2c0534639a33a1c551caaf67901493aec5617a48ba8b425fdc8cbb4ff18f6ae72cb5766caa2d2949fa33",
        "composer\/composer\/LICENSE": "f3bb64009f41a425df5a9bbab53490f0eb9b74fa8d6aaa2f57efb928edc4ffff330260666edeaa04a91fed708c3663371cf01b284f3a08d6698aaef7a23f355a",
        "composer\/composer\/autoload_classmap.php": "a05703ccab16b2d1b1b60267a2af086c8e9167d460297e679e4f4b37b57288ba7981b9658c3aec8827c572424a37f2ff53b94e70f6308382e6c9bd24cb48c231",
        "composer\/composer\/autoload_namespaces.php": "dd8ee31d2faa9014fe567e1f954b5e7f450cf06feacbb96d4df663c59b1a36a0b7d26ad41b46354bd14f282fa7899298137208d1851099cd3ada285650efd90f",
        "composer\/composer\/autoload_psr4.php": "43b4d5f2f84a1e4636d15d0aaae015f27b2041eb337180296ac5ac04384e410e62230ac722596f3fb37c41da53a0a61dfbe99395802390b7af6876db07e992a1",
        "composer\/composer\/autoload_real.php": "4577a1dff419bb995c7e3dee3d7e50cfbc6ca44116cc455174a14109d9f4b1bb6ba1e87aff6d9c9f78c5ce75636e733a9a336d342acf7deb22e3317ea533697d",
        "composer\/composer\/autoload_static.php": "75214791bb574fdba2fc1445cf573e995772b362b6a0a95a8fccce0314afab53f386daf40f35bad34ac104fc61a0637f88680ab823713553be937162e9251553",
        "composer\/composer\/installed.json": "0a3ed51f953eb945b970a8eb21957ca2beee4669c7d0d9be97b8259c391b60688f8abb78d4b1fae5e4e2ea5e3d8747f4d35f066a2605e9a76f5b45ec3f1da357",
        "composer\/composer\/installed.php": "d7308a2e4cd5847362223b458441fbf3b2b839a8221ad182d97d6f34ec00746bfc5cc4ae1b5297f84dd0a4e32b5494581f8b001e626275e0886cd3306ad8b768",
        "css\/settings-admin.css": "6b0d748f7614af7996ee2a81512533e52fdf97b0d2c7184fa093de88288b8d9fbc74361d81606e1f7640f4a533f4a4fa7cef93bfc985e046a513ed99bb6396ec",
        "img\/app.svg": "6be3b26d3518b8d854011dbb2b2d4289d241d2857b619ce93d99df9d122e7233b3e574c8cc22836a9438ddb7ca3d33facb3751e13d5e2782ae069b5744432e5f",
        "js\/settings-admin.js": "2242c0a9539a28fe2ac03b646c8b0690b24b198d8f961802e433b8a7427dd6594943bf6dded6b575de976579622a805a4cfb11a4259c733bedfbe95a4e3ac0b8",
        "l10n\/ast.js": "83fe38dea5f2ef177729d75f3368034e1a3c05f78b6cd1e4dd4d6da547d8e2c6efa7213f6dcd4c478e573370094c5b8573322402df36d272b1bd86eeb0054613",
        "l10n\/ast.json": "a01c5b9cbe73c6af7e3c253a424e8b831640e389187f0ff5a82cf5704b85adc8faa33394ad512e57ca7b0f5ce04f8dedb24fc9c964f30149accf1b5985110336",
        "l10n\/ca.js": "52ec94ddcc6a597985649e2877d1f8dbb39fc4cd609f4ff653eeee948926def2ea2deced69ae08637c03486bf61d68284d7778bafe364de18bc1a3b310aab6b0",
        "l10n\/ca.json": "b4385903ed2e97fadc2375639acd2ed449b80000b99a179da7fd3d4160a675a4970365836d7762bfacbd13c0fafb20a73660ce73d2a9d1c22d6c13a288ec9be2",
        "l10n\/cs.js": "a6c7530ec0697b4b3ed4ba8748ad6e47771de24c08a0808bbf1e187f45ebea4a459206730156119dda119b7f5316e83633d941cf61487c6787e849abd0b3d0fb",
        "l10n\/cs.json": "40bf2e8cdf3cc0d3b17ea73f974356b1dd1686194bf774c49a09807c59fdd9c53b55f1fb1819652807e9c7c8d68ba72e18d2e245235baf6e8428de8a7577de12",
        "l10n\/cs_CZ.js": "150e553343558f50beb0bfd5252f0446f54aa3cfbc5f28e0f9096ee870047d482e1073882552988839ab4c19d8257a39acd99359fef69de4982af6330dc2046f",
        "l10n\/cs_CZ.json": "abf1b9547278da84099b570d6728a023a1c4527001cee183eeed57fe501edcf4c11b7467f18c8fe912016c5f41ba68e06efb67a83fc396f35ef520fab2a56267",
        "l10n\/da.js": "3513c46531f6a0867c7e4e3083e39f27d8eccdfecf649919eacf3c7520c1fc143db68e9e30eadeba0ea1b873aa404146e8dfe5f570fd92a4049570d9ce5f247a",
        "l10n\/da.json": "d4938f03b6138e92f753d61b0ecf270c047f23036c695d3e6aeaf53e2c52854bc98b5c77809df09067bb6b962bd80aae03c17dd52ce3b55f26c820c36632e83f",
        "l10n\/de.js": "83752e7c578056321a1067e3da17bf0bb61b5a91d8a41fe3837413cefac4ea3143f7dcf50ba500b3de8297af342f7075a3ba2be1073cf8191a239ea6fd772e58",
        "l10n\/de.json": "f76ba2584a7c7058739cb039256953c386a49906ff5293e64810978f7b55783f2462ed496339610ed09dd0700c5252ff20f3e25cbcd3a446dc5d06474c9c6db9",
        "l10n\/de_DE.js": "b745243f6b40a1a95db0d05ffca7afbf6c31b3c1504665679d7da09508886b5d6f3024372b1bbd827c2c10ca87af6fb3c3684e2fd50e1f32cfeaad2367f62b59",
        "l10n\/de_DE.json": "be049c05891560202720c2f9e9db84dc1ce9d4ad830f5f06ae2494c193210803d39586769b64013d1034a77e29258a7f1fdee93fe9051e4b6bdb6690716c3e5d",
        "l10n\/el.js": "62258d9ba9e134fc051f17f50b86c506062804912122706b791917ab9a9f856e50a8185772cee7aa59c9e091fb4249c8efe7a4d3e675b09302fef1755fe27a07",
        "l10n\/el.json": "6a680742257f95ec9dc59c8c3c220e4076a860f10d2d07292bd9c6786d8fa02738cb56dc439b06f72066451ee21ed7f42b50b7fdb792f1521fa701b0f64b4ff2",
        "l10n\/en_GB.js": "06d68bce3da51943aef288de46e9e56f3e1c92c8ce6c79a35a326dbbd7d24d6b9c753d5b6b958b07378537312de8b9b1838e889d65c65e3c217cba07b70a2a92",
        "l10n\/en_GB.json": "d0a66b51ed6bae1c6262757e594687a3760622d2b9269c3837fb73cb417f90a76313606649a71308effdcee2ab8ce71461606d239aa8f447be880df895c93c84",
        "l10n\/es.js": "269e025d2ac9a627cfd1f79b47465fbd0e8a604d2bc3f99246acda2f8ac0f73c3d4d38759cad1228a896e71537c454d5654baf89c78e491fbf4b1a8a4a8438b1",
        "l10n\/es.json": "5f53ac63193e5630b5a293484a250758ea38e1edc2b45e21e1326cf7eb7330884cefa21bcf8906834d519d8cb458cd5516b934f93486239942f8bd4a5748e8fb",
        "l10n\/es_419.js": "741d433e7b269ce971113736c4a02252b7716f3772d36798eb80bb6cb82cc8c56905224613ccff04f786974312be103af20b86340620ee0508ce6a06994ce610",
        "l10n\/es_419.json": "844b329c93cbff6118b716d8fb899cf2b8bb67832ad4053ab24b3110776f38d442812b9e4fede8fddd58b7726f97de24536bcbbdc36078d0fc4057118b9c5c9f",
        "l10n\/es_AR.js": "d05a3d0eae54491821caa7c244a7ccd2302e9a23396f295375556773319c0728b3033e5bf35364b68569141b03c8a02f0ab7a1d5472f3d223079b378b3854dd1",
        "l10n\/es_AR.json": "114f154ed554813543908132302e5a23b126258a3324b0a792f745bf8d07ff75d4dc4c9efe7706111da2e747790154883d3052cfdc9eab5844be9f97d9a67f05",
        "l10n\/es_CL.js": "741d433e7b269ce971113736c4a02252b7716f3772d36798eb80bb6cb82cc8c56905224613ccff04f786974312be103af20b86340620ee0508ce6a06994ce610",
        "l10n\/es_CL.json": "844b329c93cbff6118b716d8fb899cf2b8bb67832ad4053ab24b3110776f38d442812b9e4fede8fddd58b7726f97de24536bcbbdc36078d0fc4057118b9c5c9f",
        "l10n\/es_CO.js": "741d433e7b269ce971113736c4a02252b7716f3772d36798eb80bb6cb82cc8c56905224613ccff04f786974312be103af20b86340620ee0508ce6a06994ce610",
        "l10n\/es_CO.json": "844b329c93cbff6118b716d8fb899cf2b8bb67832ad4053ab24b3110776f38d442812b9e4fede8fddd58b7726f97de24536bcbbdc36078d0fc4057118b9c5c9f",
        "l10n\/es_CR.js": "741d433e7b269ce971113736c4a02252b7716f3772d36798eb80bb6cb82cc8c56905224613ccff04f786974312be103af20b86340620ee0508ce6a06994ce610",
        "l10n\/es_CR.json": "844b329c93cbff6118b716d8fb899cf2b8bb67832ad4053ab24b3110776f38d442812b9e4fede8fddd58b7726f97de24536bcbbdc36078d0fc4057118b9c5c9f",
        "l10n\/es_DO.js": "741d433e7b269ce971113736c4a02252b7716f3772d36798eb80bb6cb82cc8c56905224613ccff04f786974312be103af20b86340620ee0508ce6a06994ce610",
        "l10n\/es_DO.json": "844b329c93cbff6118b716d8fb899cf2b8bb67832ad4053ab24b3110776f38d442812b9e4fede8fddd58b7726f97de24536bcbbdc36078d0fc4057118b9c5c9f",
        "l10n\/es_EC.js": "741d433e7b269ce971113736c4a02252b7716f3772d36798eb80bb6cb82cc8c56905224613ccff04f786974312be103af20b86340620ee0508ce6a06994ce610",
        "l10n\/es_EC.json": "844b329c93cbff6118b716d8fb899cf2b8bb67832ad4053ab24b3110776f38d442812b9e4fede8fddd58b7726f97de24536bcbbdc36078d0fc4057118b9c5c9f",
        "l10n\/es_GT.js": "741d433e7b269ce971113736c4a02252b7716f3772d36798eb80bb6cb82cc8c56905224613ccff04f786974312be103af20b86340620ee0508ce6a06994ce610",
        "l10n\/es_GT.json": "844b329c93cbff6118b716d8fb899cf2b8bb67832ad4053ab24b3110776f38d442812b9e4fede8fddd58b7726f97de24536bcbbdc36078d0fc4057118b9c5c9f",
        "l10n\/es_HN.js": "741d433e7b269ce971113736c4a02252b7716f3772d36798eb80bb6cb82cc8c56905224613ccff04f786974312be103af20b86340620ee0508ce6a06994ce610",
        "l10n\/es_HN.json": "844b329c93cbff6118b716d8fb899cf2b8bb67832ad4053ab24b3110776f38d442812b9e4fede8fddd58b7726f97de24536bcbbdc36078d0fc4057118b9c5c9f",
        "l10n\/es_MX.js": "099798db6b7879ef0ee6af2d19597cb74e85ea323173f9d6bd261a2d7a3c3eb3b9ace2e0323d74c3a7429d2ba596c76f88b84b496be3963bf8da53b03973c3bf",
        "l10n\/es_MX.json": "8c197c699df22b940d5a891b25c471947bf8ddaa738f73ac9f63055055a3bf338d4d56e0f376353126329ad7e601256c654d51db0ec433de886f272962cc2ad9",
        "l10n\/es_NI.js": "741d433e7b269ce971113736c4a02252b7716f3772d36798eb80bb6cb82cc8c56905224613ccff04f786974312be103af20b86340620ee0508ce6a06994ce610",
        "l10n\/es_NI.json": "844b329c93cbff6118b716d8fb899cf2b8bb67832ad4053ab24b3110776f38d442812b9e4fede8fddd58b7726f97de24536bcbbdc36078d0fc4057118b9c5c9f",
        "l10n\/es_PA.js": "741d433e7b269ce971113736c4a02252b7716f3772d36798eb80bb6cb82cc8c56905224613ccff04f786974312be103af20b86340620ee0508ce6a06994ce610",
        "l10n\/es_PA.json": "844b329c93cbff6118b716d8fb899cf2b8bb67832ad4053ab24b3110776f38d442812b9e4fede8fddd58b7726f97de24536bcbbdc36078d0fc4057118b9c5c9f",
        "l10n\/es_PE.js": "741d433e7b269ce971113736c4a02252b7716f3772d36798eb80bb6cb82cc8c56905224613ccff04f786974312be103af20b86340620ee0508ce6a06994ce610",
        "l10n\/es_PE.json": "844b329c93cbff6118b716d8fb899cf2b8bb67832ad4053ab24b3110776f38d442812b9e4fede8fddd58b7726f97de24536bcbbdc36078d0fc4057118b9c5c9f",
        "l10n\/es_PR.js": "741d433e7b269ce971113736c4a02252b7716f3772d36798eb80bb6cb82cc8c56905224613ccff04f786974312be103af20b86340620ee0508ce6a06994ce610",
        "l10n\/es_PR.json": "844b329c93cbff6118b716d8fb899cf2b8bb67832ad4053ab24b3110776f38d442812b9e4fede8fddd58b7726f97de24536bcbbdc36078d0fc4057118b9c5c9f",
        "l10n\/es_PY.js": "741d433e7b269ce971113736c4a02252b7716f3772d36798eb80bb6cb82cc8c56905224613ccff04f786974312be103af20b86340620ee0508ce6a06994ce610",
        "l10n\/es_PY.json": "844b329c93cbff6118b716d8fb899cf2b8bb67832ad4053ab24b3110776f38d442812b9e4fede8fddd58b7726f97de24536bcbbdc36078d0fc4057118b9c5c9f",
        "l10n\/es_SV.js": "741d433e7b269ce971113736c4a02252b7716f3772d36798eb80bb6cb82cc8c56905224613ccff04f786974312be103af20b86340620ee0508ce6a06994ce610",
        "l10n\/es_SV.json": "844b329c93cbff6118b716d8fb899cf2b8bb67832ad4053ab24b3110776f38d442812b9e4fede8fddd58b7726f97de24536bcbbdc36078d0fc4057118b9c5c9f",
        "l10n\/es_UY.js": "741d433e7b269ce971113736c4a02252b7716f3772d36798eb80bb6cb82cc8c56905224613ccff04f786974312be103af20b86340620ee0508ce6a06994ce610",
        "l10n\/es_UY.json": "844b329c93cbff6118b716d8fb899cf2b8bb67832ad4053ab24b3110776f38d442812b9e4fede8fddd58b7726f97de24536bcbbdc36078d0fc4057118b9c5c9f",
        "l10n\/et_EE.js": "b8bc56b803aba86e986e0c4b10f0d524994c33b3f6a05019b62902a846f3f2dc4fa93e013599091ff30ab3638c043a926237b75898e9d3b303bfdc1e85f9426e",
        "l10n\/et_EE.json": "f24f5927e7c4fc559e9f0945fb6a011080660eda5140972e937d3e12ea52386ad89e9737be46a1222ecbd9d8b3bae115eaef0674a94b2db841b4c6b6da2621d4",
        "l10n\/eu.js": "960ec263f667003cd223739a383dffcf897e0e1e958b8052f3cd480bc662a8fabe159fbb21dec5d46c4be50b33395b489d15916d8360571660d7d4b5342766f9",
        "l10n\/eu.json": "45d4d3377a2f843b8959ee1e94a233cf1703644735c49efcb56afb8633ea99af756801f44447cae8ab32cb76a0d508e972a508d53d98006f31c44c710e52dcc4",
        "l10n\/fa.js": "bf5c0c8d7d3c3b1620b89008520ffc945cfe62b961919698688243be16e764b21cefe00007255672cf8877d7d330a76a1ca7542bb38c05340d8bfc7469351f5f",
        "l10n\/fa.json": "464bf1593f7a2fe82f571865e0a42a05a909f3538d54d4f6eb8a1b1ebdf32d0de10103408dd65e0e7ff70f6803a9f7367fcc142065c068807304d79ceff3de7b",
        "l10n\/fi.js": "9ed5f2c923830ad964b14c3f096990bd29b742000c7fc20cd9ebd238a314c8c90e01c3badc9b305ff47f177bb39116b092420d41d6198527b38a88f6f0330681",
        "l10n\/fi.json": "ed2c3efccbc3370be779bf39d09bc56a6104b7ccc2ed60a159fe09ab78afc81efdd8dfb18e9090006528d5ff410528b59db58075a59d2c1a5bb82583cf8d0682",
        "l10n\/fr.js": "1ceb7d8d1883845bada04d110b2603146c151aefea45c036e820c2df466124c94bedb704817a79d7cb84e427020a0b017c9b73d6c975bd12fd2ac717885ad217",
        "l10n\/fr.json": "f06730e4ddf7c7c59af2811483ad7f076b2370bd9ec4ec78364eacf6cc9801d7952c163780112dce63fb59f5892110f57eedb70b68baed456141dffcec17038c",
        "l10n\/gl.js": "f1195afee120359d8e7c20bd1f27aea129784f842a2abdbd0f7da5e5708072606f60eaef469d922d39f0815b3ed5dd673a3a015655015926924d86ea021e4cce",
        "l10n\/gl.json": "c7eabad737dd46b5b883c8e726c2a60c21660ab8a3c0fa10161f439e1cabcd27be37f762c613580dbedb7de03acec996502b95f8655a08cb2c54a16044eb9431",
        "l10n\/he.js": "48df7af23815bb216c86286a354e6f1f1f8c101bf4489f2e608bfcbff595e7bbbc3e48ff3d7285841bc1d3ed8c851c27792823c8fd8efbcd274c29c64df8458b",
        "l10n\/he.json": "b7e0776e62ed1b3f726eb81a6e69d224c2e8e278f6f5fca84b1f83eb447e949df5832d4fd5c923f206e5ee77d32967dc8811bfb25e5b3f8666ad2eca416418b7",
        "l10n\/hr.js": "3ef68951c5f1faccc71c0f9a945e9bf8187a0d151aa6f8088dd99712fb57b1eb54a74b4cb5daaa364257a0d16c848a136f501e1daee5b645907b995f234c4215",
        "l10n\/hr.json": "5b888d3ee926a1601bc5ed67db6eadae0da5cb7685dec636801b3020e01368028759925373b44a64e9b539d7eea020870853e795b17b3bbdfb8fe9be6b6cf80f",
        "l10n\/hu.js": "0ec1f413b389cd2c3a79096ae7ea4fcbe0385d332228a5ed0a7b581c5e8dd0663419d8bf1100be88947dcae0f9b8cb4204b74bf6b82c21e75c470de8e8d5c033",
        "l10n\/hu.json": "2eaf8295af25641c84fec5979e4db91414bf55d7723413921dbc3d287e73db536c6af9225a81f9907376c8c6432ef509fd2468610bdf759c2fafddca645d0120",
        "l10n\/ia.js": "17f2bc82731e092f7b48304e9dfc7e90534f2ac06d025f385c52d96c5a0d2aea7de023725b1d15a53abaed65340c4d7e868c8e93b6008c6a4766d4be7f732ca7",
        "l10n\/ia.json": "78dc298088d017bde39fdf8c945eb6a756185d7cd0026fae499c67b365101f393aae3f8460df39aa9ffc4ed770c8c5395de818b4eab3294c4394f490c8d881a1",
        "l10n\/id.js": "7c7327dfd0499b4090b05ea375b51f43428dcc27f266f64b915788a8ae3f964c2a9da06b4338c768c197cc2b9b3bca19b666b0d78bc6c15007641a16b3c3ba47",
        "l10n\/id.json": "3ec09e1d01b67baf1a7b42e0fb7304fac49e018609854356e826a89aabffcdd1d6810bfe115d5e741cb58b47129a4e227eca2fef91715d9c058d81879ca542bd",
        "l10n\/is.js": "889a1c81082483734ba1b9c5f52cd9ebbd6204f50d95a4f930d52745ec605ceabc18e3bd944027f3c1c6581e9d05d66866fc9e72529e8dd9a2a3909e8d910b15",
        "l10n\/is.json": "a9f1433a52025bcff22812c9caaf457779cb436de214ae90270df1add172b4050d0b79b95946e86ff285753709eac9f96ed2c5d52189a3ac7238282e7565a31d",
        "l10n\/it.js": "643de378fc9731a3e840fe249e7b1928b452d73bbbf3967385a53c12b2f5916572cd16a80ed878d964255f9226f68e1f1dd9172065bc4ee3ba642195381375b6",
        "l10n\/it.json": "ef88dc557b7ea10164e35d8b39f875e1036bc65154ac04c2d24c7b62a8451ba69c02fe6cf8c0f7c59714e0375afc9ef971c94857e0ccd1cfeac3d103795a0434",
        "l10n\/ja.js": "c1f05451d18c929af33f5520ccdcfd59cb3e38aa9f258636865e1554ffc5c15c2ef76ea954bb258f53f1b76666f1f4c115a0f67f86d3365b3efcb9f4333f54a0",
        "l10n\/ja.json": "85479faf0d85251ac896dd6092975111a3e96fcde6c81deb38660823a687cc883a54b9a90084ef279ffe06f7e3e6fa718e2b9376582993d45bac11528ac54455",
        "l10n\/ka_GE.js": "61303df09be19e8124431b497f4cec466a1e1eef4273dd1c51b777245f77561ab02bb3834a0da3f8ed1e5fa78f60cbd02e079384659a62dd40e8a55929bf3d52",
        "l10n\/ka_GE.json": "32a0fc6faf528aa5a4d16b4ecab56b149fa8e5a9c9c8ffbecfebb09f1755be29065210aaf7de62d38fa35fad33b52476eedbc8b2fbc6684127728b06cf161c55",
        "l10n\/ko.js": "89396bbe52eedbb55978fbbc59ae0975a2414ad174266d71828287f368cb4b3c27c9ac64477e187053a4e0bd3b3cbc2865e3ad61fb3aaa46ad11ddec0386603d",
        "l10n\/ko.json": "608fb65d57d73f7d1c01a14a9f8dd8821a226c74936b0c9bf0cdf0bec41a92ddd6cb40df4df59592440ac98537c1baf45bd0c13c46a8877f20c96bc58e6e9902",
        "l10n\/lt_LT.js": "4447ef143045f118afdd8f67189a35492f9be75f5bc4b02fc95cc3f48ae212d3b3663da6a157fd48b55eb3e6d5685274242ef8cd7bb1138bfc2abe114b44372a",
        "l10n\/lt_LT.json": "6d3b733b21d8d65cd94a4c6bba4d21e5e109300e222a8ad0595540604a787cff3e926bb3034dbea4456066b710a001f41782a5175f19838bf47cebf1bf48cde3",
        "l10n\/mk.js": "89bdbfc20ae6106492733d2eb8deb79c9a3ec77f5a99d31821dcc0d17211037448859f601f1a0b525309010fbc5d53aa6c296b9ac100dbf20b11f4ee52f6d9d1",
        "l10n\/mk.json": "19b7ad2ad5da3dd8b8f7d172a51dc4ae7d7608e9581025ca508229325b5c0f4d275ea3fd3f9217ba5acce53986ab78a2035c1a5d1fe641130a7777235491c612",
        "l10n\/nb.js": "3d1ff1e8d5519a69c473b6c9ecb581e2c52d02cabecc52ffa10adc4e1f7fe06a25a4e3a0ffb606ff7acb33a42c5d74e4e3ac39267c7531cfb616ca56cb30cedd",
        "l10n\/nb.json": "0b4a91d5a8f4a10efd5925365ea3155cf9380235588852f286376387bd82fb3526cf5e0b721489331fd62e1eb1708f180ef52b739f3522f0bc47a9f633756d80",
        "l10n\/nb_NO.js": "b74c531f4208133b0c7f14261774d6b1d431f8bf6450bae0b5b807f564d858555225ef7b2964e55e5c5b83c4a9140bd1f44de4a7bf362e5afe629dfbdb66e44f",
        "l10n\/nb_NO.json": "d036b4d587f66eba1480178202fa5317262956d7abc28d6033a31a758e8f346157808d153f740d5c326f8d9f56e209359d40534b9933987174ceaa4e1d3998d3",
        "l10n\/nl.js": "fd9b7d01437b307dd1074eb9e7ca7556c53a461d33d9f6151afb609d9c0836099e1b573ed5404276bdf8ee4fa36712236fa78a408f14f26fe5aa3a65578038b3",
        "l10n\/nl.json": "dfd2b1f8fa54201252afbd3f28749960ff0e4d99d1eb3276fde08fa24fcd1660708b9a89ce1933a20ab027b7c7ad8753f92a27da5ec10e1d985e18599922710c",
        "l10n\/pl.js": "5c74269d79a0c59ae1d62792d79076eb7bfba0ddc0484e8ac4de531207e0992138ac8ba9631ee5e7f0e29fbc1f4ca95ea7af58677ebdf9085a0596d84cea7bbb",
        "l10n\/pl.json": "857e4eafc5eb04e00b3bd3564474be38e16c1eab088868dfa721846559653ff2854f394b5bb00bfdebcc9d5dd9862532e795bdde89bf4a3a5455f6b54587d6cc",
        "l10n\/pt_BR.js": "aa3517557f8b63511de5a5b55dcd5941ab740378d00c7c1e5fd31b9592b5bbfd0bfd70fa4e5ea17d7dcf35649154165a4e3e2e7d9e470b41d77eb67037eb35f9",
        "l10n\/pt_BR.json": "737347aab2b80c038a926ac9c300fcea6eacb38c4a8bf8872c847c7b23c4fea28dd549df015bbc547670ff61b945dbc18b866b385f60839d6650dc065bf51226",
        "l10n\/pt_PT.js": "0b8b6ce3379cf91e1fa77fdd7419ca601fd50c5818c6fd3349b355d94b3d0f3b23fa7e85f49136f81852758b7aa6c813a2fa3f197b6481a899ceb97a4fc698e4",
        "l10n\/pt_PT.json": "cdc0727a2d4b90839e7b4ed675f2b464153d71706aecb9e148b3bfac2e799dfc06d7ac62e151930891b07b84dff679c4f6ed1434dae374aecaf9dfa6cbff73ca",
        "l10n\/ru.js": "3da6890524a95c215047656fba1569981af1e21c3b7f08bf9b767d79bd502dc97472a8b75546159e94620a15bedcdaa065843b687a2c9aae1c257606132cfb78",
        "l10n\/ru.json": "f17224ad9bacfb8cc419e10ebdd6ff4b29283a614e97dddb32365da318d312f1e5e11d768bef6f85f4298be6d3c631d0396f3f7c49482bf2cd9e23cab0a956c6",
        "l10n\/sc.js": "bb480ae54c95009e05e231301c010aabd86e8c1b91e758a0092b413084618a5d8712b9044b6aad1c1e8251a67af55092abc7285f29beb69170049d4edbf74a0d",
        "l10n\/sc.json": "8ea75fb4b456b91ffa17344cfbf936415cb578c8fb56884ae786c3c783142610cf46f7f3fb4172fca35da25648d1a2132128778b0adc285abcd795ac55fac93c",
        "l10n\/sk.js": "3047dd057f0e154b76009f97350d025725ccb6b9a1267c999e7b997b8b66ce93f67295ef8cd1fad22d7d9e31b505fe22f7e169267db2db812e55d738e26c4716",
        "l10n\/sk.json": "4048c2a9acde55ef3bed726acb0762d6e3464665ee0449a02c2e7909377a570cb65017d2c89982433b47b761d4bc38e242501a0ec5dceaa70cda9875eac91ee2",
        "l10n\/sk_SK.js": "183617d6e8c5d70e94acac4f041d578db5aed016fca68b9987f394e69adb21de321d59d6f5bd20a4c5f1ac621242d9dde02539a867bb5f18b4249c2340a2a253",
        "l10n\/sk_SK.json": "3217083833407ec8a2fdd312e82a2b5f4729c3097cd304b37327e305ae9e26fe69080a575c12f0e978f1df688b613a8de9a532d2015c94b4bc5482be00876fc6",
        "l10n\/sl.js": "4c154b318b38527af7ffc733c593d118fa77b4a74a7ec40ce0726d4b47fc169fc06546490ad7fc0d3fd9dda7626baeb009825b13e6c735684c60d9b91b170d1f",
        "l10n\/sl.json": "e089758376730e663e662e7b1e03a4fcfe5ca70ef168e2a51acc35962fa550ac51471de0a3eaf5d82b9543557e362d7789d5d72de7517b67033234dd362f48bc",
        "l10n\/sq.js": "ac00ce401958e7f97f3e7a09e9f255e78b703f73a88d1f6a169b54fba2e642f6dcf19f51bbf20690c1a6d3b54b8901bb16009651d65970583aca94f1ee781fb8",
        "l10n\/sq.json": "6148b1c2f85e271a6ed7246bf551ae8ddccd734fe32a2f9f4b067ec153cfa769de25c13f05206cd8cff7b7ec598814a7afdae22ef7620767565deb889cf6062f",
        "l10n\/sr.js": "92128c3f6cbbd93c1bd0d5fc8ce635b71aba6b35f9982f4a07c573455d8a2c3da25acd9b86452b4fdf6c614da0088099b260c2d29f423aa25ef45da7334b8499",
        "l10n\/sr.json": "460f23bc7858262cbbcc153f9dc446504db3d1b6c0abf1b6f4dfdfe0da43f7fe214c372fc885addd2ae41782f7bd5411217cdf0214b98afec5a2098c94d785c1",
        "l10n\/sv.js": "3c6f6c6ea55a362ba5bd50619c2339fb7d2433d7e259b597f844d2b561b20bc6f322ee9f4946d7d0fd47564ed2ef0104b17fb546cc2c00b7ed181d8d748a2e84",
        "l10n\/sv.json": "749211aec053918bbe18d96e78cac445c297ecd37544b5f8c99619b30df94f17807a886dd6e9a60c7ba06e85f07dbc2d91d6efc955877c6b22d8b2480738cba3",
        "l10n\/tr.js": "7a3aac1ba526a1235b04a22e1761b1f40752787dac803785f4c081b714f04f4988f841d907af748d11625ac7100d88f17587f559fa88349304fa179137ebd686",
        "l10n\/tr.json": "3b4a76c20ec73099af5dc30a4e1d9c50b440d6e54b42d33b15f9ff3750ea35f9fd9e896439706f8117ee48e6c48cdfc40c9bc94d2fdfb77649f6a8e1a241dc77",
        "l10n\/zh_CN.js": "164d331ab3eccb742812769274f0423e8087d898ea00c1fadbf5155bacd8adc472009c06acc2361d735e54ca84a314dd0e8182ec46c1a34fa717e50110b20448",
        "l10n\/zh_CN.json": "a441c712a0495b29ac6c5697b4640f944ae0a702e68a8e5fc2c064d6f3455b4c2c75f1a38369b3d651adcb34ea8872751906a9f9fea89df984d55e7eb0d1b067",
        "l10n\/zh_HK.js": "20f0b3103c7fb5f434b31f0bc54ac4f803b9d5b664705458ee506d7fea158051a40a529b55e0c016206ca254e27c9729e42d6eb16d5cb1b3e727c03efca2593d",
        "l10n\/zh_HK.json": "08597a58ca87816aefa4091c6de7633f9aa07180c86d1cfc861a17f660e7aa15360c4860649aa63546a74d9e57dcaa001296856fc694d3f30398c67be02739ab",
        "l10n\/zh_TW.js": "16ab655dcfcfc782e824073afa6ffc16ea7964d44cf55985a7d167b00fa41425fea961f9d8d5492bc5c946418917468dafaaecd3c6f8cc5fdb04a0f74ba4efba",
        "l10n\/zh_TW.json": "ed3e859719fdc25acaa06df20d7738eb086dee0f68028d1fe6ef8f8f84050b8c2b8aaab0eed22a8c12e70470d1a05ed587798efd524cec53ed457f9ad5b222b2",
        "lib\/Activity.php": "80bacc010abfdaf5907471547fe0a9c88bfee1932f9996240de817edfe9a03a9cc9351c2699113192ad3b57091cf08683e1d3eaea627b313ba030cbf2e184496",
        "lib\/AppInfo\/Application.php": "cba3287e14fd08d9e5eee3058b9ca57530e0818a9a27f8e9e88483d21c752e596b04562fda58de2609d8445b6e2cd3a0f3570ccd6283449769886bb19eae0f78",
        "lib\/Capabilities.php": "11ecc66311948479048aaaeb191e37f225d6882d1d4ae427787afbc3c181d149c4237660a4db5aa743fcb4352afa489e5785d7c0fd72433df108b7adfc66e719",
        "lib\/Settings\/Admin.php": "dbaf7d641912b3361cb87012c52c0a8f79cd3b2fe7c9e7a29292e83649af02a6b69927d1bf8c2e1cda93299cd88c013af9028e967355368f63a14ca63b18e3da",
        "lib\/Settings\/SettingsManager.php": "9a566ffe9b049c01df532cc30e7c2059a78d0af9a5c0144c350653ec89834ec7a46038f2770f718723f78ffbd78949e5853816748508dbe4e41608175723e488",
        "lib\/ShareByMailProvider.php": "31d319eb75a3dbbce3cd6782328a1e7899f9274437f5ad0318c065fb7fb6d20bee47130705c5b5ab114b0d3b18e720cd7d230d869196ecaf1465808f1c9b6700",
        "templates\/settings-admin.php": "8a384beab101f5ef69566e8c1afac639c25c5b80240da34a1d252230d8000c95b0a892d9f46ad838c14f38d500523a47ea88f5dd3d3d9d07abb1ad74e74578bd"
    },
    "signature": "QXGMjp7aSfk2pYrrLq54Ansicsn3y2JJBHuKqAB3t1oGhBhcBGN9+jL+XgBMyzPh4+yDVpaatLk8rSIBvdlbD8YBZFrtvf48McnQj7w+uFrHmmCQKSdC4E0J\/0kjDMabc55mXbVL9KG9SMdgkTBMP8ugGzxxR7dd2a23VQrUzhZ7MD4VehMchCPV+mtzCdsupX5oSp9bg9ZQniBxTm9d6rLX83Gj4Apyu5IWqI0RDasxoEVcxB\/mEpHJOUKdHjF2\/HWFGeDzh\/YRDoO5PTSAnD6UtPNb6ouppli3FXo5ui8Od6\/VynRMN9taRHRyRsS\/6OIr9oopTFz4mIu27Gv0XA==",
    "certificate": "-----BEGIN CERTIFICATE-----\r\nMIIEojCCA4qgAwIBAgICEAAwDQYJKoZIhvcNAQELBQAwezELMAkGA1UEBhMCREUx\r\nGzAZBgNVBAgMEkJhZGVuLVd1ZXJ0dGVtYmVyZzEXMBUGA1UECgwOTmV4dGNsb3Vk\r\nIEdtYkgxNjA0BgNVBAMMLU5leHRjbG91ZCBDb2RlIFNpZ25pbmcgSW50ZXJtZWRp\r\nYXRlIEF1dGhvcml0eTAeFw0xNjA2MTIyMTA1MDZaFw00MTA2MDYyMTA1MDZaMGYx\r\nCzAJBgNVBAYTAkRFMRswGQYDVQQIDBJCYWRlbi1XdWVydHRlbWJlcmcxEjAQBgNV\r\nBAcMCVN0dXR0Z2FydDEXMBUGA1UECgwOTmV4dGNsb3VkIEdtYkgxDTALBgNVBAMM\r\nBGNvcmUwggEiMA0GCSqGSIb3DQEBAQUAA4IBDwAwggEKAoIBAQDUxcrn2DC892IX\r\n8+dJjZVh9YeHF65n2ha886oeAizOuHBdWBfzqt+GoUYTOjqZF93HZMcwy0P+xyCf\r\nQqak5Ke9dybN06RXUuGP45k9UYBp03qzlUzCDalrkj+Jd30LqcSC1sjRTsfuhc+u\r\nvH1IBuBnf7SMUJUcoEffbmmpAPlEcLHxlUGlGnz0q1e8UFzjbEFj3JucMO4ys35F\r\nqZS4dhvCngQhRW3DaMlQLXEUL9k3kFV+BzlkPzVZEtSmk4HJujFCnZj1vMcjQBg\/\r\nBqq1HCmUB6tulnGcxUzt\/Z\/oSIgnuGyENeke077W3EyryINL7EIyD4Xp7sxLizTM\r\nFCFCjjH1AgMBAAGjggFDMIIBPzAJBgNVHRMEAjAAMBEGCWCGSAGG+EIBAQQEAwIG\r\nQDAzBglghkgBhvhCAQ0EJhYkT3BlblNTTCBHZW5lcmF0ZWQgU2VydmVyIENlcnRp\r\nZmljYXRlMB0GA1UdDgQWBBQwc1H9AL8pRlW2e5SLCfPPqtqc0DCBpQYDVR0jBIGd\r\nMIGagBRt6m6qqTcsPIktFz79Ru7DnnjtdKF+pHwwejELMAkGA1UEBhMCREUxGzAZ\r\nBgNVBAgMEkJhZGVuLVd1ZXJ0dGVtYmVyZzESMBAGA1UEBwwJU3R1dHRnYXJ0MRcw\r\nFQYDVQQKDA5OZXh0Y2xvdWQgR21iSDEhMB8GA1UEAwwYTmV4dGNsb3VkIFJvb3Qg\r\nQXV0aG9yaXR5ggIQADAOBgNVHQ8BAf8EBAMCBaAwEwYDVR0lBAwwCgYIKwYBBQUH\r\nAwEwDQYJKoZIhvcNAQELBQADggEBADZ6+HV\/+0NEH3nahTBFxO6nKyR\/VWigACH0\r\nnaV0ecTcoQwDjKDNNFr+4S1WlHdwITlnNabC7v9rZ\/6QvbkrOTuO9fOR6azp1EwW\r\n2pixWqj0Sb9\/dSIVRpSq+jpBE6JAiX44dSR7zoBxRB8DgVO2Afy0s80xEpr5JAzb\r\nNYuPS7M5UHdAv2dr16fDcDIvn+vk92KpNh1NTeZFjBbRVQ9DXrgkRGW34TK8uSLI\r\nYG6jnfJ6eJgTaO431ywWPXNg1mUMaT\/+QBOgB299QVCKQU+lcZWptQt+RdsJUm46\r\nNY\/nARy4Oi4uOe88SuWITj9KhrFmEvrUlgM8FvoXA1ldrR7KiEg=\r\n-----END CERTIFICATE-----"
}