{
    "hashes": {
        "appinfo\/info.xml": "debc6cdd2ef162ed7aeb05ecb7aa8f619f234c293f16c16885c3060a8a0b8b53383b2debfe50e6423148a51e40eb2f34e4f8e8cfb194836f10b3e0e7d576fd8d",
        "appinfo\/routes.php": "b0bb48ef67ba4da1aa7c8bef5d2f3e0ed904b4dab7d6ff149e151c520becd4ac5aa30f22443f27b985490bb79c16b6e81920eabc7717329428df2fc312acb770",
        "composer\/autoload.php": "194908e7f1bcbb6573ec6f0a1f3de3c8f971b149b25e005fe826b90ddf60b98196c794878bccfb69a57409f842bd3ac7f854f3dd3e09b4fd12de163c2f836602",
        "composer\/composer.json": "a8ba47728dd6901ca5567eb3c59958b6b61f3ebdafb580226d422f398352177f93848d916904843125d6c46ee6df91be7239a22738291d559119b81e3d566841",
        "composer\/composer.lock": "aba0413aa705be0d0570c496a43249c551836824e7a2b4673b51838fe0d9f425ddd07b6c4b95aa74ca549f58e90f2a7d78b51a2a3080749a5dc2e4a46d04fd1e",
        "composer\/composer\/ClassLoader.php": "3755be4d1c0303467ba081af7a82346e47dd178c90622197df41eb2b9b5cabdc6899d399776c16016309765c30acc269aa6873e61865a2cfd276017f2f0cbb82",
        "composer\/composer\/InstalledVersions.php": "f6450ce4d537899d48a9608fa4c3c8f852e5820554af2c0534639a33a1c551caaf67901493aec5617a48ba8b425fdc8cbb4ff18f6ae72cb5766caa2d2949fa33",
        "composer\/composer\/LICENSE": "f3bb64009f41a425df5a9bbab53490f0eb9b74fa8d6aaa2f57efb928edc4ffff330260666edeaa04a91fed708c3663371cf01b284f3a08d6698aaef7a23f355a",
        "composer\/composer\/autoload_classmap.php": "99d4667d9fc1ba639f879b6c760cac4c007beaa977314cca60b9c2a4c016c364fbdf01a89d15a91f076c0c169801f0503009cfe26358240788680048c143d0b9",
        "composer\/composer\/autoload_namespaces.php": "dd8ee31d2faa9014fe567e1f954b5e7f450cf06feacbb96d4df663c59b1a36a0b7d26ad41b46354bd14f282fa7899298137208d1851099cd3ada285650efd90f",
        "composer\/composer\/autoload_psr4.php": "95bb99d87e165cc0165648d4ba5911164bd8023bd49a0a18804e25c2da833a071f7a2057424711a8b109a55b1471b6c577747464b3248e264a7d98b43b9ee93d",
        "composer\/composer\/autoload_real.php": "8254244ee0bd80db6f2dd2ce8db29d688c957ae42a0625a06538af6091a9edd97324946fcae298bb0cfea9324d5611711d82167809e50e45fb38c3da4c96c19d",
        "composer\/composer\/autoload_static.php": "0a7182608a70dab877c91c2157cc3959fcff7ab75a45a975c877d0aba472ca2736b620915866aaa5f6a5878166f71a4eefb54c8500e3c87a4bc7422a0977ca08",
        "composer\/composer\/installed.json": "0a3ed51f953eb945b970a8eb21957ca2beee4669c7d0d9be97b8259c391b60688f8abb78d4b1fae5e4e2ea5e3d8747f4d35f066a2605e9a76f5b45ec3f1da357",
        "composer\/composer\/installed.php": "d7308a2e4cd5847362223b458441fbf3b2b839a8221ad182d97d6f34ec00746bfc5cc4ae1b5297f84dd0a4e32b5494581f8b001e626275e0886cd3306ad8b768",
        "img\/app.svg": "17ccfb42d683782e2174f25d6296261d0e74f15bf717fc08844df87f42e6e5074049e75058367a74c8fa1b5a81eeb92b72ed2c4b5cd36469b0c0a8036e1a18c4",
        "img\/notification.svg": "b2b1f70519f83706069d516ff772b89254a4394f9b8e2e3a34f836c0660b765ccdf4ab7fa60f63bc7d4dd38b0b52ca1ff8bcf639538ef33432fcf7051ecfd3ef",
        "js\/legacy-notification.js": "8feea0ffc626080a4b7bff670c6cd15bbd916ebc0cc7d69decedb4b4e760e5c3eff4e392e0884f51e9daaa7f586f68e7566f7c540aa98815a0bfef6e5cdf54c0",
        "js\/updatenotification.js": "c0429ce358d3ec4b0e76cac908008c54a271e478a67eb0ffeb482ac8e12824f374d67152466e0b1d2708941b0ae5fb559e16a72e926c3c6c124599933a180d58",
        "js\/updatenotification.js.map": "39405b6e90a57a7ad72ee70f287a8d0bac9f5b41f1680bd12217edb5f902e1d8185196f5d907ca4310f6d0d5743a42a3ccf0e7ccdb2a0fba72ed12b0ac7454ee",
        "l10n\/af.js": "9c26843bf07de47039d6f615d60d34e11debf5d790d9f57d5b6a6698f61f12a655677411753803c52eacb654c0a6454a839c6bc82cd0410a7b27684593fe1d6e",
        "l10n\/af.json": "508f4e4d5a4a44b4338074166459cd503224dc49a6151e210b9854a0728846788cdd2283768b6deeac405bfd8196adaa0f00aaaaa3a5082c6306eefdc7cdcc4c",
        "l10n\/ar.js": "21c9dc77744d8c72bc99e9c7b94d6dd3a455dc8c42d7badeab35b902a4e2e1156660b08e30999a8c0abbbfa24e86c110bd80616ef80a854dd85ec6a50178566e",
        "l10n\/ar.json": "a5410090509a5e6a7e2be363b6dbd722eb0a02c19fde7c46e5fbe76094a48f93d3a1cfe423b13881f19542da0775a4472f2134e993353c18bf7800315c0dbf1b",
        "l10n\/ast.js": "d0f26ccb7fa6198cafdd8f55c5337fa2077645ad4cbbc2802926cbf4fd18ab0aa5641f2cde4962f5a6d3383fd8b27fdbe3fa0bc38c05ab2204ee27e7a2f01880",
        "l10n\/ast.json": "b20725e1eaaf5b133dd5f43890a1baa50c5eb6988cb6e7f25f647148222d3f07c42b6605364aad8d5323dfdfbadee6a64f6d903c5ccf20959313fc749130ad72",
        "l10n\/az.js": "38b89afa91f3b442ebf8061d40f45695031ffa8fe9b3156bbb20a166076ded24defd565456bf972ae861520bf8d71583356231109136a1bf691797eb4d237f8e",
        "l10n\/az.json": "13d4f107cfa882db22fe1c501cc3216c3fcc817774e4fdec9df078cb339d3357fdaf32d5ebb74d7e1fcf40fd4b5253ebd02bc1c8a62db68a4f42dfcba2f31601",
        "l10n\/bg.js": "65d210ec6e3a781bc73beedd821d3e108b245e16c07f8c2e57367552dcb264ac96746d3bc3075f6990332dbbfe234cb250dd0a6a238e994cdb985943e77d2f9d",
        "l10n\/bg.json": "ec0f2c96c75f0d82051faf67722192f0f688aa1095385c274301667e47da570ee1bc7803caa01d6e64fb3f9330fc2e156e79df10eaee9c0d860d40be9af61c88",
        "l10n\/bg_BG.js": "4dfaa7d594515d81905ada4432f746b0e13936d03218d207abb0fade80d9e3f7dd01a7af0940cba7768b67ca53ce9f270728c6a3a05925fcc1b9043f4e485e5e",
        "l10n\/bg_BG.json": "0b722b38a29b01b57b66bbe72aee13c1fc86fd9042de8c7ec8866b99ae9abb367ad8c8e09c27914076b59f10acde72b73146429584d6e92ebad8abcfc509f494",
        "l10n\/bn_BD.js": "c10427ac7454220d6acd986564e0566e3bf97835990e56a31155a831f13f13bf48a71d430efa7a0384d59e8789e095714254861525406eed40d6f4c1dc7a1ea3",
        "l10n\/bn_BD.json": "d4ae00e0c34887a51076d152162aa941c0ee6d0c04adec975bc81a7f21b96bd65768265fc1665742ab2b818e488f2dbabbd627d74f4168477711d5b83ff7a19f",
        "l10n\/bs.js": "20679504d8eb766bed2e9075077c1ba8f1c43d83b00ee0648759fa909ed24b1e2c46100747c5cc87b568eb9af206402165877d2776ae8202931b24f12b20df0d",
        "l10n\/bs.json": "99c492b7f7cd0ec9c0aa63f009da9ac81bdf2722ad745c133d042c830f5463d25fa111e4a7b5e6474878626f63bd850bbc195cd646251513ee9215f13d269deb",
        "l10n\/ca.js": "1aa34a48b6c6b85724046bb1a76c205ac09a7492e8514ed24585d83497077ee3a8af5facde7842ac2283f7db7392cb16a221fb70ed0f76d723b6f55098c7ca65",
        "l10n\/ca.json": "7d5155a15f7aa25beb56ac875cdaec65274f6e253651588c7b620fb7b94e8c561337523c2a20f5f59632e94ed45833a80c9bb7699b5161eedb0fa56f753389de",
        "l10n\/cs.js": "4328aa0668db28a7f477e8aa2fd2785d64472432da8723046ceb731c63ec1a991fd7878b3390a241f70678e9182f020bf86eb6576c70deb7c708ceaac6524301",
        "l10n\/cs.json": "c70047f647fc6f5f85d0254d59d324bb29756af5ce8fd4a4e462ae72bcc8eda726b6a2e34a8b14255f4e8239f6fda7a98f46c841f1b74fd5aa25d7fcc5926cbe",
        "l10n\/cs_CZ.js": "45c2ea5d23f398ab91c2c7c74ea1908977aa28b645ca76c1d8febc71673195203b4d75271d1892b29341b4fd63f05ae4ab53d2288c7a44a28d75e6691853eeb6",
        "l10n\/cs_CZ.json": "f75845b4aea135a051a3b2b777f467df7d6caf431e7972c4f94d3d2a743d6380b480b4c1b2ba5e80e3f87c4790bb3a49697715c15139e5ea133b04ce1f58fbf2",
        "l10n\/da.js": "66c117d9077145af67ff2b1adc341c0840435d95604a0cf6f22a80f8caf21c345621008eb7fdc1029204fae514ac4a8f2613dc85c83b7246418aa5547734616b",
        "l10n\/da.json": "96d01b34e4e18233be7551e286bea4831d777a88628604496d2876e4713ef70868a022c330b53830fe1531635d702606070bb5b48170ef961ed9c8ddc6cf113f",
        "l10n\/de.js": "3c7c32ee71f9317c95875dc5b03948e5ca7d06ecb79bb89bbaf42a57bceae14f0a14d3319e07dfdb745fc37a09ce9b1b17d49ed324c44a267b8fcdfe6add3971",
        "l10n\/de.json": "df119d5e676130a77cc2c9e8d9104c5357a1511d907b95f95fce8d0a0f93781fa04f13e796e4f998796a863c40d1316d57e6d3674061bfee0e24a6dd96399c7a",
        "l10n\/de_DE.js": "796a29cd99801155f67318ecd4360a9f05d460b262dac44f8e8f66f62b8a5c67ba3e40a5af22f802e1cb3ae323aa848cfddacab0e8540f547e0829bd7bb042ce",
        "l10n\/de_DE.json": "930287672dee25ec7c19d3f1dca23cedd28de5b591738dcb735f5834b18278af20e11a2c7e58fc8cf909230f1dda6ce13cd1c91f3e5850d9affc8c2bc0d18580",
        "l10n\/el.js": "3e7984c0e89563370b070df23e9efa0eab849908bfcba2b7ad5ebde3588c51a3d0ddcef11820c6196e7c3e45062964e7bc150ce6d2737f2fc30a60e4fe4d5cec",
        "l10n\/el.json": "f37aba69001561154de77a80b0971e092a6fc9c2c840e89a0cda4980a62a526a3fc1955a9f0bae0596252ca247563dc6d7285d5ef27ca6cbcf8e2ec5122f0585",
        "l10n\/en_GB.js": "914cb758c080f65cd11984b454144d570ac65a0793a3dd9320faff28647f77f41c563176965c6e5daa75394fb8103cb28e8900216f1fce8c80c7ab967e22c906",
        "l10n\/en_GB.json": "65d55c51816160d28a5a0808b92b984d7d2383cc2fec651c34ebd129750e32ddbbea8c79ccfd8daec48aa9612005997d780aec7ea91ee4104d55028778e1b0c9",
        "l10n\/eo.js": "81a392c3b5075ffbc9b069866001d28ebb803b3d65008f8db7b26e790813af5f038deb8d21ac8b2bc5ac3bcb7b4b3ebe687981e7a599a8c2650df537cbe80952",
        "l10n\/eo.json": "8ad83d01cfc852452dcc07b78c2f04f28c87f15bc0d0f49e247a8680cabdc21ec6f6939b1f1417e67926c736fd7dac067fef4cdfe5d163ae71c2e37d5b662cd1",
        "l10n\/es.js": "a899cd8e78f76801361c9448e1d57d8e0a13cccaca4fd5b1a9d997be0cbc56c9ad4871fdbb33470b65ca4c83790e954dee4851f1f7c6be490d8d4ddf11029b37",
        "l10n\/es.json": "88e175eaa21c20c1cc5f8b338efc280aa6bb9f6ed7c546904ede4dc0a0d9fc9ab83e2a8d6ca8a86b2fba11339573d3a9697d1c934e55f73042af4fb165b1f1b0",
        "l10n\/es_419.js": "52ad8c1fc5cae031069d18cbc4ccd8d9698df8ac5ce3560790b011df362ae6b2fb9c3866f0d01528d7fa08425ff706f718eaf6cd4592cc8eba16420db542f216",
        "l10n\/es_419.json": "a1604997b94817c391210480eb7473a7bae1cd0bc5081c4b1f5f5d00ff6fc288c8ccfe1174874bf9120f54d40ec8895f0cb2f4914283850116d79e3f28f28914",
        "l10n\/es_AR.js": "8a66095252941973eadf2fd5c89ce4da6916f665c670d2485aaf3f4a1bc5fce6b25073b6db3c337d402847cb0570f8892e117c7058c187303afd893077e3738d",
        "l10n\/es_AR.json": "df65d0e3ef775b2c49e0c6e177833ca32bd0e51f92ef181a418bdb54ee895cafb2e1d2013d57197806fc563b584863a44ff81c183500a8fd73f821c502761a3b",
        "l10n\/es_CL.js": "f7fe9cafb4aa715b310c64e11c5b433dccb2f1ac4c554d4c1c4f28b4ef6e30b360fd7707c836a39fe323482c21c4b10041e6e87adcfc4e974b0e8f25962cf9db",
        "l10n\/es_CL.json": "5cdc07918cd7e2f26aa74bb9e813c0b00bca9041f77e1b0cfbace3df3b453249fa3b4bc36bd05d70630aee7a75caeab57f26e7a99e502be30d46a856b619bac7",
        "l10n\/es_CO.js": "f7fe9cafb4aa715b310c64e11c5b433dccb2f1ac4c554d4c1c4f28b4ef6e30b360fd7707c836a39fe323482c21c4b10041e6e87adcfc4e974b0e8f25962cf9db",
        "l10n\/es_CO.json": "5cdc07918cd7e2f26aa74bb9e813c0b00bca9041f77e1b0cfbace3df3b453249fa3b4bc36bd05d70630aee7a75caeab57f26e7a99e502be30d46a856b619bac7",
        "l10n\/es_CR.js": "f7fe9cafb4aa715b310c64e11c5b433dccb2f1ac4c554d4c1c4f28b4ef6e30b360fd7707c836a39fe323482c21c4b10041e6e87adcfc4e974b0e8f25962cf9db",
        "l10n\/es_CR.json": "5cdc07918cd7e2f26aa74bb9e813c0b00bca9041f77e1b0cfbace3df3b453249fa3b4bc36bd05d70630aee7a75caeab57f26e7a99e502be30d46a856b619bac7",
        "l10n\/es_DO.js": "f7fe9cafb4aa715b310c64e11c5b433dccb2f1ac4c554d4c1c4f28b4ef6e30b360fd7707c836a39fe323482c21c4b10041e6e87adcfc4e974b0e8f25962cf9db",
        "l10n\/es_DO.json": "5cdc07918cd7e2f26aa74bb9e813c0b00bca9041f77e1b0cfbace3df3b453249fa3b4bc36bd05d70630aee7a75caeab57f26e7a99e502be30d46a856b619bac7",
        "l10n\/es_EC.js": "f7fe9cafb4aa715b310c64e11c5b433dccb2f1ac4c554d4c1c4f28b4ef6e30b360fd7707c836a39fe323482c21c4b10041e6e87adcfc4e974b0e8f25962cf9db",
        "l10n\/es_EC.json": "5cdc07918cd7e2f26aa74bb9e813c0b00bca9041f77e1b0cfbace3df3b453249fa3b4bc36bd05d70630aee7a75caeab57f26e7a99e502be30d46a856b619bac7",
        "l10n\/es_GT.js": "f7fe9cafb4aa715b310c64e11c5b433dccb2f1ac4c554d4c1c4f28b4ef6e30b360fd7707c836a39fe323482c21c4b10041e6e87adcfc4e974b0e8f25962cf9db",
        "l10n\/es_GT.json": "5cdc07918cd7e2f26aa74bb9e813c0b00bca9041f77e1b0cfbace3df3b453249fa3b4bc36bd05d70630aee7a75caeab57f26e7a99e502be30d46a856b619bac7",
        "l10n\/es_HN.js": "52ad8c1fc5cae031069d18cbc4ccd8d9698df8ac5ce3560790b011df362ae6b2fb9c3866f0d01528d7fa08425ff706f718eaf6cd4592cc8eba16420db542f216",
        "l10n\/es_HN.json": "a1604997b94817c391210480eb7473a7bae1cd0bc5081c4b1f5f5d00ff6fc288c8ccfe1174874bf9120f54d40ec8895f0cb2f4914283850116d79e3f28f28914",
        "l10n\/es_MX.js": "d05e3710329ec2013d97a5e2c78ecfd0870934ecbb75d0358e8caf8c887a9f5f4f7caa85bc8ead705f6f5f89bbc2a79bd587f18ea66a3245a5f88748d2abe796",
        "l10n\/es_MX.json": "b69a3e34b196b11da4a2cc1a81ef5502a34c371db738e900f7dd6f450538b77d37bcaf209d6cb0d3baf6d1c471ad19021f955fbe45e25d4cf758b0b06e6f9a77",
        "l10n\/es_NI.js": "52ad8c1fc5cae031069d18cbc4ccd8d9698df8ac5ce3560790b011df362ae6b2fb9c3866f0d01528d7fa08425ff706f718eaf6cd4592cc8eba16420db542f216",
        "l10n\/es_NI.json": "a1604997b94817c391210480eb7473a7bae1cd0bc5081c4b1f5f5d00ff6fc288c8ccfe1174874bf9120f54d40ec8895f0cb2f4914283850116d79e3f28f28914",
        "l10n\/es_PA.js": "52ad8c1fc5cae031069d18cbc4ccd8d9698df8ac5ce3560790b011df362ae6b2fb9c3866f0d01528d7fa08425ff706f718eaf6cd4592cc8eba16420db542f216",
        "l10n\/es_PA.json": "a1604997b94817c391210480eb7473a7bae1cd0bc5081c4b1f5f5d00ff6fc288c8ccfe1174874bf9120f54d40ec8895f0cb2f4914283850116d79e3f28f28914",
        "l10n\/es_PE.js": "52ad8c1fc5cae031069d18cbc4ccd8d9698df8ac5ce3560790b011df362ae6b2fb9c3866f0d01528d7fa08425ff706f718eaf6cd4592cc8eba16420db542f216",
        "l10n\/es_PE.json": "a1604997b94817c391210480eb7473a7bae1cd0bc5081c4b1f5f5d00ff6fc288c8ccfe1174874bf9120f54d40ec8895f0cb2f4914283850116d79e3f28f28914",
        "l10n\/es_PR.js": "52ad8c1fc5cae031069d18cbc4ccd8d9698df8ac5ce3560790b011df362ae6b2fb9c3866f0d01528d7fa08425ff706f718eaf6cd4592cc8eba16420db542f216",
        "l10n\/es_PR.json": "a1604997b94817c391210480eb7473a7bae1cd0bc5081c4b1f5f5d00ff6fc288c8ccfe1174874bf9120f54d40ec8895f0cb2f4914283850116d79e3f28f28914",
        "l10n\/es_PY.js": "52ad8c1fc5cae031069d18cbc4ccd8d9698df8ac5ce3560790b011df362ae6b2fb9c3866f0d01528d7fa08425ff706f718eaf6cd4592cc8eba16420db542f216",
        "l10n\/es_PY.json": "a1604997b94817c391210480eb7473a7bae1cd0bc5081c4b1f5f5d00ff6fc288c8ccfe1174874bf9120f54d40ec8895f0cb2f4914283850116d79e3f28f28914",
        "l10n\/es_SV.js": "f7fe9cafb4aa715b310c64e11c5b433dccb2f1ac4c554d4c1c4f28b4ef6e30b360fd7707c836a39fe323482c21c4b10041e6e87adcfc4e974b0e8f25962cf9db",
        "l10n\/es_SV.json": "5cdc07918cd7e2f26aa74bb9e813c0b00bca9041f77e1b0cfbace3df3b453249fa3b4bc36bd05d70630aee7a75caeab57f26e7a99e502be30d46a856b619bac7",
        "l10n\/es_UY.js": "52ad8c1fc5cae031069d18cbc4ccd8d9698df8ac5ce3560790b011df362ae6b2fb9c3866f0d01528d7fa08425ff706f718eaf6cd4592cc8eba16420db542f216",
        "l10n\/es_UY.json": "a1604997b94817c391210480eb7473a7bae1cd0bc5081c4b1f5f5d00ff6fc288c8ccfe1174874bf9120f54d40ec8895f0cb2f4914283850116d79e3f28f28914",
        "l10n\/et_EE.js": "32278aea1c5b3e5a87322fe113ec4321f74abd5a3bb6644093895fd4acc60e47c8ba97ebc8e52002b5d149a17c8c26738f5928fbaac354b4db76224cda330033",
        "l10n\/et_EE.json": "6c7d17924a18cb1556b17f85ca72c6251caae827ad53a741156b6d00c21cc2139c54ed4f20c628c46e4642dca41fa0ff9363eec15910c7ed212216442a975b29",
        "l10n\/eu.js": "b6d69fbb37aa923400263ccb60defff477699ac78a605a5ff2584412eec3365785d15b7721b596510e838b035b2f736a998e5c91f4c64fbd0c1d45dcb6b7a4dc",
        "l10n\/eu.json": "62ce22290d8a708698eb7635daecc1ac55dc7b36869a15b30395abd1622e39a458ecb110b9946601cf782aa46e22083724ed3cfc98382a708c6ec7ae605c29f9",
        "l10n\/fa.js": "19a2ab7d0c77a408ed36704b18ad7ddab896135cbf40611917eebca63135f6009e2baaa140e1c250a501284f44847ac11ad0d7ac098f01c8804baf9050c54f38",
        "l10n\/fa.json": "a5c2eb3b24895598b998398ae08a016ab0649251b2ad222e3e1ebd68258cb819ed2586f1907e53977b6b29b5a4faad9cfe113c3cef37592cf3329f21af0ec920",
        "l10n\/fi.js": "c7a67ede0c041ce31ba64b57bef9b5e1451c63d0c4e87ead40d0f7f9521b0f99425e9a83ff3fdb101353ae1a54c4e277180437ccd0a433f00305c3e86d47838e",
        "l10n\/fi.json": "ca7432ba9e77749ced6f03dedfedbb8d261f5168044ccff0d0e26ebc6dcbe3922fef63bad13101ceee4ac3fafcf0622e3dc9864845c54e23b87940cff778acf4",
        "l10n\/fi_FI.js": "3ca9be88ad616ba3ed59d0cb552cf4c35c45a8be2ca841c1d6cd3fe29cab9eabef470b1aa73978d1edc0aa6ad2bc09329e17a95edc367e94d6be01696ed0f61c",
        "l10n\/fi_FI.json": "a254d1ff0b147b4590b62cde8c4d5d753369ce4572ea5f974b3d851ed784051347c3de9014f90ffe43f0aab6da8db3bfbf8c79144298142fc5f6b951bdbb1e90",
        "l10n\/fr.js": "055fc1ce6dfcff56a7d4485a158e97bd27749291a426f2c219869b5087a0ce786073b7d0b3e87cf292827d22c63b149d260a4b278a8b1f793b9f09e4ce118406",
        "l10n\/fr.json": "4451beb5b5cb041fb75373e9bf1800369b3e04726ab4aedbe3a142a943e318875cf4e80fee2b3da2ad192bfbb114a40564e44175cb69c84675d768db35b74ab9",
        "l10n\/gl.js": "76df0bfee03ec86e67897ec823eb0980a39ccee38eac51a815aa24ed53637869b58a76edde30e9b45cfd2adde9b2cacd9a3500cb3cbfd758093f6a4c1bc45513",
        "l10n\/gl.json": "df62df38c00191798582d8416bad86e859ba9eef4624b845f04f58f52493a7f75a7bb3f8f862cbf169ce16b538b5b6111948fd345feb094675be56ddbb09c94b",
        "l10n\/he.js": "79d4c15fe28c35c12465102dd82716d9616a9db2116a81c8d9c9d4a547364f9f432d28cc717b4eacc222498257eee097e62dfdc0606acda2373156dce1f5cb53",
        "l10n\/he.json": "9a33ece04ec3e186ca53c8d14918eac7b866f8b21b4cf64de8a63fd5a60c6141da186edfe4109e40119d2d6228ea35203fff1fa3f371093ee5760566ac032757",
        "l10n\/hr.js": "72bfb06ad916377ff18bae14100efd33af869c5583deeac7c505105513650845a553ffa368d15e3a0c63c349726c77864e51fc91fcd1de8c3c3153ba9703ba2d",
        "l10n\/hr.json": "d0f6b31b83296038facb57e91614e3bab4ec647e22146cf1623d522f5708de4b3e9ffa915276c1b9535ba78894544daaa15599f4430fc0536036d576f213757e",
        "l10n\/hu.js": "195443e95318bc8d95491e7568f453bea74645f09df1f36fd45a887bc4c38ae7181fb07654648af88bc201d1a333ed63977307eae628acf395a3d94d1399cb71",
        "l10n\/hu.json": "d286c66acd960001535af7fdd0b13cbb96751f6749cd50336a09c3f8de24dc30177e34627347c25b522e5755c59a5a69bf025b04b7d1a86d1e7af05c9e2e76d6",
        "l10n\/hu_HU.js": "d2bbcab2800640f0d5bc3c13801b70f74cf8a770f01ee86550c9f742be248e2c435cbc35421ea0eed39ed0f7d56f5a66f01049fd9539a1b576a6db783e3152c4",
        "l10n\/hu_HU.json": "915a2331c045c80a025f78811d48bbf34c4081b7a9ec0113bef484dd34fefdb5a82cf64d1b7d41261fcc0565f3f69457cd083d10c0c7ea047ff3609ab5f17ecf",
        "l10n\/ia.js": "bc8c30f20c6ef80bf942423ee6f4463700f5e8d011e63d79c50a0b8aeb371fc44f60e822dfe1aef27a1f797e6f91038211142ca476383851858df96c0efb13d7",
        "l10n\/ia.json": "e1aa7f7cda20c49eb8f7abd6d4c90502b93dfdfbb2feb5969ae1e418990666c6fde0f04033e82ac0b697024e8e8a6591cd1423de1ebda55bd530cdfd0ac279fb",
        "l10n\/id.js": "bea4d48e319881be0ca08e62f719ebe08858ff55f2f9f50d03e0065666c93d297578b925d01919dce1355f211a1687b6cba1e827326200051c9f409409b1a895",
        "l10n\/id.json": "6729bca06bf9ca5f337ff365868d9637c6c397bca63cabb0a79217e24aab6c2a4c62097162fa1cd4bdd3530e528f90b5b3c449c3165804c3942e1f3bf5b4f057",
        "l10n\/is.js": "c2fdafe8df8d24225d966c18cb78680aac26e0c44ab18b1c10290682af08c7ebaa1ef688d6cb3261a6eff45366b972c30237a49457de5be8173ed8a9730db965",
        "l10n\/is.json": "4b42bc4129ddb7d0211382ce1585db5db65f67bd1325db4881ea1e9c61496ecf50be2bbf182a41b1ac8399b9e97b8f9f10d188317366fdc717e53ce4a5001099",
        "l10n\/it.js": "3225e986bb8623eeeeb2c0e4684f18f42e780a9f14e61ca4c7875dd3b90b3f4b8cd5601696748da255c2c6d6171d4c270875e9ddddb9e77c6b8c6ac88f8ef13e",
        "l10n\/it.json": "56fe5221c0bd75d4eafde25bd5b601e936a1f8e4b039061f1bea8a37d37749eb10ce521eb5d1cb2f3deca77f62f7f797b7a15d42182459ef9b03104addb3f854",
        "l10n\/ja.js": "27c2b4ab2354967950f3636fc98ea61e4d5dfd95c50a6e1e63cdc5c53f51376ae8770765aefb8d2d8f48e0cdca970d124a9478ba9f57ed5a97d87c97cfbc4153",
        "l10n\/ja.json": "4d6294d7f9087a65000b47059b4db1cf41900d80b6312073622444dfff82761bbebb63cad31fead3df11982212ae7b9021539ee6caa794fee1d9afa6dbc811d2",
        "l10n\/ka_GE.js": "325e6dad2632bb9484f142d7d0d7ec6451ed730627428356e2ee28d023ffa8c3be0e118235c29c11e373e1346963d4a9dcaecfd34c73928422b6216c57c2d655",
        "l10n\/ka_GE.json": "463dd91150e73decbaefc9d5a47ef70d3a2f0c79154890c05bb144386a0e185135e3f9ac8d438bf2826fb028376c434e8d49d287688ffb5e0fad141e564f8548",
        "l10n\/ko.js": "4afd048863c7deeed45ba8f9181e12cdf374507a334ebc9eafb5bb15fb8b61bbd6b927ccbd4e8750c9b56af695ea5c60b837909b8947981a37aaced3dc0e7923",
        "l10n\/ko.json": "e2ecc2655d9854a549333e2312a8a5afbf9d02f48616c4318cbfbf3900c8f7b2591a343201918ca8826a310cc4674f49be7bde86059f1fdef1f273465337b736",
        "l10n\/lb.js": "2694b107e1129604bf17f2a24d8e48d8fb40d31555691d5caca48fddb4c55cebd107fad86180c98e82e76f67694b186924e66a2a338cc58924f1492da2c09f79",
        "l10n\/lb.json": "2b45ed5fca3f2ef65f498866796423348ac03d6967f10b2b1d16c7c0246efdb18b13dc816d505411339f645a39900673a7fbc4a1c0a3059fb46fab02aba72399",
        "l10n\/lt_LT.js": "d288d87a0e7cb35ef9dc27345a4b14758e452048dd64dce78dd13bd83c0466bd70a3dc1462ccc63afe2f27c017c5e67ef17a05e089f8a906ffde71d4692cf9f4",
        "l10n\/lt_LT.json": "4fb79344c1edabe6e042ba48b38c3bc4b378426c354d5e0ebc224c9b2295eb15897ab26da1ce167ae98cdc311664da85f36401fd82210237754b0d7aa462425a",
        "l10n\/lv.js": "73dd6996834201349375d25e6f067eaca5c9b432e6fdb32b60fab130b37daeafcb4a90fc85e923b86ed36b1f118fee2ad2cee7b1c19e37a4044978b94a85fe8c",
        "l10n\/lv.json": "61321e5718bab99f5e46c3b90b56db8effa059fc59c700d5b688b704e83a9aa6e469f1a9b3b2ad7b2cf3d3ccd775a0738c8d701199c5a5f5ba93b7690053387f",
        "l10n\/mk.js": "ec7105266fae888b933484f2140d4622f9fabdb12d56336aaa8f00662064f8ee4d773358e80f586cd19183e5fd4f4c970cac43f9c0f27cd78b46438659b6ba9e",
        "l10n\/mk.json": "e27d91b3173d6162236c3ce8475c86b24c0a9923ed418b202423806c7903ef09f4c9fd3f5abf6c48fe51f237ac9c612cf9c173269d53d039d06beb150e6b1e12",
        "l10n\/nb.js": "d4237bf794e096f4a67bb1878b1f9ba1275030aafba8e4359f5e92758cf4f21a798b6f0de6ee3e8d9c11f292d14441fcddb37c4955a7cdebdd27f96a5ac6c6cb",
        "l10n\/nb.json": "2f6ea883c77f50b92adabeaf254ad462bb9509dffac84d781c631525ffd3ae75a80c9d7737c5a67ed65112d29bfec7557dfa8b09ab4a9f3f856c41a2f8f0bfe2",
        "l10n\/nb_NO.js": "387d0ae05b796e1af1720740d8732ed0c61f6983b71aae5cec10ee0a2fbaee7ed676cee7b9d0ebea255072da79213324c98be31b564bbcccb85ad4279e37604a",
        "l10n\/nb_NO.json": "f285e3fbb5640290041692bc8f7f796f6482296f03b1948fe6227cb0de9b5e37fbb1f62f4f62b3f3e0176c2ed2f05ca7d1774be56a66d27479e133b1b42695c1",
        "l10n\/nl.js": "848aecfcc496f71be1311b346f0160f9c1c79d7a0002205e3cf5056722134cd46aec5f5d91932b5a9bd390789aa2f2f698ff4893201e95e00a093b235adc10e7",
        "l10n\/nl.json": "3cc60b3cfb62229beac991890701191046652a59cd8f70d1214e6bd17704232a1ca8bc71e48ccddcbfa5ae8f1236e70e1c7d93bc0daaa219d0ebf7b3d5baeea9",
        "l10n\/oc.js": "c8db96e664fe00e4b63c4203e405ea6bf61001915951c3c149b853e79f845d90ab5cfd68df56fac0a705cb5a7d96813f1c8664710541b5ce8053aa1a76eb564c",
        "l10n\/oc.json": "87d9845f534ad56ac574eaa40dfd3d5aa1c5d379829ff1c6d9ea2897986f2c3b7156b9646dfe8b2a21abef4076d9ceb670e4e90d4153b9abcf9eea4ff0013fdf",
        "l10n\/pl.js": "14c7f96732bce35db41f835a312dcafe146bed409714134cfb7e515cb86907b2e55f22ce792b12206009a052d7666dbab98ce74b5201c83c763acfdd806360c8",
        "l10n\/pl.json": "0bc6f5f05492e02f038b82ea0cddaa02d0d4961d550e26f3aeea74897c795b79a2e78abbb47882f589424df644474e08ef1b909f0fb7d636a08490e6864da5c6",
        "l10n\/pt_BR.js": "b688366e5ef6d8b396f52383d093f34489adb6d69dd381c18abfacfea3b451680cd67078dd28f8b207cb609712df9330c3c877b9855a75ff7b4cf93816a97e60",
        "l10n\/pt_BR.json": "5971f8c3cefe3d134e96cb99a95741976e3e82176a9c563da70a0f6ee9081c8925cf58ff11b179b7b4255deea892aff48894877bb783bd0de4b496072aa96555",
        "l10n\/pt_PT.js": "041ac1452f64d647d1271ed9c8a2ff3fa2598e1f131f0ee1786be488bbb6cdaf3cfdc46eaf1d2de30279cb2f72858105f9a34deb46894eadd1528315a6d941b5",
        "l10n\/pt_PT.json": "1b37e6e628cc216e705935d6c289f002e554170f75f0b045b6c1192aa632df6c2862fb5d05413e0ebf0146d13396ad8d0aab5993005abf421aac55e047d0a7a8",
        "l10n\/ro.js": "12139c54dc7255b8f6230886b234c32f78117eece5832f8d593891d78e87b26f618e5a68bec88459d2adc414c0a85459881e40dee37abd4942c1c381ea671bed",
        "l10n\/ro.json": "85d6d3a73dc989c550619da95f7ff45ef04ffdd31f6c1379507567b5b3271e70079968ed7d5bc37374fc54972c886f100c96aba73ebcc773ae5bb4836c4329a8",
        "l10n\/ru.js": "7332c7ed7466c49d729beae8a716afc4364e9e35b769d489142e21322bb4737fcf37c24a7713f56069190b873778ce98fb49600b142985b969664a6eed0dbfa1",
        "l10n\/ru.json": "ceff28bce6fbaf3f3a14ca33124aaae62a399c7be2b9bffcca4c50fbe4a47ebce73c91718eea2df41bb4da22d94cf1774faaedec1616fa470db91cc12afc73bc",
        "l10n\/sc.js": "d217b055bc04b1bc90c03f365f228ffec69b4c1060e520d86e851dacd1db9c394bde9ae99a493d6bb2a38c5799fd844cd83b3305b6dd3bd48a7707121152f115",
        "l10n\/sc.json": "85d5aad1679149e05563231c3de633ffa28532c2652021bb2eae83892d1c1aa3e8e79d7802ae57070eaf0df1e26b434d52d1b23ba9b445e024170231d1d4eb66",
        "l10n\/sk.js": "72f08c1929ecab82b0d5a9d2c9a320fd6034458e63af0920f0ce7c02a17a5a0b749be5169a4728f5a81f60a7262796cdcb2d86beec1959f2672853ab632fc829",
        "l10n\/sk.json": "6a2ba671eebd4fe77622e386eb3bddf2007eddbf97d23ef8576c79a489f10cf772569c05e9de802eda190355989da7b6f67e36f59c1860f09a9dd335692a176e",
        "l10n\/sk_SK.js": "9744319807bf6373e280c249171a81c493e86e1ebf1063be6e157f1b62df102edb4276f7332099705e28c8ebf9017ae334dfeb01215f638400f6f57c8e5c7a77",
        "l10n\/sk_SK.json": "bdc0d0d1c35c12d8dfe987addf66e22aeb278b662b7ef312872c9596461afc76b180d24b0bef38a658d2851ad021aac2faaec37aab5a0cedbffcfe8b87cd65b7",
        "l10n\/sl.js": "84ed04af3c0b7d28bfb175dcbd27727892cdb0cb4713d2329397d9d28994e0cad23e31104277cbf86f3efc6aee45f6414e19721da5f59c718143e4fc165c2856",
        "l10n\/sl.json": "5b6ca2911d54e7f0eab50af9aaa82f92e94c485d7b63f4bd8f0e5a28ce9e808ad872c8f2751e1c0335e812e37dee3ae88ddcc57956e4c38b7eaee2b6b9b8f8a1",
        "l10n\/sq.js": "2877a69a1049b76b52bc0eb76ccae98067cf7b411ff163091769d7e779c61e2a7d4c3ab92a2a1020a3fcb1626168b57f8ea229cb1a9d5b1d19ec272b2ea01c60",
        "l10n\/sq.json": "305bdc97e3ab876ed41be1a3b82d0866d1e32096cb1b4f74733607ee8fdffcfe5be72759838bb994b68b449e0b4aaca8495a8df105cfa7c8dc6e3085d3daff20",
        "l10n\/sr.js": "4d8bac05f27343025344eb8ac61b9efbe8f799070983dc7208888116bc842b15b8c492b008ab3bf5155109b7d824e313d2d8d3dad18f039f532bea629c373e42",
        "l10n\/sr.json": "69fba11942f97c0a0783e8ca887e8578045c0227a87202c1e4a349b58d713e06d3ca60bb3383a25d3b8065af5632fd2665db6f5ed5852432f8c6e6ba780822f3",
        "l10n\/sv.js": "0c9a382371edd457c13ad8f4c9c394bcb097ce1a4e6dd07ca18f866e6f4ca6ffae5b2760bfce200f046e1584ab0141cc65571c75c4882947c464544fc1241b72",
        "l10n\/sv.json": "7a202e016ba793ca3f07f3e7aa49ea018c6a8a63e0eaa91e79c2c42d0a3671cdebc44da206f32568d45860c087335ea26beb5adf01440e3a913ae1f5e3005f6b",
        "l10n\/th_TH.js": "d480224736fcac51d1c8a0469ba8551a0fe1b4d7b0d87a10158c7fce7383e228fdb89ce69613ffdc3de9e78fde6f1ceea36781ee4b8539c6c08077ee1f35007f",
        "l10n\/th_TH.json": "c3cafae249bf025a29bde10a0b8242d969faafa3208ff822e9d713e8a4d4d746bf49587614f71bb4d1ff8f9b95a9e6b5be6f649c625a580fb7d4c79f7eaa2de2",
        "l10n\/tr.js": "a0d6b1ea5a1fc63158f2c0d963be08a85552a7ed218c0f917ccd44151b3a3dd7fc249e4031173d7a338a9a5f0884985159662a61e2df30ea6ebbab1e73a06c1e",
        "l10n\/tr.json": "7f1643e6e26b9257661a2699566e6f7c8a5aa152a8efd128430e95927803c259cc3ea54bce9a44a97a445765ed89161998e95545f24db2affdb03658feb3e846",
        "l10n\/uk.js": "d079d6d6c53256bb0bbf2e26c81c3509d9af34b41f12bb3ac84b736ac9f6f134958b1dcea2151f39f42c6eccfa3367763dd1ea23fd622616d483bf80a02e615d",
        "l10n\/uk.json": "bca751930bb2818e7da37f7786920ca6b1c74325ed709a05d5952885db267e0b36e33b982c620adeb3d3feafc6c2b6a9db2962d956b42ad08e188138978ff56b",
        "l10n\/vi.js": "777b1e648a1eeb577c207142633f38fea57593cfe8725be7b662b81cd885fa4985f195e2a5b4e8870328f549ee483d1e967bfebfea6cb6561720eadbb3fe0349",
        "l10n\/vi.json": "70d02ef9195682fff70ae9a9b36195edf119cce30266d0bf5065ffee7dd5aceb21b616cd1898a9396ed358445553812df9c452d7779c5f51fcfd2e14ae1ecaca",
        "l10n\/zh_CN.js": "f81e979a38ece9c6a2f3f838deb12dbc4a405a1a380d82c93f0580b9fc21ef8545c22b980c377da235740793cd9f58ca2c77a56343dac9a65153e833acbfe5c0",
        "l10n\/zh_CN.json": "d7be220a1d75712b60cfd3abf83606ae9f54e0f035b0044ac5520558cb1e0b27060f6abbcc88fc52bffda33c5c3f9609203589f7a3975f6706112447ab2161a5",
        "l10n\/zh_HK.js": "4b2d61645306798279d601befd9b90d98ecc7b55816437ecc5227bcec1819d0871c0af30daf17baee967af69235d33e3980fb7a2e9128577d4c7bb0864d8a208",
        "l10n\/zh_HK.json": "3f12c5dbdf9c5e55886d3d543c577eee725620e47043c78e4a07c3cb2ae0dd9fcd5949d590f09da73c2a7e64f3b58ab6444cd9e1f9d187493bf3205afbd976fb",
        "l10n\/zh_TW.js": "698caa8546a2122cafb68ca3d38572759cdc4f93e3e12fd4600e892c2b5283ea255e89f8c4a67ca26bb1d6cb74a4f5b8246b5ac34f2c0bf93900cf0564420488",
        "l10n\/zh_TW.json": "2278bf7f012247fcda7754ba71d7363c2debd65848dd6320a906b9c3a80d0bbf457774d76e6a81b57db74e4e6a5b491225e8260361ba616e00d691bdd22953ca",
        "lib\/AppInfo\/Application.php": "5c869df71389fa64833491048b8a239023d125e58ac9c3afc24c137218e9b77638376070886f415ae12d0deca21e0dfc6dcb768dc0086b3db8957cc09c9863da",
        "lib\/Command\/Check.php": "99009fe61556afb2a5b90b83ff80222420712082cde8fe18cecd973f6057f23e9fabb9ba1ca4d4367222125edaa36ef8cd0d3b180bb0327660a25ebbe24acd39",
        "lib\/Controller\/APIController.php": "c738f06a359750b9f3bd2a730c9f7fa30de05f484328232dbef30a3531d36dd9dce433257b3f5655daebfc44263edc8b3c812905aa2fe7f65e36ca50c547af14",
        "lib\/Controller\/AdminController.php": "4448f277e0f19afb010669dcc030e4f7ca5ca9a555462bb6b9d7f6674fa42c8e08cfe9e155c47b260c000527afe85ef527e5762c4dd2ebef6019275ea569c278",
        "lib\/Notification\/BackgroundJob.php": "75d3fdc0b97e8804df354d64205815f2f41d34682fddcc8da9860cee74c08e650761bd8bf8192b147dcaa05b4490ab60a3a4e5f3c72985fafcdf6d51a7ef3277",
        "lib\/Notification\/Notifier.php": "2ae63fa61961702f53b00f77489e624c9ec61e1e1b36f33ed641f9903bb98f1cef1a2772d5788e2eaca2052d276a68c6d5b8338e5c74a6e7d06b6205409717f1",
        "lib\/ResetTokenBackgroundJob.php": "84f588e4193c07935673ac74dcdc96c978555dc3d53a962799e8165f27afc608f817d04d940ee82a41b8700297d6bfba1bc2e0ba3bcc923165df12770d51f07d",
        "lib\/Settings\/Admin.php": "dc6a2484e02abbedb45c6507b1dc1c6788771f5beab91ada3f40f532fad66074e0008ff9851a9e9089f02f22c1faf445e9205eea41cce54d74da9ff61e14e326",
        "lib\/UpdateChecker.php": "2d5671cf9a8c5221a4662bfe2bd640c1a7bc9aa9765dc8856feaf0ccfee40a492b63f09c4df50d94db4b2fe1ed0f506bd1cfd2b99ce3e2890975d2c362f9fccf",
        "templates\/admin.php": "d9279fc2b187bebffcb7a2cdf9e384748737afa329840bee40aba3c2f93df0197b286e9f5839eb452d5b8bd99102ae65fd048376ff2cbf22235e7653f5aeb953"
    },
    "signature": "ubso+u7XfwLl7Iu6YzstHhXeA4KPUEC4pWjU7AqUg6iMpi4OrZT\/cx39hJIakq\/MXL6AUmmmc5o4qX0IfHQoIB0\/gvCCB5EsYSTfk3Yot9afAik352V3WJicL5O\/IdomqXMAWjuhs3mTh09M2e7b\/k8lQQgFIikfEfgemQb99AyAWA0JESuYO4bCgu2YhwPjcqgCV9qIGG82kFimDjZQwZIj0uFiDfFUvI\/c8k1BQ2D0mzI0dMYTG5UAWYbzM3BXw5y952xld5gQXNXAori7BBol0fhT6cbVPENi\/mD5cCPWHY54Wm7zwib2R6D8TQmhBtGzDxqH1TSTti845yxW3A==",
    "certificate": "-----BEGIN CERTIFICATE-----\r\nMIIEojCCA4qgAwIBAgICEAAwDQYJKoZIhvcNAQELBQAwezELMAkGA1UEBhMCREUx\r\nGzAZBgNVBAgMEkJhZGVuLVd1ZXJ0dGVtYmVyZzEXMBUGA1UECgwOTmV4dGNsb3Vk\r\nIEdtYkgxNjA0BgNVBAMMLU5leHRjbG91ZCBDb2RlIFNpZ25pbmcgSW50ZXJtZWRp\r\nYXRlIEF1dGhvcml0eTAeFw0xNjA2MTIyMTA1MDZaFw00MTA2MDYyMTA1MDZaMGYx\r\nCzAJBgNVBAYTAkRFMRswGQYDVQQIDBJCYWRlbi1XdWVydHRlbWJlcmcxEjAQBgNV\r\nBAcMCVN0dXR0Z2FydDEXMBUGA1UECgwOTmV4dGNsb3VkIEdtYkgxDTALBgNVBAMM\r\nBGNvcmUwggEiMA0GCSqGSIb3DQEBAQUAA4IBDwAwggEKAoIBAQDUxcrn2DC892IX\r\n8+dJjZVh9YeHF65n2ha886oeAizOuHBdWBfzqt+GoUYTOjqZF93HZMcwy0P+xyCf\r\nQqak5Ke9dybN06RXUuGP45k9UYBp03qzlUzCDalrkj+Jd30LqcSC1sjRTsfuhc+u\r\nvH1IBuBnf7SMUJUcoEffbmmpAPlEcLHxlUGlGnz0q1e8UFzjbEFj3JucMO4ys35F\r\nqZS4dhvCngQhRW3DaMlQLXEUL9k3kFV+BzlkPzVZEtSmk4HJujFCnZj1vMcjQBg\/\r\nBqq1HCmUB6tulnGcxUzt\/Z\/oSIgnuGyENeke077W3EyryINL7EIyD4Xp7sxLizTM\r\nFCFCjjH1AgMBAAGjggFDMIIBPzAJBgNVHRMEAjAAMBEGCWCGSAGG+EIBAQQEAwIG\r\nQDAzBglghkgBhvhCAQ0EJhYkT3BlblNTTCBHZW5lcmF0ZWQgU2VydmVyIENlcnRp\r\nZmljYXRlMB0GA1UdDgQWBBQwc1H9AL8pRlW2e5SLCfPPqtqc0DCBpQYDVR0jBIGd\r\nMIGagBRt6m6qqTcsPIktFz79Ru7DnnjtdKF+pHwwejELMAkGA1UEBhMCREUxGzAZ\r\nBgNVBAgMEkJhZGVuLVd1ZXJ0dGVtYmVyZzESMBAGA1UEBwwJU3R1dHRnYXJ0MRcw\r\nFQYDVQQKDA5OZXh0Y2xvdWQgR21iSDEhMB8GA1UEAwwYTmV4dGNsb3VkIFJvb3Qg\r\nQXV0aG9yaXR5ggIQADAOBgNVHQ8BAf8EBAMCBaAwEwYDVR0lBAwwCgYIKwYBBQUH\r\nAwEwDQYJKoZIhvcNAQELBQADggEBADZ6+HV\/+0NEH3nahTBFxO6nKyR\/VWigACH0\r\nnaV0ecTcoQwDjKDNNFr+4S1WlHdwITlnNabC7v9rZ\/6QvbkrOTuO9fOR6azp1EwW\r\n2pixWqj0Sb9\/dSIVRpSq+jpBE6JAiX44dSR7zoBxRB8DgVO2Afy0s80xEpr5JAzb\r\nNYuPS7M5UHdAv2dr16fDcDIvn+vk92KpNh1NTeZFjBbRVQ9DXrgkRGW34TK8uSLI\r\nYG6jnfJ6eJgTaO431ywWPXNg1mUMaT\/+QBOgB299QVCKQU+lcZWptQt+RdsJUm46\r\nNY\/nARy4Oi4uOe88SuWITj9KhrFmEvrUlgM8FvoXA1ldrR7KiEg=\r\n-----END CERTIFICATE-----"
}