{
    "hashes": {
        "appinfo\/info.xml": "e06a31704ee9ce1f6ecf87a6c609cbde1d0bd7ae23b72c5c7fe29c7b279579a8a4cc67377d5b55e98152dcdc957eec47c1ed0d6d8db7207b2f19e1e526a0fbed",
        "appinfo\/routes.php": "43f271ad98deb06369e63d706d3b3e9e3206c8ae9e643e08d169433ea0d3ad6afe57d17e953c513b9c461cb507b9dc129f243e02b437225b282ff7cfa1f0aad1",
        "composer\/autoload.php": "5fabf6de09c2d6b6cb33911f79e94eff2ff2a464a294ee38e07b30f56da8208233a31378cb9b73ae8df083c8c2e62a2070e484f23421375dbd5ff5da471d9621",
        "composer\/composer.json": "0f7f095380fe81e2746c7dff40fe11d85f924f03cf9ee1a52547fce2e20344ae0018ccd63731e40bde3b9f521bc31f60d9f95df594accd6621a1f99d58ba3c24",
        "composer\/composer.lock": "aba0413aa705be0d0570c496a43249c551836824e7a2b4673b51838fe0d9f425ddd07b6c4b95aa74ca549f58e90f2a7d78b51a2a3080749a5dc2e4a46d04fd1e",
        "composer\/composer\/ClassLoader.php": "3755be4d1c0303467ba081af7a82346e47dd178c90622197df41eb2b9b5cabdc6899d399776c16016309765c30acc269aa6873e61865a2cfd276017f2f0cbb82",
        "composer\/composer\/InstalledVersions.php": "f6450ce4d537899d48a9608fa4c3c8f852e5820554af2c0534639a33a1c551caaf67901493aec5617a48ba8b425fdc8cbb4ff18f6ae72cb5766caa2d2949fa33",
        "composer\/composer\/LICENSE": "f3bb64009f41a425df5a9bbab53490f0eb9b74fa8d6aaa2f57efb928edc4ffff330260666edeaa04a91fed708c3663371cf01b284f3a08d6698aaef7a23f355a",
        "composer\/composer\/autoload_classmap.php": "3391f8c7df4a2214680f53a9a20b9e540e7fef4fdf8372ea14f267ef65e9a635ea1b51244cd083c9418682b9eac8108ac91cf53662ea2b383cb0b1aab4cc4bd5",
        "composer\/composer\/autoload_namespaces.php": "dd8ee31d2faa9014fe567e1f954b5e7f450cf06feacbb96d4df663c59b1a36a0b7d26ad41b46354bd14f282fa7899298137208d1851099cd3ada285650efd90f",
        "composer\/composer\/autoload_psr4.php": "3aa78c1ba366cc8e15cecb46753338fdd234d75bfd574fe20684aff1557a881d4ef0d0659421a4ca18c22387c48f842bc3d578949ee59c5a2a97794e21f52a85",
        "composer\/composer\/autoload_real.php": "b029eb4ec5ab707c6430219e27b5d6671a4f449fa39f8d9f69c347f1b1b4b08bfc0ee8f30d5ad63a11a3dc1fa8b5b79c4bf275254eda96a85f55923ae03172ba",
        "composer\/composer\/autoload_static.php": "9614b39dd76750132319fe13e90886957f358b8b2194955e41cc697165d3df883b5e092ddad190381afc450f1f399a399d17ca2ceb129cc2fc8c604cfcc63235",
        "composer\/composer\/installed.json": "0a3ed51f953eb945b970a8eb21957ca2beee4669c7d0d9be97b8259c391b60688f8abb78d4b1fae5e4e2ea5e3d8747f4d35f066a2605e9a76f5b45ec3f1da357",
        "composer\/composer\/installed.php": "e00954d469214ae60716e07a19e6adb8b6394ff7f8d736e36deb8185ca2d0aa4e419f1744618040120548f08b3651a8e98c3362fe91a185268e1fc48a5d195b6",
        "img\/app.svg": "b9748b6118887c504c67b7766d5e75728eef1d88abfd21e7c88f7ffd2b8bc9d5a49a082007f8faa7054458acc3dc14fb29c26439d8da9a237d039d4fbc27fb5e",
        "l10n\/ca.js": "1a822c4a95d20705991c7d9bba3267e73b35aee46ed0e04771be0cba64b26b2a245b9b1573fa91711a251d89a2fd934d768f8ec7f1da772193e8bb2c49c1e821",
        "l10n\/ca.json": "98861809b28b46715e6d2061b885edbb15440b01867b33a914c87ee687d5540453d147ac1e8e786ab27f07c7d15d89b1c32335cc0ff16beddae99a065ace3c0a",
        "l10n\/cs.js": "b73e69a3f7e895b4694342b5be2733aff1fd619431820f186b298df12a28a10dee03a2e46bd282c841876a90f0dc2ee32ba8ea92890276358bb4a46c63db5764",
        "l10n\/cs.json": "8548eb438c0e21745407d03104bedc02b7ce2ff2da9e90552afac7260f6da7fea53b7a3e50a6e00ccd9eb9f687edb6d53efeb4d9f9e08a215c687816eb3b730c",
        "l10n\/de.js": "70c9e6abc0e243884820defac89e4a3e55571b6fb0d1e8216e811689a333a270feeb7895b220db3048456ae97e2da3f6251d23f0d0426c650d5c5fc50cb2e658",
        "l10n\/de.json": "3eb687336db48dff1e08298cd65dce20f3cb51e9ee36b81d86a00541714ba2f1d831473dbbb8b261ae848e33f9d11d4bef41d2a9954a13c30321a95bda226c39",
        "l10n\/de_DE.js": "6f9fde559334bbba45fba987488947832177848d0b34111c94549bf1a134196c2f8d891a428c21733a939bfe1e3ab2485e724d1c4276691e0e309dbfbf196166",
        "l10n\/de_DE.json": "35dc828513316706c997d7d77a935530c1a8986365535579f65714133da8d9125759d903843733452069e7e9c10589c670402483d2994c8d839f6e05d06a9020",
        "l10n\/el.js": "243bd12cd9732a2443f4b7c6d011afd11e52b58dc48aaccc1a1b0a769626a7429cd95db24392c50396fcb5bcd4da6065202418389f945674b1841e24dcb0cd2d",
        "l10n\/el.json": "1fce3ec71ec2e6046fd6f661c77ce37cd7bd16b1c63125df261a44b65e7c184397d5cacd780733193dce92a2212abf9490427ce1451b54e9ce0ab7071d80680b",
        "l10n\/es.js": "a07e8cf2af0faea8a369869e275e69aad89d9df0eab3bd7efb636764ea3578f164990b2c7f0d88cc83c4c6111e4a376dcd620a9d5ff9fdf6730086cb4187f509",
        "l10n\/es.json": "a43ea13269d19c5b0aa97f05b60d7b818b6fb638b7b35dd6c031d54853d39bda6ec91029a4a9a14a34c34bee1e1658db399fc6c54ec622bf4218182fabcf7fe9",
        "l10n\/eu.js": "ffc33f99fa514e59ba49be5ca5827d435f32129a1dbf0a5deed3ef404e72a46098d6ecfea79fecbecb1738b452152bdb7c4fbaedd09dbbd04d79d323e149f618",
        "l10n\/eu.json": "34ae3ac18d74d5c26d0e193b523e3d73fd3a823e2a7c1f03ac5e5bf84d0c1e16a5fc01a20c5080c673cf53c9a7e30c256ed7ab2daf380f966e9f2f776c31c970",
        "l10n\/fr.js": "365f39c404bb3fa12160e4368f6fd942a47d426e14b828b68d551b8e03969a8957085946ac5407b79d67b3374114d2ad568307bb0b84ea3afd2013e3860983e2",
        "l10n\/fr.json": "f19547fd06f97bc5fbfe528f2d02926560d063ef8cdcf2bc9a389b330070b1f07a5f7832675817f24ac75c3c3c18d7bb6d9ff16a1323f53ceea7b2a4391f52e4",
        "l10n\/gl.js": "98f161683179dfcb6248753fa82d204816580e04a6418814240b8b9dd65560bdc30d4f9dfb1e54e372ee7359e86ba41b1ff916645f064acf9f5d24f2f8e72ca8",
        "l10n\/gl.json": "ccf15d342883df6fd5b3467f14af3be1413a1c01eaa45782da0f2c0c735d7ff3933eaa2617a5dec57d48c5b5a4f2789dab2fa88b7f04237ba86e31fc7232cbb0",
        "l10n\/hr.js": "477477190998c3727291c8e02115cfcd8d164d8c85e14fafed477ee0a2a07a2839c816a9bbc609868f4bcc430e37ce7f9ff1c662ea7df3f483ff817dcdbc072a",
        "l10n\/hr.json": "bfbf8d611183bdd89e7c0fb7c031172c1780768ed4a6e346d0be05e86edbb41b686a962f0b5824f9899aa19a0806a6b5845a2313ebe58d8f7269d5cfbb2ccad6",
        "l10n\/hu.js": "f171e907a7a37c54da442a1485eebfe22586b2e7c767b1b310d0f58c466154a07c3236b40b7fcfd80634f8e71cc632319cf3bd2ff2ca65aeba4d999a8c319db0",
        "l10n\/hu.json": "98e57c73dded852b393097ee8f9c53f14a46e05cd4a8abef9f33d9631bdea04603ec2899ee90ceb19a8dc7268663b6d96c70cb3e170621a54f14b215130f4427",
        "l10n\/it.js": "306d268fce1e465d7fdf0012574f78f32b2b25d9fe9e647c7fdfe4346e4ab54abc211988be7a767ef7ded4deeae4244937a7a72e0a082747e7b08083b126536f",
        "l10n\/it.json": "3443e774832ba2b49243053743639813497a4d9789b710cd4a28323d20a6ef148b60a32cccf7f46d081301ee6865ef3705fea23b97cb9c0eabe730eded7c4e5b",
        "l10n\/ja.js": "b1b9559fcfc577eb491b014c774993d0c9d55dce5df8d9c4ae2834303a9bc2412eded72f42e8a4b7fce16a1468d8a8935dca2d023daa2bb710da007467fadb0d",
        "l10n\/ja.json": "8821fdcbc1af1120fda90ca189ad3c9b3232840d6a0d1e29bb5168b34b26bf2602918de1472b41124eac38be568819aff2945859b6479fd176032eb7cf12aa53",
        "l10n\/nl.js": "0db9fe5fb25ae8368117e88c78847bdc7eb5d495b0e28dcc629f144fa72bb6d684b8ab699d1ed5987af44a0975b2a98c89e6e431456e77527fd48cc1530c9ed5",
        "l10n\/nl.json": "f11a033ad422e78f7a6407db220f50177344883b1dee02e6f28442a40f43607c68248721f1ffbd417a08e6d710e29caded47041e3e9592ec87a4c773bc335860",
        "l10n\/pl.js": "d5d4d65ef759e0894c1a2d4c724f4d348c7be9407755045550f4e1ca54d4dc971105990fa455c64cd49f634b8708fffc06b6c9fde746719d7da1f965e8b9ae5b",
        "l10n\/pl.json": "9206af8c96d04958802b8df97331e161c1ceb4470a46262c9ccd8a7003a9f47f3e8be8b69e51b07a7bc9e5c4a55dd8296519a579c057ec44f5d2221437c103d3",
        "l10n\/pt_BR.js": "c2edecbde9b0b546787fd3703c7cc95fe1f04daddbd184fcb99803f39c6217c8bfa1d5bb4e56259abd4c6515ed8cde02c2ac6dcaffccb4d71c79cc1633f87c5c",
        "l10n\/pt_BR.json": "f8f79559f06738d49050047d1c1358bea950c5c623f27898e2ebe9640d621c81774df1ee06a5a3c5408f29408989191ef0aafeef3700f3a8abaa6c42d3f94b6b",
        "l10n\/ro.js": "8f567e29ec366080f8d98f8e0acc59bb6bcf25bd82511b7ad9d09f13b9cff6a29d5bf952db52836e9012602addb0134aa05e74e8d8a365dd79c1efb25ff4285d",
        "l10n\/ro.json": "eedb3df3717d1eca208a2cebfff0514e6a35230549fd2cd0f1b7be8e609576021b9ddacc7653b455aac67050f22e37de5dd1b2b29ee56e6204f24935df8d5c4e",
        "l10n\/ru.js": "833d0e76cf806cebffb98957cc666f947eebbd49bfb0ddbd7d5ad863dc071bd2d6efdf2c233fdf6a4a7eb137cc986eb0496bea956ebce9742c9c5af8e3b365c7",
        "l10n\/ru.json": "4d9af288f8378eeffb8f2908d49b5f451469560bf9368e0a43a89cf0ec0575d086015c0bfaf8ca42d56e70b81019fd400212294e4b4876d54c8bc121dc27cb33",
        "l10n\/sc.js": "16d39ec76e7a3d94107c4f85d9a8fe861071e69d429398c900b53017c78b061c2e78b6e7b255b3105d9ea02132b9fe0ece097ec6e433f59424c57d0ea21890e0",
        "l10n\/sc.json": "b37ea3014451136006486e636fd57831c83a2ff3c03cee2ee94d42db0e0c3f86c63273c6c6e7eef26b065af6d00a2fc339232082befb850d935a3e3cd1c36c63",
        "l10n\/sk.js": "384bad18806bfe1c0b32c9bd5b67b3842f1de73d9171b56837d96ee361f5c8389aef4846c0d15c0dc9afba605e76e5de5e0e602d9fee7025fa4775779c009a76",
        "l10n\/sk.json": "3100312c782f262c17edbef1ee269cd0394d9875576d950b79dd91cceefd40c2d77ec479a11f2fba41b8e74cee9d42f582833a86f662c7bf242f5324896a85d7",
        "l10n\/sl.js": "933097ba822a9de60cb18dc1a370a99ca0b7b386b3f23c9aa2e6688d0ff9f5a09b41453dac74607dfdf37d7ecf42a9af01e6ebfbdee0f3e70abb5708fc52f5ef",
        "l10n\/sl.json": "7a453a544622db44f13e5fac9c3b44f354818824b49e980f19e709e0f57ba0003e1710e877e0bf33928090dc2b56ebe8700c6fa7c3ce0e1e08a99b75a2a0138f",
        "l10n\/tr.js": "bcffc44804791af5ee874f13c1ad2c3fdb511d17dd961a2b414c93bd3efaca5b59956a8f4b46684a17d8f8a1a4844f2776f3116cb418950f283f57286a98f3fd",
        "l10n\/tr.json": "62f1a55c815aaeba4b99a9c26c2baf28ed4030a5b9e5110e79084c62ac6b5acee13dcabf1c7eea73ddffe6b9e09a4000272e16e75a311b47d4f22cdfc9163a62",
        "l10n\/zh_CN.js": "6294274eff38f0641e62747bd270239f152de1f67a267275a04ee3177b10d394337913d6bda4dc2741b00664f29c6bacef0150280335c526f155fd2f4b81dc82",
        "l10n\/zh_CN.json": "68661a3a963751011815c91a9b7a2090c88834d66d5490e3065a037af2d122592e3ced70a60cdbd6864d2fc3ac5ee61fea73418443a016b04cec6cb52e7ecb95",
        "l10n\/zh_HK.js": "e0c9bdfdbb15dca3faea0e538d4b895860b881dd55f91c1d9be28b5393fe6a7095facfa7d8fd11505808ca34d31be360098ceb23fbc76ca0681204123d690593",
        "l10n\/zh_HK.json": "1c42fe1798b3fe1a02a3e2772caaae417f2d2c027200c7be643b73e2c009efcc0feb3e5d78c8ac285afe739b7dcec75bbdb62140e8c3797066c6dfdbb09c3374",
        "l10n\/zh_TW.js": "912ba9de4df468954471735a4883ee3ccb1d205ca8cdb5fb859253ad9d8a9f479102dd2f016c82ed5a03643ef4ac518cae42eb16ad30473374288fd4e8a4de02",
        "l10n\/zh_TW.json": "2667f0f8076598a7b8780de356e9479522a77944e3f15693ee72c89cde1987ee72c192dc1a34550b5007324bdb0e8a1971ce851a7c1fa0e7771e8b6e70609570",
        "lib\/AppInfo\/Application.php": "283ae1e280d4186901b8a5c0935021cbed4b5e7e887c024435911c073e6d32a6007fafb7c939a66ec908e966e7475d5ff499cef227fcbdf5a5699711b9421777",
        "lib\/Capabilities.php": "db0f9e2a249c5bff47eee45783a875105c51036933d944207cab52b8111f34ce9efcac3fa88bfd8a9c1a824d0c04dc420a7d2d16ac507d55f39fd3061159a642",
        "lib\/Controller\/AUserData.php": "21d35ba0940373edb90142e741da368779a6ea9fa46e0989ceb7837fc889f58a4edc9b4e8deb58abbea9307ce7c65f53885316d078300b52943e55ff475180d7",
        "lib\/Controller\/AppConfigController.php": "12504d21e4d55a1201625bfc22acc938e2c11cfcdd828874dcad5857d8953fe8bb17f60e4f04beef8318b12ac29744f244925714c019d3b8d92c8bfedcaac08f",
        "lib\/Controller\/AppsController.php": "9ba18d0bdf57b9b95d3daea8671c387ee01d6b9cfd33ecfe23a9e0b8a33814144d27792163aa64f7c51eeb4c5f7e9c70731afb5a4cce83dd8442a55df4d4f385",
        "lib\/Controller\/GroupsController.php": "52749a595b70f5817cb6c3fe6e653327106eb61125060708dde535ac0f39d67b53a32cf9131e88b5cafe63caa94b0889dd9a267d4947d35a220f064dd31b5ab6",
        "lib\/Controller\/UsersController.php": "db1124c80092e7957d2b2bdaf2ff4cd65e690dd973492f5b0a6bb5d83add36b3f17124820ca09f833289d4b183fb2330f9e2fdeebc889d0386f01b8cec70888b",
        "lib\/Controller\/VerificationController.php": "382278641801399303bf73016d39f7481f98696a65c08f1a2e96c6c26b52b1fd0546bce5646e9ef49acef25dd9c72162110b5afef989fd9bf321923b1c9cf6c3",
        "lib\/FederatedShareProviderFactory.php": "e1fa473d53d7cb7eefffe22cf3b73f30dac62c35605c10d07f262d04b0681c04b0574629fc49ef4a3a58e957a901ddc56e2917ec6732f14b03e366acb8a5be47",
        "lib\/Listener\/UserDeletedListener.php": "7d4e0bfcc9c4637b9979bf2e06efc65bd19e752dbdc3612ac712d998afa7f0813a095e6b49f646a086af3921b8fa166eefce87097da81849ab89c0c7a408cebe",
        "lib\/Middleware\/Exceptions\/NotSubAdminException.php": "574c7bbfacf2476043c1e936d23278133ee20bc2acfa78e76df79ca85e47da5cb19c8e6c88516695cf6209fa8744909373b5648904a12445d61e1e648ca2f324",
        "lib\/Middleware\/ProvisioningApiMiddleware.php": "bb1891d35c8dd49faedd70cd07229bc316d180c6a2648b29a0ed62f46ed7acc0fa4d507ee31c88f954f14a021b808e5783035949250e4fac88da8f333b234e97"
    },
    "signature": "qdNbyNQYavknN5ecg2ov2E1TJHFdzeJOy2MV692yLWhsqk\/mZDu2lyjEY9Cff+HTDZSdnBEkQkiGDTBF4\/Ql9f9vKEr27XAIJcDLQxkQondTpORd+moNBf7oUHVk4bjmowql+SkvulLLTXeVsFEY1D9jv53SG664477dvtkT4Gkmx+cMqqTwJWPojqZFnff5g1I997btgrvK0+Lu7W6O8SNEsnJANt8l1xqASvlfroEmiZG7ZA1\/KHtAKGezAOv\/sE2vlDLLmu64hIumexJ5\/PWTYhzUv9FtRqInpudho4j0yfxzlBSsy7DCEVydvKSVeDvdTTGdwd9j8Ikip08bdg==",
    "certificate": "-----BEGIN CERTIFICATE-----\r\nMIIEojCCA4qgAwIBAgICEAAwDQYJKoZIhvcNAQELBQAwezELMAkGA1UEBhMCREUx\r\nGzAZBgNVBAgMEkJhZGVuLVd1ZXJ0dGVtYmVyZzEXMBUGA1UECgwOTmV4dGNsb3Vk\r\nIEdtYkgxNjA0BgNVBAMMLU5leHRjbG91ZCBDb2RlIFNpZ25pbmcgSW50ZXJtZWRp\r\nYXRlIEF1dGhvcml0eTAeFw0xNjA2MTIyMTA1MDZaFw00MTA2MDYyMTA1MDZaMGYx\r\nCzAJBgNVBAYTAkRFMRswGQYDVQQIDBJCYWRlbi1XdWVydHRlbWJlcmcxEjAQBgNV\r\nBAcMCVN0dXR0Z2FydDEXMBUGA1UECgwOTmV4dGNsb3VkIEdtYkgxDTALBgNVBAMM\r\nBGNvcmUwggEiMA0GCSqGSIb3DQEBAQUAA4IBDwAwggEKAoIBAQDUxcrn2DC892IX\r\n8+dJjZVh9YeHF65n2ha886oeAizOuHBdWBfzqt+GoUYTOjqZF93HZMcwy0P+xyCf\r\nQqak5Ke9dybN06RXUuGP45k9UYBp03qzlUzCDalrkj+Jd30LqcSC1sjRTsfuhc+u\r\nvH1IBuBnf7SMUJUcoEffbmmpAPlEcLHxlUGlGnz0q1e8UFzjbEFj3JucMO4ys35F\r\nqZS4dhvCngQhRW3DaMlQLXEUL9k3kFV+BzlkPzVZEtSmk4HJujFCnZj1vMcjQBg\/\r\nBqq1HCmUB6tulnGcxUzt\/Z\/oSIgnuGyENeke077W3EyryINL7EIyD4Xp7sxLizTM\r\nFCFCjjH1AgMBAAGjggFDMIIBPzAJBgNVHRMEAjAAMBEGCWCGSAGG+EIBAQQEAwIG\r\nQDAzBglghkgBhvhCAQ0EJhYkT3BlblNTTCBHZW5lcmF0ZWQgU2VydmVyIENlcnRp\r\nZmljYXRlMB0GA1UdDgQWBBQwc1H9AL8pRlW2e5SLCfPPqtqc0DCBpQYDVR0jBIGd\r\nMIGagBRt6m6qqTcsPIktFz79Ru7DnnjtdKF+pHwwejELMAkGA1UEBhMCREUxGzAZ\r\nBgNVBAgMEkJhZGVuLVd1ZXJ0dGVtYmVyZzESMBAGA1UEBwwJU3R1dHRnYXJ0MRcw\r\nFQYDVQQKDA5OZXh0Y2xvdWQgR21iSDEhMB8GA1UEAwwYTmV4dGNsb3VkIFJvb3Qg\r\nQXV0aG9yaXR5ggIQADAOBgNVHQ8BAf8EBAMCBaAwEwYDVR0lBAwwCgYIKwYBBQUH\r\nAwEwDQYJKoZIhvcNAQELBQADggEBADZ6+HV\/+0NEH3nahTBFxO6nKyR\/VWigACH0\r\nnaV0ecTcoQwDjKDNNFr+4S1WlHdwITlnNabC7v9rZ\/6QvbkrOTuO9fOR6azp1EwW\r\n2pixWqj0Sb9\/dSIVRpSq+jpBE6JAiX44dSR7zoBxRB8DgVO2Afy0s80xEpr5JAzb\r\nNYuPS7M5UHdAv2dr16fDcDIvn+vk92KpNh1NTeZFjBbRVQ9DXrgkRGW34TK8uSLI\r\nYG6jnfJ6eJgTaO431ywWPXNg1mUMaT\/+QBOgB299QVCKQU+lcZWptQt+RdsJUm46\r\nNY\/nARy4Oi4uOe88SuWITj9KhrFmEvrUlgM8FvoXA1ldrR7KiEg=\r\n-----END CERTIFICATE-----"
}